Nov 29 18:59:15.865 HYPERVISOR: Release 0.2.17-amd64/Linux (tag 2017072410)
Nov 29 18:59:15.865 HYPERVISOR: Started on IP = 127.0.0.1, TCP port = 53235.
Nov 29 18:59:15.868 HYPERVISOR: exec_cmd: hypervisor version 
Nov 29 18:59:15.868 HYPERVISOR: exec_cmd: hypervisor working_dir /media/actionmystique/SAMSUNG5-VMs/Labs/GNS3/git-Public-Labs-Collection/CCNP/TBSHOOT/L3-Technologies/IPv6/Addressing/Jean-Christophe_Manciot/1+/TT 2-solutions-linux/project-files/dynamips 
Nov 29 18:59:15.868 GENERAL: working_dir=/media/actionmystique/SAMSUNG5-VMs/Labs/GNS3/git-Public-Labs-Collection/CCNP/TBSHOOT/L3-Technologies/IPv6/Addressing/Jean-Christophe_Manciot/1+/TT 2-solutions-linux/project-files/dynamips
Nov 29 18:59:15.869 HYPERVISOR: exec_cmd: vm create ESW2 2 c3725 
Nov 29 18:59:15.869 VM: VM ESW2 created.
Nov 29 18:59:15.869 HYPERVISOR: exec_cmd: vm set_con_tcp_port ESW2 2002 
Nov 29 18:59:15.869 HYPERVISOR: exec_cmd: vm set_aux_tcp_port ESW2 2502 
Nov 29 18:59:15.870 HYPERVISOR: exec_cmd: c3725 get_mac_addr ESW2 
Nov 29 18:59:15.870 HYPERVISOR: exec_cmd: vm slot_add_binding ESW2 0 16 WIC-2T 
Nov 29 18:59:15.871 HYPERVISOR: exec_cmd: vm set_ios ESW2 /media/actionmystique/SAMSUNG5-VMs/Images/GNS3/IOS/c3725-adventerprisek9-mz.124-15.T10.image 
Nov 29 18:59:15.871 HYPERVISOR: exec_cmd: vm get_status ESW2 
Nov 29 18:59:15.871 HYPERVISOR: exec_cmd: vm set_idle_pc ESW2 0x6026b804 
Nov 29 18:59:15.872 HYPERVISOR: exec_cmd: vm get_status ESW2 
Nov 29 18:59:15.872 HYPERVISOR: exec_cmd: vm slot_add_binding ESW2 1 0 NM-16ESW 
Nov 29 18:59:15.873 HYPERVISOR: exec_cmd: c3725 set_mac_addr ESW2 c202.28c2.0000 
Nov 29 18:59:15.873 HYPERVISOR: exec_cmd: vm set_disk0 ESW2 1 
Nov 29 18:59:15.873 HYPERVISOR: exec_cmd: vm set_nvram ESW2 256 
Nov 29 18:59:15.874 HYPERVISOR: exec_cmd: vm set_config ESW2 configs/i2_startup-config.cfg 
Nov 29 18:59:15.874 HYPERVISOR: exec_cmd: vm set_config ESW2 configs/i2_startup-config.cfg configs/i2_private-config.cfg 
Nov 29 18:59:15.973 HYPERVISOR: exec_cmd: nio create_tap tap-99c42c2f-aa9e-4b7c-8baf-4021f9579f38 tap2 
Nov 29 18:59:15.974 HYPERVISOR: exec_cmd: vm slot_add_nio_binding ESW2 1 0 tap-99c42c2f-aa9e-4b7c-8baf-4021f9579f38 
Nov 29 18:59:15.974 HYPERVISOR: exec_cmd: vm get_status ESW2 
Nov 29 18:59:16.070 HYPERVISOR: exec_cmd: nio create_udp udp-4e74debe-5d26-4e9c-a32b-fd4772966e7c 15009 127.0.0.1 15010 
Nov 29 18:59:16.073 HYPERVISOR: exec_cmd: vm slot_add_nio_binding ESW2 1 2 udp-4e74debe-5d26-4e9c-a32b-fd4772966e7c 
Nov 29 18:59:16.074 HYPERVISOR: exec_cmd: vm get_status ESW2 
