Jul 19 16:10:47.907 HYPERVISOR: Release 0.2.16-amd64/Linux (tag 2015060118)
Jul 19 16:10:47.907 HYPERVISOR: Started on IP = 127.0.0.1, TCP port = 36503.
Jul 19 16:10:47.923 HYPERVISOR: exec_cmd: hypervisor version 
Jul 19 16:10:47.923 HYPERVISOR: exec_cmd: hypervisor working_dir /media/actionmystique/SAMSUNG-850-Ext4/Labs/GNS3/CCNP/TBSHOOT/Exam-Topology/Jean-Christophe_Manciot/1+/v1-solutions-linux/project-files/dynamips 
Jul 19 16:10:47.923 GENERAL: working_dir=/media/actionmystique/SAMSUNG-850-Ext4/Labs/GNS3/CCNP/TBSHOOT/Exam-Topology/Jean-Christophe_Manciot/1+/v1-solutions-linux/project-files/dynamips
Jul 19 16:10:47.923 HYPERVISOR: exec_cmd: vm create POP 10 c3725 
Jul 19 16:10:47.923 VM: VM POP created.
Jul 19 16:10:47.924 HYPERVISOR: exec_cmd: vm set_con_tcp_port POP 2017 
Jul 19 16:10:47.924 HYPERVISOR: exec_cmd: c3725 get_mac_addr POP 
Jul 19 16:10:47.924 HYPERVISOR: exec_cmd: c3725 set_mac_addr POP c20a.12bf.0000 
Jul 19 16:10:47.925 HYPERVISOR: exec_cmd: vm set_ios POP /media/actionmystique/SAMSUNG-850-Ext4/Images/GNS3/IOS/c3725-adventerprisek9-mz.124-15.T10.image 
Jul 19 16:10:47.925 HYPERVISOR: exec_cmd: vm get_status POP 
Jul 19 16:10:47.926 HYPERVISOR: exec_cmd: vm slot_add_binding POP 1 0 NM-16ESW 
Jul 19 16:10:47.926 HYPERVISOR: exec_cmd: vm get_status POP 
Jul 19 16:10:47.926 HYPERVISOR: exec_cmd: vm set_idle_pc POP 0x6026b804 
Jul 19 16:10:47.927 HYPERVISOR: exec_cmd: vm set_nvram POP 256 
Jul 19 16:10:47.927 HYPERVISOR: exec_cmd: vm set_disk0 POP 1 
Jul 19 16:10:47.928 HYPERVISOR: exec_cmd: vm slot_add_binding POP 0 16 WIC-2T 
Jul 19 16:10:47.928 HYPERVISOR: exec_cmd: vm set_config POP configs/i10_startup-config.cfg 
Jul 19 16:10:47.929 HYPERVISOR: exec_cmd: vm set_config POP configs/i10_startup-config.cfg configs/i10_private-config.cfg 
Jul 19 16:10:48.989 HYPERVISOR: exec_cmd: nio create_udp udp-af9878c6-f8ca-445b-a174-f4dab9bcc937 15054 127.0.0.1 15055 
Jul 19 16:10:48.990 HYPERVISOR: exec_cmd: vm slot_add_nio_binding POP 1 4 udp-af9878c6-f8ca-445b-a174-f4dab9bcc937 
Jul 19 16:10:48.990 HYPERVISOR: exec_cmd: vm get_status POP 
Jul 19 16:10:48.996 HYPERVISOR: exec_cmd: nio create_udp udp-b2995b08-eab3-472e-88cf-d36b7ea2fc22 15057 127.0.0.1 15056 
Jul 19 16:10:48.997 HYPERVISOR: exec_cmd: vm slot_add_nio_binding POP 1 2 udp-b2995b08-eab3-472e-88cf-d36b7ea2fc22 
Jul 19 16:10:48.997 HYPERVISOR: exec_cmd: vm get_status POP 
Jul 19 16:10:49.033 HYPERVISOR: exec_cmd: nio create_udp udp-06cc856b-3d97-4c5c-ab56-dcb277fd6424 15059 127.0.0.1 15058 
Jul 19 16:10:49.034 HYPERVISOR: exec_cmd: vm slot_add_nio_binding POP 1 1 udp-06cc856b-3d97-4c5c-ab56-dcb277fd6424 
Jul 19 16:10:49.034 HYPERVISOR: exec_cmd: vm get_status POP 
Jul 19 16:10:49.045 HYPERVISOR: exec_cmd: nio create_udp udp-ae0e9cc1-dbf5-450a-ba97-dee330320f19 15060 127.0.0.1 15061 
Jul 19 16:10:49.046 HYPERVISOR: exec_cmd: vm slot_add_nio_binding POP 1 3 udp-ae0e9cc1-dbf5-450a-ba97-dee330320f19 
Jul 19 16:10:49.046 HYPERVISOR: exec_cmd: vm get_status POP 
Jul 19 16:11:05.907 HYPERVISOR: exec_cmd: vm get_status POP 
Jul 19 16:11:05.913 HYPERVISOR: exec_cmd: vm extract_config POP 
Jul 19 16:11:05.921 HYPERVISOR: exec_cmd: vm delete POP 
Jul 19 16:11:05.921 VM: VM POP destroyed.
Jul 19 16:11:05.928 HYPERVISOR: exec_cmd: hypervisor stop 
Jul 19 16:11:05.938 HYPERVISOR: Stopped.
Jul 19 16:11:05.938 GENERAL: reset done.
