Nov 26 21:56:02.586 HYPERVISOR: Release 0.2.17-amd64/Linux (tag 2017072410)
Nov 26 21:56:02.586 HYPERVISOR: Started on IP = 127.0.0.1, TCP port = 50335.
Nov 26 21:56:02.607 HYPERVISOR: exec_cmd: hypervisor version 
Nov 26 21:56:02.612 HYPERVISOR: exec_cmd: hypervisor working_dir /media/actionmystique/SAMSUNG5-VMs/Labs/GNS3/git-Public-Labs-Collection/CCNP/TBSHOOT/Exam-Topology/Jean-Christophe_Manciot/1+/v1-solutions-linux/project-files/dynamips 
Nov 26 21:56:02.612 GENERAL: working_dir=/media/actionmystique/SAMSUNG5-VMs/Labs/GNS3/git-Public-Labs-Collection/CCNP/TBSHOOT/Exam-Topology/Jean-Christophe_Manciot/1+/v1-solutions-linux/project-files/dynamips
Nov 26 21:56:02.617 HYPERVISOR: exec_cmd: vm create R4 8 c7200 
Nov 26 21:56:02.617 VM: VM R4 created.
Nov 26 21:56:02.619 HYPERVISOR: exec_cmd: vm set_con_tcp_port R4 2003 
Nov 26 21:56:02.620 HYPERVISOR: exec_cmd: c7200 get_mac_addr R4 
Nov 26 21:56:02.622 HYPERVISOR: exec_cmd: vm get_status R4 
Nov 26 21:56:02.623 HYPERVISOR: exec_cmd: vm slot_add_binding R4 0 0 C7200-IO-FE 
Nov 26 21:56:02.624 HYPERVISOR: exec_cmd: vm get_status R4 
Nov 26 21:56:02.626 HYPERVISOR: exec_cmd: vm slot_add_binding R4 2 0 PA-GE 
Nov 26 21:56:02.627 HYPERVISOR: exec_cmd: vm get_status R4 
Nov 26 21:56:02.628 HYPERVISOR: exec_cmd: vm set_idle_pc R4 0x6062f0e0 
Nov 26 21:56:02.630 HYPERVISOR: exec_cmd: vm get_status R4 
Nov 26 21:56:02.631 HYPERVISOR: exec_cmd: vm slot_add_binding R4 1 0 PA-GE 
Nov 26 21:56:02.632 HYPERVISOR: exec_cmd: vm set_nvram R4 256 
Nov 26 21:56:02.634 HYPERVISOR: exec_cmd: vm get_status R4 
Nov 26 21:56:02.635 HYPERVISOR: exec_cmd: vm slot_add_binding R4 3 0 PA-GE 
Nov 26 21:56:02.637 HYPERVISOR: exec_cmd: vm get_status R4 
Nov 26 21:56:02.642 HYPERVISOR: exec_cmd: vm slot_remove_binding R4 0 0 
Nov 26 21:56:02.644 HYPERVISOR: exec_cmd: vm get_status R4 
Nov 26 21:56:02.645 HYPERVISOR: exec_cmd: vm slot_add_binding R4 0 0 C7200-IO-GE-E 
Nov 26 21:56:02.646 HYPERVISOR: exec_cmd: vm set_disk0 R4 1 
Nov 26 21:56:02.647 HYPERVISOR: exec_cmd: vm get_status R4 
Nov 26 21:56:02.648 HYPERVISOR: exec_cmd: vm slot_add_binding R4 4 0 PA-4T+ 
Nov 26 21:56:02.649 HYPERVISOR: exec_cmd: vm set_ram R4 512 
Nov 26 21:56:02.654 HYPERVISOR: exec_cmd: vm get_status R4 
Nov 26 21:56:02.668 HYPERVISOR: exec_cmd: vm slot_add_binding R4 6 0 PA-POS-OC3 
Nov 26 21:56:02.685 HYPERVISOR: exec_cmd: vm get_status R4 
Nov 26 21:56:02.693 HYPERVISOR: exec_cmd: vm slot_add_binding R4 5 0 PA-POS-OC3 
Nov 26 21:56:02.695 HYPERVISOR: exec_cmd: c7200 set_mac_addr R4 ca08.2e77.0000 
Nov 26 21:56:02.698 HYPERVISOR: exec_cmd: vm set_ios R4 /media/actionmystique/SAMSUNG5-VMs/Images/GNS3/IOS/c7200-adventerprisek9-mz.152-4.M2.image 
Nov 26 21:56:02.700 HYPERVISOR: exec_cmd: vm set_config R4 configs/i8_startup-config.cfg 
Nov 26 21:56:02.710 HYPERVISOR: exec_cmd: vm set_config R4 configs/i8_startup-config.cfg configs/i8_private-config.cfg 
Nov 26 21:56:03.543 HYPERVISOR: exec_cmd: nio create_udp udp-176129de-d6d9-4c0a-99ea-08deb468c319 15018 127.0.0.1 15020 
Nov 26 21:56:03.544 HYPERVISOR: exec_cmd: vm slot_add_nio_binding R4 0 0 udp-176129de-d6d9-4c0a-99ea-08deb468c319 
Nov 26 21:56:03.544 HYPERVISOR: exec_cmd: vm get_status R4 
Nov 26 21:56:03.560 HYPERVISOR: exec_cmd: nio create_udp udp-0e2d8a72-2f03-44c2-b104-3f53755bac05 15019 127.0.0.1 15021 
Nov 26 21:56:03.561 HYPERVISOR: exec_cmd: vm slot_add_nio_binding R4 1 0 udp-0e2d8a72-2f03-44c2-b104-3f53755bac05 
Nov 26 21:56:03.561 HYPERVISOR: exec_cmd: vm get_status R4 
Nov 26 21:56:03.657 HYPERVISOR: exec_cmd: nio create_udp udp-1ee742ea-4c57-43be-bd3f-ad3862166beb 15029 127.0.0.1 15031 
Nov 26 21:56:03.657 HYPERVISOR: exec_cmd: vm slot_add_nio_binding R4 4 0 udp-1ee742ea-4c57-43be-bd3f-ad3862166beb 
Nov 26 21:56:03.657 HYPERVISOR: exec_cmd: vm get_status R4 
