Nov 26 22:07:35.512 HYPERVISOR: Release 0.2.17-amd64/Linux (tag 2017072410)
Nov 26 22:07:35.512 HYPERVISOR: Started on IP = 127.0.0.1, TCP port = 36217.
Nov 26 22:07:35.515 HYPERVISOR: exec_cmd: hypervisor version 
Nov 26 22:07:35.515 HYPERVISOR: exec_cmd: hypervisor working_dir /media/actionmystique/SAMSUNG5-VMs/Labs/GNS3/git-Public-Labs-Collection/CCNP/TBSHOOT/Infrastructure-Services/DHCP-NAT/Jean-Christophe_Manciot/1+/DHCPv4/TT 2-linux/project-files/dynamips 
Nov 26 22:07:35.515 GENERAL: working_dir=/media/actionmystique/SAMSUNG5-VMs/Labs/GNS3/git-Public-Labs-Collection/CCNP/TBSHOOT/Infrastructure-Services/DHCP-NAT/Jean-Christophe_Manciot/1+/DHCPv4/TT 2-linux/project-files/dynamips
Nov 26 22:07:35.516 HYPERVISOR: exec_cmd: vm create ESW2 2 c3725 
Nov 26 22:07:35.516 VM: VM ESW2 created.
Nov 26 22:07:35.516 HYPERVISOR: exec_cmd: vm set_con_tcp_port ESW2 2002 
Nov 26 22:07:35.516 HYPERVISOR: exec_cmd: vm set_aux_tcp_port ESW2 2502 
Nov 26 22:07:35.517 HYPERVISOR: exec_cmd: c3725 get_mac_addr ESW2 
Nov 26 22:07:35.517 HYPERVISOR: exec_cmd: vm slot_add_binding ESW2 0 16 WIC-2T 
Nov 26 22:07:35.518 HYPERVISOR: exec_cmd: vm get_status ESW2 
Nov 26 22:07:35.518 HYPERVISOR: exec_cmd: vm set_idle_pc ESW2 0x614ac27c 
Nov 26 22:07:35.518 HYPERVISOR: exec_cmd: vm set_nvram ESW2 256 
Nov 26 22:07:35.519 HYPERVISOR: exec_cmd: vm get_status ESW2 
Nov 26 22:07:35.519 HYPERVISOR: exec_cmd: vm slot_add_binding ESW2 1 0 NM-16ESW 
Nov 26 22:07:35.519 HYPERVISOR: exec_cmd: vm set_ios ESW2 /media/actionmystique/SAMSUNG5-VMs/Images/GNS3/IOS/c3725-adventerprisek9-mz.124-15.T10.image 
Nov 26 22:07:35.521 HYPERVISOR: exec_cmd: vm set_disk0 ESW2 1 
Nov 26 22:07:35.527 HYPERVISOR: exec_cmd: c3725 set_mac_addr ESW2 c202.28c2.0000 
Nov 26 22:07:35.529 HYPERVISOR: exec_cmd: vm set_config ESW2 configs/i2_startup-config.cfg 
Nov 26 22:07:35.530 HYPERVISOR: exec_cmd: vm set_config ESW2 configs/i2_startup-config.cfg configs/i2_private-config.cfg 
Nov 26 22:07:35.683 HYPERVISOR: exec_cmd: nio create_udp udp-947d9311-5606-4a5d-b42e-88677303ea2f 15009 127.0.0.1 15008 
Nov 26 22:07:35.683 HYPERVISOR: exec_cmd: vm slot_add_nio_binding ESW2 1 2 udp-947d9311-5606-4a5d-b42e-88677303ea2f 
Nov 26 22:07:35.683 HYPERVISOR: exec_cmd: vm get_status ESW2 
Nov 26 22:07:41.270 HYPERVISOR: exec_cmd: nio create_tap tap-e932ec94-b59e-4e72-971f-478863728a2a tap0 
Nov 26 22:07:41.270 HYPERVISOR: exec_cmd: vm slot_add_nio_binding ESW2 1 0 tap-e932ec94-b59e-4e72-971f-478863728a2a 
Nov 26 22:07:41.271 HYPERVISOR: exec_cmd: vm get_status ESW2 
