Dec 04 11:07:14.024 HYPERVISOR: Release 0.2.17-amd64/Linux (tag 2017072410)
Dec 04 11:07:14.024 HYPERVISOR: Started on IP = 127.0.0.1, TCP port = 53981.
Dec 04 11:07:14.071 HYPERVISOR: exec_cmd: hypervisor version 
Dec 04 11:07:14.072 HYPERVISOR: exec_cmd: hypervisor working_dir /media/actionmystique/SAMSUNG5-VMs/Labs/GNS3/TT 1-solutions-linux-/project-files/dynamips 
Dec 04 11:07:14.072 GENERAL: working_dir=/media/actionmystique/SAMSUNG5-VMs/Labs/GNS3/TT 1-solutions-linux-/project-files/dynamips
Dec 04 11:07:14.078 HYPERVISOR: exec_cmd: vm create ESW1 1 c3725 
Dec 04 11:07:14.078 VM: VM ESW1 created.
Dec 04 11:07:14.079 HYPERVISOR: exec_cmd: vm set_con_tcp_port ESW1 2004 
Dec 04 11:07:14.080 HYPERVISOR: exec_cmd: c3725 get_mac_addr ESW1 
Dec 04 11:07:14.080 HYPERVISOR: exec_cmd: vm set_nvram ESW1 256 
Dec 04 11:07:14.088 HYPERVISOR: exec_cmd: vm set_ios ESW1 /media/actionmystique/SAMSUNG5-VMs/Images/GNS3/IOS/c3725-adventerprisek9-mz.124-15.T10.image 
Dec 04 11:07:14.098 HYPERVISOR: exec_cmd: c3725 set_mac_addr ESW1 c201.1b91.0000 
Dec 04 11:07:14.100 HYPERVISOR: exec_cmd: vm get_status ESW1 
Dec 04 11:07:14.100 HYPERVISOR: exec_cmd: vm slot_add_binding ESW1 1 0 NM-16ESW 
Dec 04 11:07:14.101 HYPERVISOR: exec_cmd: vm get_status ESW1 
Dec 04 11:07:14.102 HYPERVISOR: exec_cmd: vm set_idle_pc ESW1 0x6026b804 
Dec 04 11:07:14.103 HYPERVISOR: exec_cmd: vm set_disk0 ESW1 1 
Dec 04 11:07:14.104 HYPERVISOR: exec_cmd: vm slot_add_binding ESW1 0 16 WIC-2T 
Dec 04 11:07:14.104 HYPERVISOR: exec_cmd: vm set_config ESW1 configs/ios_base_startup-config.txt 
Dec 04 11:07:14.105 HYPERVISOR: exec_cmd: vm set_config ESW1 configs/ios_base_startup-config.txt configs/ios_base_private-config.txt 
Dec 04 11:07:14.379 HYPERVISOR: exec_cmd: nio create_udp udp-ee9662eb-acf2-4c3a-9427-009d05395603 15007 127.0.0.1 15004 
Dec 04 11:07:14.379 HYPERVISOR: exec_cmd: vm slot_add_nio_binding ESW1 1 0 udp-ee9662eb-acf2-4c3a-9427-009d05395603 
Dec 04 11:07:14.380 HYPERVISOR: exec_cmd: vm get_status ESW1 
Dec 04 11:07:14.415 HYPERVISOR: exec_cmd: nio create_udp udp-ec48c770-f0f7-4a04-a1da-1de59f576268 15009 127.0.0.1 15008 
Dec 04 11:07:14.416 HYPERVISOR: exec_cmd: vm slot_add_nio_binding ESW1 1 1 udp-ec48c770-f0f7-4a04-a1da-1de59f576268 
Dec 04 11:07:14.416 HYPERVISOR: exec_cmd: vm get_status ESW1 
Dec 04 11:07:27.333 HYPERVISOR: exec_cmd: vm get_status ESW1 
Dec 04 11:07:27.336 HYPERVISOR: exec_cmd: vm extract_config ESW1 
Dec 04 11:07:27.337 HYPERVISOR: exec_cmd: vm delete ESW1 
Dec 04 11:07:27.337 VM: VM ESW1 destroyed.
Dec 04 11:07:27.340 HYPERVISOR: exec_cmd: hypervisor stop 
Dec 04 11:07:27.583 HYPERVISOR: Stopped.
Dec 04 11:07:27.583 GENERAL: reset done.
