Nov 26 20:53:21.452 HYPERVISOR: Release 0.2.17-amd64/Linux (tag 2017072410)
Nov 26 20:53:21.452 HYPERVISOR: Started on IP = 127.0.0.1, TCP port = 43923.
Nov 26 20:53:21.502 HYPERVISOR: exec_cmd: hypervisor version 
Nov 26 20:53:21.504 HYPERVISOR: exec_cmd: hypervisor working_dir /media/actionmystique/SAMSUNG5-VMs/Labs/GNS3/VPN Tunnels/project-files/dynamips 
Nov 26 20:53:21.504 GENERAL: working_dir=/media/actionmystique/SAMSUNG5-VMs/Labs/GNS3/VPN Tunnels/project-files/dynamips
Nov 26 20:53:21.505 HYPERVISOR: exec_cmd: vm create I5 15 c7200 
Nov 26 20:53:21.505 VM: VM I5 created.
Nov 26 20:53:21.507 HYPERVISOR: exec_cmd: vm set_con_tcp_port I5 2056 
Nov 26 20:53:21.508 HYPERVISOR: exec_cmd: vm set_aux_tcp_port I5 2156 
Nov 26 20:53:21.514 HYPERVISOR: exec_cmd: c7200 get_mac_addr I5 
Nov 26 20:53:21.528 HYPERVISOR: exec_cmd: vm get_status I5 
Nov 26 20:53:21.530 HYPERVISOR: exec_cmd: vm slot_add_binding I5 0 0 C7200-IO-FE 
Nov 26 20:53:21.537 HYPERVISOR: exec_cmd: vm get_status I5 
Nov 26 20:53:21.539 HYPERVISOR: exec_cmd: vm slot_remove_binding I5 0 0 
Nov 26 20:53:21.540 HYPERVISOR: exec_cmd: vm get_status I5 
Nov 26 20:53:21.542 HYPERVISOR: exec_cmd: vm slot_add_binding I5 0 0 C7200-IO-GE-E 
Nov 26 20:53:21.544 HYPERVISOR: exec_cmd: vm set_ram I5 512 
Nov 26 20:53:21.546 HYPERVISOR: exec_cmd: vm get_status I5 
Nov 26 20:53:21.548 HYPERVISOR: exec_cmd: vm set_idle_pc I5 0x60188e14 
Nov 26 20:53:21.550 HYPERVISOR: exec_cmd: vm get_status I5 
Nov 26 20:53:21.555 HYPERVISOR: exec_cmd: vm slot_add_binding I5 1 0 PA-8T 
Nov 26 20:53:21.567 HYPERVISOR: exec_cmd: vm set_ios I5 /media/actionmystique/SAMSUNG5-VMs/Images/GNS3/IOS/c7200-adventerprisek9-mz.152-4.M2.image 
Nov 26 20:53:21.570 HYPERVISOR: exec_cmd: vm set_config I5 configs/i15_startup-config.cfg 
Nov 26 20:53:23.025 HYPERVISOR: exec_cmd: nio create_udp udp-d7425843-0cbf-4af4-851f-19e42d29c839 15044 127.0.0.1 15045 
Nov 26 20:53:23.025 HYPERVISOR: exec_cmd: vm slot_add_nio_binding I5 1 2 udp-d7425843-0cbf-4af4-851f-19e42d29c839 
Nov 26 20:53:23.025 HYPERVISOR: exec_cmd: vm get_status I5 
Nov 26 20:53:23.040 HYPERVISOR: exec_cmd: nio create_udp udp-7a7dbf77-7bf1-43bd-a6d6-6357f2c01f5b 15048 127.0.0.1 15046 
Nov 26 20:53:23.044 HYPERVISOR: exec_cmd: vm slot_add_nio_binding I5 1 0 udp-7a7dbf77-7bf1-43bd-a6d6-6357f2c01f5b 
Nov 26 20:53:23.045 HYPERVISOR: exec_cmd: vm get_status I5 
Nov 26 20:53:23.063 HYPERVISOR: exec_cmd: nio create_udp udp-e5e1ff5b-c035-4c07-86ad-a70cf2507861 15050 127.0.0.1 15047 
Nov 26 20:53:23.064 HYPERVISOR: exec_cmd: vm slot_add_nio_binding I5 0 0 udp-e5e1ff5b-c035-4c07-86ad-a70cf2507861 
Nov 26 20:53:23.065 HYPERVISOR: exec_cmd: vm get_status I5 
Nov 26 20:53:23.112 HYPERVISOR: exec_cmd: nio create_udp udp-1ea24382-feb1-459a-92e9-f785da5b20bd 15052 127.0.0.1 15053 
Nov 26 20:53:23.113 HYPERVISOR: exec_cmd: vm slot_add_nio_binding I5 1 1 udp-1ea24382-feb1-459a-92e9-f785da5b20bd 
Nov 26 20:53:23.115 HYPERVISOR: exec_cmd: vm get_status I5 
Nov 26 20:53:23.225 HYPERVISOR: exec_cmd: nio create_udp udp-e847116a-26ea-4ab3-9304-e57c64a4c3a7 15062 127.0.0.1 15063 
Nov 26 20:53:23.228 HYPERVISOR: exec_cmd: vm slot_add_nio_binding I5 1 3 udp-e847116a-26ea-4ab3-9304-e57c64a4c3a7 
Nov 26 20:53:23.229 HYPERVISOR: exec_cmd: vm get_status I5 
Nov 26 20:53:23.301 HYPERVISOR: exec_cmd: nio create_udp udp-e1accd6a-df80-4746-a47d-b6cee1e6e8e7 15071 127.0.0.1 15069 
Nov 26 20:53:23.302 HYPERVISOR: exec_cmd: vm slot_add_nio_binding I5 1 4 udp-e1accd6a-df80-4746-a47d-b6cee1e6e8e7 
Nov 26 20:53:23.305 HYPERVISOR: exec_cmd: vm get_status I5 
Nov 26 20:53:27.556 HYPERVISOR: exec_cmd: vm extract_config I5 
Nov 26 20:54:29.871 HYPERVISOR: exec_cmd: vm get_status I5 
Nov 26 20:54:29.877 HYPERVISOR: exec_cmd: vm extract_config I5 
Nov 26 20:54:29.882 HYPERVISOR: exec_cmd: vm delete I5 
Nov 26 20:54:29.882 VM: VM I5 destroyed.
Nov 26 20:54:29.888 HYPERVISOR: exec_cmd: hypervisor stop 
Nov 26 20:54:30.048 HYPERVISOR: Stopped.
Nov 26 20:54:30.048 GENERAL: reset done.
