Nov 28 08:19:23.722 HYPERVISOR: Release 0.2.17-amd64/Linux (tag 2017072410)
Nov 28 08:19:23.722 HYPERVISOR: Started on IP = 127.0.0.1, TCP port = 57821.
Nov 28 08:19:23.741 HYPERVISOR: exec_cmd: hypervisor version 
Nov 28 08:19:23.742 HYPERVISOR: exec_cmd: hypervisor working_dir /media/actionmystique/SAMSUNG5-VMs/Labs/GNS3/git-Public-Labs-Collection/CCNP/TBSHOOT/L3-Technologies/IPv4/Routing/Routed Port/Jean-Christophe_Manciot/1+/TT 1-solutions-linux/project-files/dynamips 
Nov 28 08:19:23.742 GENERAL: working_dir=/media/actionmystique/SAMSUNG5-VMs/Labs/GNS3/git-Public-Labs-Collection/CCNP/TBSHOOT/L3-Technologies/IPv4/Routing/Routed Port/Jean-Christophe_Manciot/1+/TT 1-solutions-linux/project-files/dynamips
Nov 28 08:19:23.743 HYPERVISOR: exec_cmd: vm create ESW3 3 c3725 
Nov 28 08:19:23.743 VM: VM ESW3 created.
Nov 28 08:19:23.743 HYPERVISOR: exec_cmd: vm set_con_tcp_port ESW3 2003 
Nov 28 08:19:23.743 HYPERVISOR: exec_cmd: c3725 get_mac_addr ESW3 
Nov 28 08:19:23.744 HYPERVISOR: exec_cmd: vm set_disk0 ESW3 1 
Nov 28 08:19:23.744 HYPERVISOR: exec_cmd: vm get_status ESW3 
Nov 28 08:19:23.744 HYPERVISOR: exec_cmd: vm slot_add_binding ESW3 1 0 NM-16ESW 
Nov 28 08:19:23.745 HYPERVISOR: exec_cmd: vm set_ios ESW3 /media/actionmystique/SAMSUNG5-VMs/Images/GNS3/IOS/c3725-adventerprisek9-mz.124-15.T10.image 
Nov 28 08:19:23.745 HYPERVISOR: exec_cmd: c3725 set_mac_addr ESW3 c203.165d.0000 
Nov 28 08:19:23.745 HYPERVISOR: exec_cmd: vm slot_add_binding ESW3 0 16 WIC-2T 
Nov 28 08:19:23.746 HYPERVISOR: exec_cmd: vm get_status ESW3 
Nov 28 08:19:23.746 HYPERVISOR: exec_cmd: vm set_idle_pc ESW3 0x6026b804 
Nov 28 08:19:23.746 HYPERVISOR: exec_cmd: vm set_nvram ESW3 256 
Nov 28 08:19:23.747 HYPERVISOR: exec_cmd: vm set_config ESW3 configs/i3_startup-config.cfg 
Nov 28 08:19:23.747 HYPERVISOR: exec_cmd: vm set_config ESW3 configs/i3_startup-config.cfg configs/i3_private-config.cfg 
Nov 28 08:19:23.834 HYPERVISOR: exec_cmd: nio create_udp udp-64ef548e-bca9-47f5-ae84-499b99ac3016 15006 127.0.0.1 15007 
Nov 28 08:19:23.835 HYPERVISOR: exec_cmd: vm slot_add_nio_binding ESW3 1 1 udp-64ef548e-bca9-47f5-ae84-499b99ac3016 
Nov 28 08:19:23.835 HYPERVISOR: exec_cmd: vm get_status ESW3 
Nov 28 08:19:28.762 HYPERVISOR: exec_cmd: nio create_gen_eth generic_ethernet-164be0a1-2237-47ea-968d-0d2dd49958a7 enp3s0 
Nov 28 08:19:28.809 HYPERVISOR: exec_cmd: vm slot_add_nio_binding ESW3 1 2 generic_ethernet-164be0a1-2237-47ea-968d-0d2dd49958a7 
Nov 28 08:19:28.810 HYPERVISOR: exec_cmd: vm get_status ESW3 
Nov 28 08:20:02.544 HYPERVISOR: exec_cmd: nio create_tap tap-c1980d48-72e3-4d0f-8ed3-0897993a382b tap6 
Nov 28 08:20:02.544 HYPERVISOR: exec_cmd: vm slot_add_nio_binding ESW3 1 0 tap-c1980d48-72e3-4d0f-8ed3-0897993a382b 
Nov 28 08:20:02.545 HYPERVISOR: exec_cmd: vm get_status ESW3 
Nov 28 08:20:06.179 HYPERVISOR: exec_cmd: vm extract_config ESW3 
