Nov 28 08:54:46.541 HYPERVISOR: Release 0.2.17-amd64/Linux (tag 2017072410)
Nov 28 08:54:46.541 HYPERVISOR: Started on IP = 127.0.0.1, TCP port = 38489.
Nov 28 08:54:46.547 HYPERVISOR: exec_cmd: hypervisor version 
Nov 28 08:54:46.549 HYPERVISOR: exec_cmd: hypervisor working_dir /media/actionmystique/SAMSUNG5-VMs/Labs/GNS3/git-Public-Labs-Collection/CCNP/TBSHOOT/L3-Technologies/IPv4/Routing-Protocols/OSPFv2/Jean-Christophe_Manciot/1+/TT 3-solutions-linux/project-files/dynamips 
Nov 28 08:54:46.549 GENERAL: working_dir=/media/actionmystique/SAMSUNG5-VMs/Labs/GNS3/git-Public-Labs-Collection/CCNP/TBSHOOT/L3-Technologies/IPv4/Routing-Protocols/OSPFv2/Jean-Christophe_Manciot/1+/TT 3-solutions-linux/project-files/dynamips
Nov 28 08:54:46.550 HYPERVISOR: exec_cmd: vm create ESW2 2 c3725 
Nov 28 08:54:46.550 VM: VM ESW2 created.
Nov 28 08:54:46.551 HYPERVISOR: exec_cmd: vm set_con_tcp_port ESW2 2005 
Nov 28 08:54:46.552 HYPERVISOR: exec_cmd: c3725 get_mac_addr ESW2 
Nov 28 08:54:46.553 HYPERVISOR: exec_cmd: vm set_disk0 ESW2 1 
Nov 28 08:54:46.554 HYPERVISOR: exec_cmd: vm get_status ESW2 
Nov 28 08:54:46.555 HYPERVISOR: exec_cmd: vm slot_add_binding ESW2 1 0 NM-16ESW 
Nov 28 08:54:46.556 HYPERVISOR: exec_cmd: vm set_ios ESW2 /media/actionmystique/SAMSUNG5-VMs/Images/GNS3/IOS/c3725-adventerprisek9-mz.124-15.T10.image 
Nov 28 08:54:46.557 HYPERVISOR: exec_cmd: c3725 set_mac_addr ESW2 c202.1bd4.0000 
Nov 28 08:54:46.558 HYPERVISOR: exec_cmd: vm slot_add_binding ESW2 0 16 WIC-2T 
Nov 28 08:54:46.559 HYPERVISOR: exec_cmd: vm get_status ESW2 
Nov 28 08:54:46.560 HYPERVISOR: exec_cmd: vm set_idle_pc ESW2 0x6026b804 
Nov 28 08:54:46.561 HYPERVISOR: exec_cmd: vm set_nvram ESW2 256 
Nov 28 08:54:46.562 HYPERVISOR: exec_cmd: vm set_config ESW2 configs/ios_base_startup-config.txt 
Nov 28 08:54:46.564 HYPERVISOR: exec_cmd: vm set_config ESW2 configs/ios_base_startup-config.txt configs/ios_base_private-config.txt 
Nov 28 08:54:46.785 HYPERVISOR: exec_cmd: nio create_udp udp-e48a017b-ecf3-45c2-86a7-94780a48e2d7 15011 127.0.0.1 15010 
Nov 28 08:54:46.786 HYPERVISOR: exec_cmd: vm slot_add_nio_binding ESW2 1 0 udp-e48a017b-ecf3-45c2-86a7-94780a48e2d7 
Nov 28 08:54:46.786 HYPERVISOR: exec_cmd: vm get_status ESW2 
