Nov 28 08:54:53.250 HYPERVISOR: Release 0.2.17-amd64/Linux (tag 2017072410)
Nov 28 08:54:53.250 HYPERVISOR: Started on IP = 127.0.0.1, TCP port = 60357.
Nov 28 08:54:53.264 HYPERVISOR: exec_cmd: hypervisor version 
Nov 28 08:54:53.265 HYPERVISOR: exec_cmd: hypervisor working_dir /media/actionmystique/SAMSUNG5-VMs/Labs/GNS3/TT 3-solutions-linux-/project-files/dynamips 
Nov 28 08:54:53.265 GENERAL: working_dir=/media/actionmystique/SAMSUNG5-VMs/Labs/GNS3/TT 3-solutions-linux-/project-files/dynamips
Nov 28 08:54:53.265 HYPERVISOR: exec_cmd: vm create ESW2 2 c3725 
Nov 28 08:54:53.265 VM: VM ESW2 created.
Nov 28 08:54:53.265 HYPERVISOR: exec_cmd: vm set_con_tcp_port ESW2 2005 
Nov 28 08:54:53.266 HYPERVISOR: exec_cmd: c3725 get_mac_addr ESW2 
Nov 28 08:54:53.266 HYPERVISOR: exec_cmd: vm set_disk0 ESW2 1 
Nov 28 08:54:53.266 HYPERVISOR: exec_cmd: vm get_status ESW2 
Nov 28 08:54:53.267 HYPERVISOR: exec_cmd: vm slot_add_binding ESW2 1 0 NM-16ESW 
Nov 28 08:54:53.267 HYPERVISOR: exec_cmd: vm set_ios ESW2 /media/actionmystique/SAMSUNG5-VMs/Images/GNS3/IOS/c3725-adventerprisek9-mz.124-15.T10.image 
Nov 28 08:54:53.268 HYPERVISOR: exec_cmd: c3725 set_mac_addr ESW2 c202.1bd4.0000 
Nov 28 08:54:53.268 HYPERVISOR: exec_cmd: vm slot_add_binding ESW2 0 16 WIC-2T 
Nov 28 08:54:53.268 HYPERVISOR: exec_cmd: vm get_status ESW2 
Nov 28 08:54:53.269 HYPERVISOR: exec_cmd: vm set_idle_pc ESW2 0x6026b804 
Nov 28 08:54:53.269 HYPERVISOR: exec_cmd: vm set_nvram ESW2 256 
Nov 28 08:54:53.270 HYPERVISOR: exec_cmd: vm set_config ESW2 configs/ios_base_startup-config.txt 
Nov 28 08:54:53.270 HYPERVISOR: exec_cmd: vm set_config ESW2 configs/ios_base_startup-config.txt configs/ios_base_private-config.txt 
Nov 28 08:54:53.588 HYPERVISOR: exec_cmd: nio create_udp udp-587869b4-b9f7-4d3c-b9a5-abef41931be5 15001 127.0.0.1 15000 
Nov 28 08:54:53.595 HYPERVISOR: exec_cmd: vm slot_add_nio_binding ESW2 1 0 udp-587869b4-b9f7-4d3c-b9a5-abef41931be5 
Nov 28 08:54:53.601 HYPERVISOR: exec_cmd: vm get_status ESW2 
Nov 28 08:55:04.313 HYPERVISOR: exec_cmd: vm get_status ESW2 
Nov 28 08:55:04.314 HYPERVISOR: exec_cmd: vm extract_config ESW2 
Nov 28 08:55:04.324 HYPERVISOR: exec_cmd: vm delete ESW2 
Nov 28 08:55:04.324 VM: VM ESW2 destroyed.
Nov 28 08:55:04.326 HYPERVISOR: exec_cmd: hypervisor stop 
Nov 28 08:55:04.776 HYPERVISOR: Stopped.
Nov 28 08:55:04.776 GENERAL: reset done.
