Nov 26 22:08:10.845 HYPERVISOR: Release 0.2.17-amd64/Linux (tag 2017072410)
Nov 26 22:08:10.845 HYPERVISOR: Started on IP = 127.0.0.1, TCP port = 40375.
Nov 26 22:08:10.855 HYPERVISOR: exec_cmd: hypervisor version 
Nov 26 22:08:10.857 HYPERVISOR: exec_cmd: hypervisor working_dir /media/actionmystique/SAMSUNG5-VMs/Labs/GNS3/git-Public-Labs-Collection/CCNP/TBSHOOT/Infrastructure-Services/DHCP-NAT/Jean-Christophe_Manciot/1+/DHCPv4/TT 2-solutions-linux/project-files/dynamips 
Nov 26 22:08:10.857 GENERAL: working_dir=/media/actionmystique/SAMSUNG5-VMs/Labs/GNS3/git-Public-Labs-Collection/CCNP/TBSHOOT/Infrastructure-Services/DHCP-NAT/Jean-Christophe_Manciot/1+/DHCPv4/TT 2-solutions-linux/project-files/dynamips
Nov 26 22:08:10.857 HYPERVISOR: exec_cmd: vm create ESW2 2 c3725 
Nov 26 22:08:10.857 VM: VM ESW2 created.
Nov 26 22:08:10.858 HYPERVISOR: exec_cmd: vm set_con_tcp_port ESW2 2002 
Nov 26 22:08:10.858 HYPERVISOR: exec_cmd: vm set_aux_tcp_port ESW2 2502 
Nov 26 22:08:10.858 HYPERVISOR: exec_cmd: c3725 get_mac_addr ESW2 
Nov 26 22:08:10.859 HYPERVISOR: exec_cmd: vm slot_add_binding ESW2 0 16 WIC-2T 
Nov 26 22:08:10.859 HYPERVISOR: exec_cmd: vm get_status ESW2 
Nov 26 22:08:10.859 HYPERVISOR: exec_cmd: vm set_idle_pc ESW2 0x60c05928 
Nov 26 22:08:10.860 HYPERVISOR: exec_cmd: vm get_status ESW2 
Nov 26 22:08:10.860 HYPERVISOR: exec_cmd: vm slot_add_binding ESW2 1 0 NM-16ESW 
Nov 26 22:08:10.860 HYPERVISOR: exec_cmd: vm set_nvram ESW2 256 
Nov 26 22:08:10.861 HYPERVISOR: exec_cmd: vm set_ios ESW2 /media/actionmystique/SAMSUNG5-VMs/Images/GNS3/IOS/c3725-adventerprisek9-mz.124-15.T10.image 
Nov 26 22:08:10.862 HYPERVISOR: exec_cmd: vm set_disk0 ESW2 1 
Nov 26 22:08:10.862 HYPERVISOR: exec_cmd: c3725 set_mac_addr ESW2 c202.28c2.0000 
Nov 26 22:08:10.862 HYPERVISOR: exec_cmd: vm set_config ESW2 configs/i2_startup-config.cfg 
Nov 26 22:08:10.863 HYPERVISOR: exec_cmd: vm set_config ESW2 configs/i2_startup-config.cfg configs/i2_private-config.cfg 
Nov 26 22:08:11.018 HYPERVISOR: exec_cmd: nio create_udp udp-b944195e-6c54-44fd-92c4-3802dd004c45 15009 127.0.0.1 15008 
Nov 26 22:08:11.019 HYPERVISOR: exec_cmd: vm slot_add_nio_binding ESW2 1 2 udp-b944195e-6c54-44fd-92c4-3802dd004c45 
Nov 26 22:08:11.019 HYPERVISOR: exec_cmd: vm get_status ESW2 
Nov 26 22:08:29.657 HYPERVISOR: exec_cmd: nio create_tap tap-641ae191-78fc-492d-ad9f-97e40823a520 tap0 
Nov 26 22:08:29.658 HYPERVISOR: exec_cmd: vm slot_add_nio_binding ESW2 1 0 tap-641ae191-78fc-492d-ad9f-97e40823a520 
Nov 26 22:08:29.658 HYPERVISOR: exec_cmd: vm get_status ESW2 
