autostart = False
version = 0.8.4-RC3
[127.0.0.1:7200]
    workingdir = working
    udp = 11000
    [[3725]]
        image = C:\Users\ActionMystique\Google Drive\Missions\Certifications\Cisco\IOS\Binaries\c3725-adventerprisek9-mz.124-15.T5.image
        ram = 128
        idlepc = 0x602649b4
        idlemax = 500
        sparsemem = True
    [[ROUTER ALS1]]
        model = 3725
        console = 2004
        aux = 2504
        cnfg = configs\ALS1.cfg
        slot1 = NM-16ESW
        f1/6 = NIO_udp:30000:127.0.0.1:20000
        f1/7 = DLS1 f1/7
        f1/8 = DLS1 f1/8
        f1/9 = DLS2 f1/9
        f1/10 = DLS2 f1/10
        f1/11 = ALS2 f1/11
        f1/12 = ALS2 f1/12
        symbol = EtherSwitch router
        x = -197.19545272
        y = 97.8483607908
        z = 1.0
        hx = 6.13558864609
        hy = 47.173714519
[127.0.0.1:7201]
    workingdir = working
    udp = 11100
    [[3725]]
        image = C:\Users\ActionMystique\Google Drive\Missions\Certifications\Cisco\IOS\Binaries\c3725-adventerprisek9-mz.124-15.T5.image
        ram = 128
        idlepc = 0x602649b4
        idlemax = 500
        sparsemem = True
        ghostios = True
    [[ROUTER ALS2]]
        model = 3725
        console = 2007
        aux = 2507
        cnfg = configs\ALS2.cfg
        slot1 = NM-16ESW
        f1/6 = NIO_udp:30001:127.0.0.1:20001
        f1/7 = DLS2 f1/7
        f1/8 = DLS2 f1/8
        f1/9 = DLS1 f1/9
        f1/10 = DLS1 f1/10
        f1/11 = ALS1 f1/11
        f1/12 = ALS1 f1/12
        symbol = EtherSwitch router
        x = 106.413446628
        y = 97.5468855488
        z = 1.0
        hx = 5.0
        hy = 45.0960307126
[127.0.0.1:7206]
    workingdir = working
    udp = 11600
    [[3725]]
        image = C:\Users\ActionMystique\Google Drive\Missions\Certifications\Cisco\IOS\Binaries\c3725-adventerprisek9-mz.124-15.T5.image
        ram = 128
        idlepc = 0x602649b4
        idlemax = 500
        sparsemem = True
        ghostios = True
    [[ROUTER DLS2]]
        model = 3725
        console = 2107
        aux = 2508
        cnfg = configs\DLS2.cfg
        slot1 = NM-16ESW
        f1/6 = NIO_udp:30003:127.0.0.1:20003
        f1/7 = ALS2 f1/7
        f1/8 = ALS2 f1/8
        f1/9 = ALS1 f1/9
        f1/10 = ALS1 f1/10
        f1/11 = DLS1 f1/11
        f1/12 = DLS1 f1/12
        symbol = EtherSwitch router
        x = 105.587383012
        y = -138.935158174
        z = 1.0
[127.0.0.1:7205]
    workingdir = working
    udp = 11500
    [[3725]]
        image = C:\Users\ActionMystique\Google Drive\Missions\Certifications\Cisco\IOS\Binaries\c3725-adventerprisek9-mz.124-15.T5.image
        ram = 128
        idlepc = 0x602649b4
        idlemax = 500
        sparsemem = True
        ghostios = True
    [[ROUTER DLS1]]
        model = 3725
        console = 2125
        aux = 2525
        cnfg = configs\DLS1.cfg
        slot1 = NM-16ESW
        f1/6 = NIO_udp:30002:127.0.0.1:20002
        f1/7 = ALS1 f1/7
        f1/8 = ALS1 f1/8
        f1/9 = ALS2 f1/9
        f1/10 = ALS2 f1/10
        f1/11 = DLS2 f1/11
        f1/12 = DLS2 f1/12
        symbol = EtherSwitch router
        x = -196.370121139
        y = -138.282982139
        z = 1.0
[GNS3-DATA]
    configs = configs
    workdir = working
    m11 = 0.766664172334
    m22 = 0.766664172334
    [[NOTE 1]]
        text = "1: Configure the host IP settings.\n2: Configure basic switch parameters.\n3: Configure trunks and EtherChannels between switches.\n4: Configure VTP client on ALS1 and ALS2.\n5: Configure VTP server on DLS1 and DLS2.\n6: Configure access ports.\n7: Configure DLS1 as PVST+ Root primary for VLANs 1,10,30\n8: Configure DLS1 as PVST+ Root secondary for VLANs 20,40\n9: Configure DLS2 as PVST+ Root primary for VLANs 20,40\n10: Configure DLS2 as PVST+ Root secondary for VLANs 1,10,30\n11: Configure HSRP interfaces and enable routing on DLS1 and DLS2:\n      DLS1 Active for VLANs 1,10,30\n      DLS2 Active for VLANs 20,40\n12: Verify the HSRP configuration.\n13: Verify connectivity between VLANs.\n14: Verify HSRP functionally."
        x = -832.176620512
        y = -465.91452028
    [[NOTE 2]]
        text = "       Payroll\n       VLAN 10\n172.16.10.100/24"
        x = -390.00126886
        y = 151.044008721
        color = "#0055ff"
    [[NOTE 3]]
        text = "5-1 HSRP"
        x = -88.8185174027
        y = -502.443765273
        font = "MS Shell Dlg 2,20,-1,5,75,0,1,0,0,0"
        color = "#0055ff"
    [[NOTE 4]]
        text = "   HSRP vIP/VLAN\n1: 172.16.1.254/24\n10: 172.16.10.254/24\n20: 172.16.20.254/24\n30: 172.16.30.254/24\n40: 172.16.40.254/24"
        x = -91.3046448837
        y = -299.826893256
        color = "#0055ff"
    [[NOTE 5]]
        text = "VLAN 1: 172.16.1.1/24"
        x = -249.131245325
        y = -179.826502837
        color = "#0055ff"
    [[NOTE 6]]
        text = "       Finance\n       VLAN 30\n172.16.30.100/24"
        x = -397.827381279
        y = -88.956576907
        color = "#0055ff"
    [[NOTE 7]]
        text = "   EtherChannel\nAll 802.1Q Trunks"
        x = -71.7393638372
        y = 35.8263076279
        color = "#0055ff"
    [[NOTE 8]]
        text = "     Engineering\n       VLAN 20\n172.16.20.100/24"
        x = 242.609484977
        y = 149.304937698
        color = "#0055ff"
    [[NOTE 9]]
        text = "     SQL Server\n       VLAN 40\n172.16.40.100/24"
        x = 234.783372558
        y = -88.5218579535
        color = "#0055ff"
    [[NOTE 10]]
        text = "VLAN 1: 172.16.1.4/24"
        x = 58.6958431395
        y = 159.739949465
        color = "#0055ff"
    [[NOTE 11]]
        text = "VLAN 1: 172.16.1.3/24"
        x = -243.913837046
        y = 161.913934651
        color = "#0055ff"
    [[NOTE 12]]
        text = "VLAN 1: 172.16.1.2/24"
        x = 54.7827869302
        y = -181.56557386
        color = "#0055ff"
    [[Cloud Host_A]]
        symbol = Host
        x = -367.71848193
        y = 91.8047424883
        z = 1.0
        connections = ALS1:f1/6:NIO_udp:30000:127.0.0.1:20000
    [[Cloud Host_B]]
        symbol = Host
        x = 265.544447942
        y = 91.8047424883
        z = 1.0
        connections = ALS2:f1/6:NIO_udp:30001:127.0.0.1:20001
    [[Cloud Server_A]]
        symbol = Host
        x = -372.283714174
        y = -143.630806105
        z = 1.0
        connections = DLS1:f1/6:NIO_udp:30002:127.0.0.1:20002
    [[Cloud Server_B]]
        symbol = Host
        x = 262.283567767
        y = -143.630806105
        z = 1.0
        connections = DLS2:f1/6:NIO_udp:30003:127.0.0.1:20003
