Nov 26 20:12:28.470 HYPERVISOR: Release 0.2.17-amd64/Linux (tag 2017072410)
Nov 26 20:12:28.470 HYPERVISOR: Started on IP = 127.0.0.1, TCP port = 41063.
Nov 26 20:12:28.495 HYPERVISOR: exec_cmd: hypervisor version 
Nov 26 20:12:28.497 HYPERVISOR: exec_cmd: hypervisor working_dir /media/actionmystique/SAMSUNG5-VMs/Labs/GNS3/OSPF-EIGRP/project-files/dynamips 
Nov 26 20:12:28.497 GENERAL: working_dir=/media/actionmystique/SAMSUNG5-VMs/Labs/GNS3/OSPF-EIGRP/project-files/dynamips
Nov 26 20:12:28.499 HYPERVISOR: exec_cmd: vm create WAN1 3 c7200 
Nov 26 20:12:28.499 VM: VM WAN1 created.
Nov 26 20:12:28.501 HYPERVISOR: exec_cmd: vm set_con_tcp_port WAN1 2001 
Nov 26 20:12:28.502 HYPERVISOR: exec_cmd: vm set_aux_tcp_port WAN1 2100 
Nov 26 20:12:28.504 HYPERVISOR: exec_cmd: c7200 get_mac_addr WAN1 
Nov 26 20:12:28.507 HYPERVISOR: exec_cmd: vm get_status WAN1 
Nov 26 20:12:28.516 HYPERVISOR: exec_cmd: vm slot_add_binding WAN1 0 0 C7200-IO-FE 
Nov 26 20:12:28.519 HYPERVISOR: exec_cmd: vm set_ios WAN1 /media/actionmystique/SAMSUNG5-VMs/Images/GNS3/IOS/c7200-adventerprisek9-mz.152-4.M2.image 
Nov 26 20:12:28.521 HYPERVISOR: exec_cmd: vm get_status WAN1 
Nov 26 20:12:28.522 HYPERVISOR: exec_cmd: vm slot_add_binding WAN1 1 0 PA-8T 
Nov 26 20:12:28.524 HYPERVISOR: exec_cmd: vm set_con_tcp_port WAN1 2001 
Nov 26 20:12:28.525 HYPERVISOR: exec_cmd: vm get_status WAN1 
Nov 26 20:12:28.527 HYPERVISOR: exec_cmd: vm set_idle_pc WAN1 0x60188e14 
Nov 26 20:12:28.528 HYPERVISOR: exec_cmd: vm get_status WAN1 
Nov 26 20:12:28.529 HYPERVISOR: exec_cmd: vm slot_remove_binding WAN1 0 0 
Nov 26 20:12:28.531 HYPERVISOR: exec_cmd: vm get_status WAN1 
Nov 26 20:12:28.533 HYPERVISOR: exec_cmd: vm slot_add_binding WAN1 0 0 C7200-IO-GE-E 
Nov 26 20:12:28.534 HYPERVISOR: exec_cmd: vm get_status WAN1 
Nov 26 20:12:28.536 HYPERVISOR: exec_cmd: vm slot_add_binding WAN1 2 0 PA-2FE-TX 
Nov 26 20:12:28.538 HYPERVISOR: exec_cmd: vm set_ram WAN1 512 
Nov 26 20:12:28.539 HYPERVISOR: exec_cmd: vm set_config WAN1 configs/i3_startup-config.cfg 
Nov 26 20:12:29.947 HYPERVISOR: exec_cmd: vm extract_config WAN1 
Nov 26 20:12:29.984 HYPERVISOR: exec_cmd: nio create_udp udp-9d048f41-2b53-464f-8d84-a58438c5600c 15008 127.0.0.1 15004 
Nov 26 20:12:29.985 HYPERVISOR: exec_cmd: vm slot_add_nio_binding WAN1 1 0 udp-9d048f41-2b53-464f-8d84-a58438c5600c 
Nov 26 20:12:29.986 HYPERVISOR: exec_cmd: vm get_status WAN1 
Nov 26 20:12:30.033 HYPERVISOR: exec_cmd: nio create_udp udp-5b494303-2723-41c2-bb64-06e2b8203779 15011 127.0.0.1 15010 
Nov 26 20:12:30.034 HYPERVISOR: exec_cmd: vm slot_add_nio_binding WAN1 2 0 udp-5b494303-2723-41c2-bb64-06e2b8203779 
Nov 26 20:12:30.034 HYPERVISOR: exec_cmd: vm get_status WAN1 
Nov 26 20:12:30.084 HYPERVISOR: exec_cmd: nio create_udp udp-b52ab6a5-40b8-431d-9458-6f5b599275bc 15016 127.0.0.1 15014 
Nov 26 20:12:30.085 HYPERVISOR: exec_cmd: vm slot_add_nio_binding WAN1 0 0 udp-b52ab6a5-40b8-431d-9458-6f5b599275bc 
Nov 26 20:12:30.086 HYPERVISOR: exec_cmd: vm get_status WAN1 
Nov 26 20:12:30.544 HYPERVISOR: exec_cmd: nio create_udp udp-ca1d3797-2960-401b-8f13-7ffbf30e9d54 15054 127.0.0.1 15055 
Nov 26 20:12:30.545 HYPERVISOR: exec_cmd: vm slot_add_nio_binding WAN1 2 1 udp-ca1d3797-2960-401b-8f13-7ffbf30e9d54 
Nov 26 20:12:30.545 HYPERVISOR: exec_cmd: vm get_status WAN1 
Nov 26 20:14:16.140 HYPERVISOR: exec_cmd: vm get_status WAN1 
Nov 26 20:14:16.154 HYPERVISOR: exec_cmd: vm extract_config WAN1 
Nov 26 20:14:16.168 HYPERVISOR: exec_cmd: vm delete WAN1 
Nov 26 20:14:16.168 VM: VM WAN1 destroyed.
Nov 26 20:14:16.182 HYPERVISOR: exec_cmd: hypervisor stop 
Nov 26 20:14:16.579 HYPERVISOR: Stopped.
Nov 26 20:14:16.579 GENERAL: reset done.
