Nov 26 20:12:28.863 HYPERVISOR: Release 0.2.17-amd64/Linux (tag 2017072410)
Nov 26 20:12:28.863 HYPERVISOR: Started on IP = 127.0.0.1, TCP port = 48063.
Nov 26 20:12:28.911 HYPERVISOR: exec_cmd: hypervisor version 
Nov 26 20:12:28.915 HYPERVISOR: exec_cmd: hypervisor working_dir /media/actionmystique/SAMSUNG5-VMs/Labs/GNS3/OSPF-EIGRP/project-files/dynamips 
Nov 26 20:12:28.915 GENERAL: working_dir=/media/actionmystique/SAMSUNG5-VMs/Labs/GNS3/OSPF-EIGRP/project-files/dynamips
Nov 26 20:12:28.917 HYPERVISOR: exec_cmd: vm create I106 21 c7200 
Nov 26 20:12:28.917 VM: VM I106 created.
Nov 26 20:12:28.919 HYPERVISOR: exec_cmd: vm set_con_tcp_port I106 2027 
Nov 26 20:12:28.921 HYPERVISOR: exec_cmd: vm set_aux_tcp_port I106 2127 
Nov 26 20:12:28.926 HYPERVISOR: exec_cmd: c7200 get_mac_addr I106 
Nov 26 20:12:28.929 HYPERVISOR: exec_cmd: vm get_status I106 
Nov 26 20:12:28.931 HYPERVISOR: exec_cmd: vm slot_add_binding I106 0 0 C7200-IO-FE 
Nov 26 20:12:28.933 HYPERVISOR: exec_cmd: vm set_ios I106 /media/actionmystique/SAMSUNG5-VMs/Images/GNS3/IOS/c7200-adventerprisek9-mz.152-4.M2.image 
Nov 26 20:12:28.934 HYPERVISOR: exec_cmd: vm get_status I106 
Nov 26 20:12:28.936 HYPERVISOR: exec_cmd: vm slot_add_binding I106 1 0 PA-GE 
Nov 26 20:12:28.937 HYPERVISOR: exec_cmd: vm get_status I106 
Nov 26 20:12:28.942 HYPERVISOR: exec_cmd: vm set_idle_pc I106 0x60188e14 
Nov 26 20:12:28.944 HYPERVISOR: exec_cmd: vm get_status I106 
Nov 26 20:12:28.947 HYPERVISOR: exec_cmd: vm slot_remove_binding I106 0 0 
Nov 26 20:12:28.949 HYPERVISOR: exec_cmd: vm get_status I106 
Nov 26 20:12:28.950 HYPERVISOR: exec_cmd: vm slot_add_binding I106 0 0 C7200-IO-GE-E 
Nov 26 20:12:28.951 HYPERVISOR: exec_cmd: vm get_status I106 
Nov 26 20:12:28.953 HYPERVISOR: exec_cmd: vm slot_add_binding I106 2 0 PA-8T 
Nov 26 20:12:28.954 HYPERVISOR: exec_cmd: vm set_ram I106 512 
Nov 26 20:12:28.955 HYPERVISOR: exec_cmd: vm set_config I106 configs/i21_startup-config.cfg 
Nov 26 20:12:29.954 HYPERVISOR: exec_cmd: vm extract_config I106 
Nov 26 20:12:30.648 HYPERVISOR: exec_cmd: nio create_udp udp-eacd2309-1f17-4414-b266-39abe8d83655 15064 127.0.0.1 15065 
Nov 26 20:12:30.649 HYPERVISOR: exec_cmd: vm slot_add_nio_binding I106 0 0 udp-eacd2309-1f17-4414-b266-39abe8d83655 
Nov 26 20:12:30.649 HYPERVISOR: exec_cmd: vm get_status I106 
Nov 26 20:12:30.656 HYPERVISOR: exec_cmd: nio create_udp udp-a05e2c0a-f77e-4161-9113-7862e1226f09 15067 127.0.0.1 15066 
Nov 26 20:12:30.657 HYPERVISOR: exec_cmd: vm slot_add_nio_binding I106 1 0 udp-a05e2c0a-f77e-4161-9113-7862e1226f09 
Nov 26 20:12:30.657 HYPERVISOR: exec_cmd: vm get_status I106 
Nov 26 20:12:30.677 HYPERVISOR: exec_cmd: nio create_udp udp-0322470d-b85e-497c-aeb3-d7e2a22c4ab9 15068 127.0.0.1 15070 
Nov 26 20:12:30.677 HYPERVISOR: exec_cmd: vm slot_add_nio_binding I106 2 0 udp-0322470d-b85e-497c-aeb3-d7e2a22c4ab9 
Nov 26 20:12:30.677 HYPERVISOR: exec_cmd: vm get_status I106 
Nov 26 20:14:16.139 HYPERVISOR: exec_cmd: vm get_status I106 
Nov 26 20:14:16.154 HYPERVISOR: exec_cmd: vm extract_config I106 
Nov 26 20:14:16.168 HYPERVISOR: exec_cmd: vm delete I106 
Nov 26 20:14:16.168 VM: VM I106 destroyed.
Nov 26 20:14:16.181 HYPERVISOR: exec_cmd: hypervisor stop 
Nov 26 20:14:16.508 HYPERVISOR: Stopped.
Nov 26 20:14:16.508 GENERAL: reset done.
