Nov 29 15:24:55.740 HYPERVISOR: Release 0.2.17-amd64/Linux (tag 2017072410)
Nov 29 15:24:55.740 HYPERVISOR: Started on IP = 127.0.0.1, TCP port = 58579.
Nov 29 15:24:55.755 HYPERVISOR: exec_cmd: hypervisor version 
Nov 29 15:24:55.757 HYPERVISOR: exec_cmd: hypervisor working_dir /media/actionmystique/SAMSUNG5-VMs/Labs/GNS3/git-Public-Labs-Collection/CCNP/TBSHOOT/L3-Technologies/IPv4/Routing-Protocols/Redistribution/Jean-Christophe_Manciot/1+/TT 2-linux/project-files/dynamips 
Nov 29 15:24:55.758 GENERAL: working_dir=/media/actionmystique/SAMSUNG5-VMs/Labs/GNS3/git-Public-Labs-Collection/CCNP/TBSHOOT/L3-Technologies/IPv4/Routing-Protocols/Redistribution/Jean-Christophe_Manciot/1+/TT 2-linux/project-files/dynamips
Nov 29 15:24:55.758 HYPERVISOR: exec_cmd: vm create ESW4 4 c3725 
Nov 29 15:24:55.758 VM: VM ESW4 created.
Nov 29 15:24:55.760 HYPERVISOR: exec_cmd: vm set_con_tcp_port ESW4 2009 
Nov 29 15:24:55.760 HYPERVISOR: exec_cmd: c3725 get_mac_addr ESW4 
Nov 29 15:24:55.762 HYPERVISOR: exec_cmd: vm get_status ESW4 
Nov 29 15:24:55.763 HYPERVISOR: exec_cmd: vm set_idle_pc ESW4 0x614ac27c 
Nov 29 15:24:55.765 HYPERVISOR: exec_cmd: vm set_disk0 ESW4 1 
Nov 29 15:24:55.767 HYPERVISOR: exec_cmd: vm slot_add_binding ESW4 0 16 WIC-2T 
Nov 29 15:24:55.768 HYPERVISOR: exec_cmd: vm get_status ESW4 
Nov 29 15:24:55.770 HYPERVISOR: exec_cmd: vm slot_add_binding ESW4 1 0 NM-16ESW 
Nov 29 15:24:55.771 HYPERVISOR: exec_cmd: vm set_nvram ESW4 256 
Nov 29 15:24:55.772 HYPERVISOR: exec_cmd: vm set_ios ESW4 /media/actionmystique/SAMSUNG5-VMs/Images/GNS3/IOS/c3725-adventerprisek9-mz.124-15.T10.image 
Nov 29 15:24:55.773 HYPERVISOR: exec_cmd: c3725 set_mac_addr ESW4 c204.68ae.0000 
Nov 29 15:24:55.775 HYPERVISOR: exec_cmd: vm set_config ESW4 configs/ios_base_startup-config.txt 
Nov 29 15:24:55.776 HYPERVISOR: exec_cmd: vm set_config ESW4 configs/ios_base_startup-config.txt configs/ios_base_private-config.txt 
Nov 29 15:24:56.040 HYPERVISOR: exec_cmd: nio create_udp udp-5a2bff61-63bc-48b1-917b-e5e82d3dd40b 15006 127.0.0.1 15002 
Nov 29 15:24:56.040 HYPERVISOR: exec_cmd: vm slot_add_nio_binding ESW4 1 0 udp-5a2bff61-63bc-48b1-917b-e5e82d3dd40b 
Nov 29 15:24:56.041 HYPERVISOR: exec_cmd: vm get_status ESW4 
Nov 29 15:24:56.060 HYPERVISOR: exec_cmd: nio create_udp udp-a1677c82-bd44-4248-90a9-88f3fb6e7afb 15004 127.0.0.1 15007 
Nov 29 15:24:56.061 HYPERVISOR: exec_cmd: vm slot_add_nio_binding ESW4 1 1 udp-a1677c82-bd44-4248-90a9-88f3fb6e7afb 
Nov 29 15:24:56.061 HYPERVISOR: exec_cmd: vm get_status ESW4 
