autostart = False
version = 0.8.2
[127.0.0.1:7200]
    workingdir = C:\Users\ActionMystique\Documents\Missions\GNS3\Temp
    udp = 10000
    [[3725]]
        image = C:\Users\ActionMystique\Documents\Missions\IOS\Binaries\c3725-adventerprisek9-mz.124-15.T5.image
        ram = 128
        idlepc = 0x60bec828
        sparsemem = True
        ghostios = True
    [[ETHSW SW2]]
        1 = access 12 R1 f0/0
        3 = access 12 R2 f0/0
        4 = access 23 R2 f0/1
        6 = access 23 R3 f0/0
        x = -4.5
        y = -82.0
        z = 1.0
    [[ROUTER R1]]
        model = 3725
        console = 2001
        aux = 2104
        cnfg = configs\R1.cfg
        wic0/0 = WIC-2T
        s0/1 = R3 s0/0
        f0/0 = SW2 1
        slot1 = NM-1FE-TX
        slot2 = NM-1FE-TX
        x = -279.0
        y = 92.0
        z = 1.0
    [[ROUTER R2]]
        model = 3725
        console = 2002
        aux = 2105
        cnfg = configs\R2.cfg
        wic0/0 = WIC-2T
        f0/0 = SW2 3
        f0/1 = SW2 4
        slot1 = NM-1FE-TX
        slot2 = NM-1FE-TX
        x = -2.0
        y = -313.0
        z = 1.0
    [[ROUTER R3]]
        model = 3725
        console = 2003
        aux = 2106
        cnfg = configs\R3.cfg
        wic0/0 = WIC-2T
        s0/0 = R1 s0/1
        f0/0 = SW2 6
        f0/1 = R4 f0/0
        slot1 = NM-1FE-TX
        slot2 = NM-1FE-TX
        x = 250.0
        y = 103.0
        z = 1.0
[127.0.0.1:7201]
    workingdir = C:\Users\ActionMystique\Documents\Missions\GNS3\Temp
    udp = 10100
    [[7200]]
        image = C:\Users\ActionMystique\Documents\Missions\IOS\Binaries\c7200-adventerprisek9-mz.124-24.T.image
        idlepc = 0x606dd06c
        sparsemem = True
    [[ROUTER R4]]
        console = 2004
        aux = 2505
        cnfg = configs\R4.cfg
        slot0 = C7200-IO-FE
        f0/0 = R3 f0/1
        x = 456.0
        y = -28.0
        z = 1.0
[GNS3-DATA]
    configs = configs
    [[NOTE 1]]
        text = fa0/1\n.2
        x = 44.0
        y = -269.5
    [[NOTE 2]]
        text = Lo2: 172.16.2.1/24\nLo102: 192.168.102.1/24
        x = 100.0
        y = -316.5
    [[NOTE 3]]
        text = fa0/0\n.2
        x = -21.0
        y = -270.5
    [[NOTE 4]]
        text = fa4
        x = 42.0
        y = -121.5
    [[NOTE 5]]
        text = fa1
        x = -37.0
        y = -60.5
    [[NOTE 6]]
        text = VLAN 23\n172.16.23.0/24
        x = 104.0
        y = -127.5
    [[NOTE 7]]
        text = VLAN 12\n172.16.12.0/24
        x = -159.0
        y = -128.5
    [[NOTE 8]]
        text = fa3
        x = -7.0
        y = -120.5
    [[NOTE 9]]
        text = fa6
        x = 66.0
        y = -57.5
    [[NOTE 10]]
        text = 172.16.13.0/24
        x = -37.0
        y = 131.5
    [[NOTE 11]]
        text = fa0/0\n.1
        x = -216.0
        y = 44.5
    [[NOTE 12]]
        text = Lo1: 172.16.1.1/24\nLo101: 192.168.101.1/24
        x = -438.0
        y = 135.5
    [[NOTE 13]]
        text = fa0/0\n.3
        x = 228.0
        y = 41.5
    [[NOTE 14]]
        text = s0/1\n.1
        x = -202.0
        y = 116.5
    [[NOTE 15]]
        text = 172.16.3.0/24
        x = 322.0
        y = 31.0
    [[NOTE 16]]
        text = (Lo3: 172.16.3.1/24)\nLo103: 192.168.103.1/24
        x = 312.0
        y = 143.5
    [[NOTE 17]]
        text = s0/0\nDCE\n.3
        x = 197.0
        y = 125.5
    [[SHAPE 1]]
        type = ellipse
        x = 62.0
        y = -306.0
        width = 27.0
        height = 23.0
        border_style = 2
        z = -2.0
    [[SHAPE 2]]
        type = ellipse
        x = -260.0
        y = 133.0
        width = 27.0
        height = 23.0
        border_style = 2
        z = -2.0
    [[SHAPE 3]]
        type = ellipse
        x = 272.0
        y = 143.0
        width = 27.0
        height = 23.0
        border_style = 2
        z = -2.0
