Nov 27 16:21:40.073 HYPERVISOR: Release 0.2.17-amd64/Linux (tag 2017072410)
Nov 27 16:21:40.073 HYPERVISOR: Started on IP = 127.0.0.1, TCP port = 56495.
Nov 27 16:21:40.093 HYPERVISOR: exec_cmd: hypervisor version 
Nov 27 16:21:40.094 HYPERVISOR: exec_cmd: hypervisor working_dir /media/actionmystique/SAMSUNG5-VMs/Labs/GNS3/git-Public-Labs-Collection/CCNP/TBSHOOT/L3-Technologies/IPv4/High-Availability/HSRP/Jean-Christophe_Manciot/1+/TT 2-solutions-linux/project-files/dynamips 
Nov 27 16:21:40.094 GENERAL: working_dir=/media/actionmystique/SAMSUNG5-VMs/Labs/GNS3/git-Public-Labs-Collection/CCNP/TBSHOOT/L3-Technologies/IPv4/High-Availability/HSRP/Jean-Christophe_Manciot/1+/TT 2-solutions-linux/project-files/dynamips
Nov 27 16:21:40.095 HYPERVISOR: exec_cmd: vm create SW2 2 c3725 
Nov 27 16:21:40.095 VM: VM SW2 created.
Nov 27 16:21:40.095 HYPERVISOR: exec_cmd: vm set_con_tcp_port SW2 2002 
Nov 27 16:21:40.096 HYPERVISOR: exec_cmd: c3725 get_mac_addr SW2 
Nov 27 16:21:40.097 HYPERVISOR: exec_cmd: vm set_nvram SW2 256 
Nov 27 16:21:40.097 HYPERVISOR: exec_cmd: vm get_status SW2 
Nov 27 16:21:40.098 HYPERVISOR: exec_cmd: vm set_idle_pc SW2 0x60c056e4 
Nov 27 16:21:40.099 HYPERVISOR: exec_cmd: c3725 set_mac_addr SW2 eeee.eeee.eeee 
Nov 27 16:21:40.100 HYPERVISOR: exec_cmd: vm set_exec_area SW2 16 
Nov 27 16:21:40.100 HYPERVISOR: exec_cmd: vm get_status SW2 
Nov 27 16:21:40.101 HYPERVISOR: exec_cmd: vm slot_add_binding SW2 1 0 NM-16ESW 
Nov 27 16:21:40.102 HYPERVISOR: exec_cmd: vm set_ios SW2 /media/actionmystique/SAMSUNG5-VMs/Images/GNS3/IOS/c3725-adventerprisek9-mz.124-15.T10.image 
Nov 27 16:21:40.103 HYPERVISOR: exec_cmd: vm slot_add_binding SW2 0 16 WIC-2T 
Nov 27 16:21:40.104 HYPERVISOR: exec_cmd: vm set_disk0 SW2 1 
Nov 27 16:21:40.105 HYPERVISOR: exec_cmd: vm set_config SW2 configs/i2_startup-config.cfg 
Nov 27 16:21:40.106 HYPERVISOR: exec_cmd: vm set_config SW2 configs/i2_startup-config.cfg configs/i2_private-config.cfg 
Nov 27 16:21:40.277 HYPERVISOR: exec_cmd: nio create_udp udp-45ef11ed-265f-4443-a00a-695ceb243591 15003 127.0.0.1 15000 
Nov 27 16:21:40.277 HYPERVISOR: exec_cmd: vm slot_add_nio_binding SW2 1 0 udp-45ef11ed-265f-4443-a00a-695ceb243591 
Nov 27 16:21:40.278 HYPERVISOR: exec_cmd: vm get_status SW2 
Nov 27 16:21:40.329 HYPERVISOR: exec_cmd: nio create_udp udp-7a75ff61-ae18-4f8b-8f18-679721d204e2 15006 127.0.0.1 15007 
Nov 27 16:21:40.334 HYPERVISOR: exec_cmd: vm slot_add_nio_binding SW2 1 1 udp-7a75ff61-ae18-4f8b-8f18-679721d204e2 
Nov 27 16:21:40.335 HYPERVISOR: exec_cmd: vm get_status SW2 
Nov 27 16:21:40.364 HYPERVISOR: exec_cmd: nio create_udp udp-97155ad1-f463-4358-b589-de7cbfef3047 15008 127.0.0.1 15001 
Nov 27 16:21:40.365 HYPERVISOR: exec_cmd: vm slot_add_nio_binding SW2 1 2 udp-97155ad1-f463-4358-b589-de7cbfef3047 
Nov 27 16:21:40.365 HYPERVISOR: exec_cmd: vm get_status SW2 
