autostart = False
version = 0.8.6
[127.0.0.1:7200]
    workingdir = /tmp/GNS3_TLckgg/working
    udp = 10001
    [[7200]]
        image = /home/actionmystique/Google Drive/Missions/Certifications/Cisco/IOS/Binaries/c7200-adventerprisek9-mz.152-4.M2.image
        ram = 512
        idlepc = 0x60188e14
        sparsemem = True
        ghostios = True
    [[ROUTER R1]]
        console = 2101
        aux = 2501
        slot0 = C7200-IO-GE-E
        g0/0 = nio_gen_eth:vmnet1
        cnfg = configs/R1.cfg
        x = -494.0
        y = -242.0
        z = 1.0
[GNS3-DATA]
    configs = configs
    [[NOTE 1]]
        text = "vmnet1=host-only network connection"
        x = -19.0
        y = -185.5
    [[NOTE 2]]
        text = ".254"
        x = -424.0
        y = -209.5
    [[NOTE 3]]
        text = ".1"
        x = 62.0
        y = -214.5
    [[NOTE 4]]
        text = "172.16.90.0/24"
        x = -225.0
        y = -251.5
    [[Cloud VMware_WorkStation_VM]]
        symbol = Host
        x = 93.5
        y = -249.5
        z = 1.0
        connections = R1:g0/0:nio_gen_eth:vmnet1
