Nov 29 18:57:48.843 HYPERVISOR: Release 0.2.17-amd64/Linux (tag 2017072410)
Nov 29 18:57:48.843 HYPERVISOR: Started on IP = 127.0.0.1, TCP port = 60915.
Nov 29 18:57:48.856 HYPERVISOR: exec_cmd: hypervisor version 
Nov 29 18:57:48.856 HYPERVISOR: exec_cmd: hypervisor working_dir /media/actionmystique/SAMSUNG5-VMs/Labs/GNS3/TT 1-linux-/project-files/dynamips 
Nov 29 18:57:48.856 GENERAL: working_dir=/media/actionmystique/SAMSUNG5-VMs/Labs/GNS3/TT 1-linux-/project-files/dynamips
Nov 29 18:57:48.856 HYPERVISOR: exec_cmd: vm create ESW1 1 c3725 
Nov 29 18:57:48.856 VM: VM ESW1 created.
Nov 29 18:57:48.857 HYPERVISOR: exec_cmd: vm set_con_tcp_port ESW1 2001 
Nov 29 18:57:48.857 HYPERVISOR: exec_cmd: vm set_aux_tcp_port ESW1 2501 
Nov 29 18:57:48.857 HYPERVISOR: exec_cmd: c3725 get_mac_addr ESW1 
Nov 29 18:57:48.858 HYPERVISOR: exec_cmd: vm slot_add_binding ESW1 0 16 WIC-2T 
Nov 29 18:57:48.858 HYPERVISOR: exec_cmd: vm set_ios ESW1 /media/actionmystique/SAMSUNG5-VMs/Images/GNS3/IOS/c3725-adventerprisek9-mz.124-15.T10.image 
Nov 29 18:57:48.858 HYPERVISOR: exec_cmd: vm get_status ESW1 
Nov 29 18:57:48.859 HYPERVISOR: exec_cmd: vm set_idle_pc ESW1 0x614ac27c 
Nov 29 18:57:48.859 HYPERVISOR: exec_cmd: vm get_status ESW1 
Nov 29 18:57:48.859 HYPERVISOR: exec_cmd: vm slot_add_binding ESW1 1 0 NM-16ESW 
Nov 29 18:57:48.860 HYPERVISOR: exec_cmd: c3725 set_mac_addr ESW1 c201.281a.0000 
Nov 29 18:57:48.860 HYPERVISOR: exec_cmd: vm set_nvram ESW1 256 
Nov 29 18:57:48.860 HYPERVISOR: exec_cmd: vm set_disk0 ESW1 1 
Nov 29 18:57:48.861 HYPERVISOR: exec_cmd: vm set_config ESW1 configs/i1_startup-config.cfg 
Nov 29 18:57:48.861 HYPERVISOR: exec_cmd: vm set_config ESW1 configs/i1_startup-config.cfg configs/i1_private-config.cfg 
Nov 29 18:57:49.033 HYPERVISOR: exec_cmd: nio create_udp udp-1acfdbbd-594e-4c16-95f5-5a7968c70e61 15000 127.0.0.1 15001 
Nov 29 18:57:49.033 HYPERVISOR: exec_cmd: vm slot_add_nio_binding ESW1 1 2 udp-1acfdbbd-594e-4c16-95f5-5a7968c70e61 
Nov 29 18:57:49.041 HYPERVISOR: exec_cmd: vm get_status ESW1 
Nov 29 18:57:49.085 HYPERVISOR: exec_cmd: nio create_udp udp-91e938d8-1b00-4797-bcc6-59fefbf00221 15003 127.0.0.1 15002 
Nov 29 18:57:49.086 HYPERVISOR: exec_cmd: vm slot_add_nio_binding ESW1 1 1 udp-91e938d8-1b00-4797-bcc6-59fefbf00221 
Nov 29 18:57:49.087 HYPERVISOR: exec_cmd: vm get_status ESW1 
Nov 29 18:57:49.116 HYPERVISOR: exec_cmd: nio create_udp udp-e79e6f30-fb8c-4c10-956f-996aec4003ba 15007 127.0.0.1 15006 
Nov 29 18:57:49.117 HYPERVISOR: exec_cmd: vm slot_add_nio_binding ESW1 1 0 udp-e79e6f30-fb8c-4c10-956f-996aec4003ba 
Nov 29 18:57:49.117 HYPERVISOR: exec_cmd: vm get_status ESW1 
Nov 29 18:57:49.136 HYPERVISOR: exec_cmd: nio create_udp udp-10183adc-b3b3-43d0-8c28-9be2b844e08a 15008 127.0.0.1 15009 
Nov 29 18:57:49.136 HYPERVISOR: exec_cmd: vm slot_add_nio_binding ESW1 1 3 udp-10183adc-b3b3-43d0-8c28-9be2b844e08a 
Nov 29 18:57:49.137 HYPERVISOR: exec_cmd: vm get_status ESW1 
Nov 29 18:58:26.887 HYPERVISOR: exec_cmd: vm get_status ESW1 
Nov 29 18:58:26.888 HYPERVISOR: exec_cmd: vm extract_config ESW1 
Nov 29 18:58:26.890 HYPERVISOR: exec_cmd: vm delete ESW1 
Nov 29 18:58:26.890 VM: VM ESW1 destroyed.
Nov 29 18:58:26.891 HYPERVISOR: exec_cmd: hypervisor stop 
Nov 29 18:58:26.894 HYPERVISOR: Stopped.
Nov 29 18:58:26.894 GENERAL: reset done.
