Nov 29 18:57:48.914 HYPERVISOR: Release 0.2.17-amd64/Linux (tag 2017072410)
Nov 29 18:57:48.914 HYPERVISOR: Started on IP = 127.0.0.1, TCP port = 47337.
Nov 29 18:57:48.930 HYPERVISOR: exec_cmd: hypervisor version 
Nov 29 18:57:48.930 HYPERVISOR: exec_cmd: hypervisor working_dir /media/actionmystique/SAMSUNG5-VMs/Labs/GNS3/TT 1-linux-/project-files/dynamips 
Nov 29 18:57:48.930 GENERAL: working_dir=/media/actionmystique/SAMSUNG5-VMs/Labs/GNS3/TT 1-linux-/project-files/dynamips
Nov 29 18:57:48.931 HYPERVISOR: exec_cmd: vm create ESW2 2 c3725 
Nov 29 18:57:48.931 VM: VM ESW2 created.
Nov 29 18:57:48.931 HYPERVISOR: exec_cmd: vm set_con_tcp_port ESW2 2002 
Nov 29 18:57:48.931 HYPERVISOR: exec_cmd: vm set_aux_tcp_port ESW2 2502 
Nov 29 18:57:48.932 HYPERVISOR: exec_cmd: c3725 get_mac_addr ESW2 
Nov 29 18:57:48.932 HYPERVISOR: exec_cmd: vm slot_add_binding ESW2 0 16 WIC-2T 
Nov 29 18:57:48.932 HYPERVISOR: exec_cmd: vm set_ios ESW2 /media/actionmystique/SAMSUNG5-VMs/Images/GNS3/IOS/c3725-adventerprisek9-mz.124-15.T10.image 
Nov 29 18:57:48.933 HYPERVISOR: exec_cmd: vm get_status ESW2 
Nov 29 18:57:48.933 HYPERVISOR: exec_cmd: vm set_idle_pc ESW2 0x6026b804 
Nov 29 18:57:48.935 HYPERVISOR: exec_cmd: vm get_status ESW2 
Nov 29 18:57:48.936 HYPERVISOR: exec_cmd: vm slot_add_binding ESW2 1 0 NM-16ESW 
Nov 29 18:57:48.936 HYPERVISOR: exec_cmd: c3725 set_mac_addr ESW2 c202.28c2.0000 
Nov 29 18:57:48.936 HYPERVISOR: exec_cmd: vm set_nvram ESW2 256 
Nov 29 18:57:48.937 HYPERVISOR: exec_cmd: vm set_disk0 ESW2 1 
Nov 29 18:57:48.937 HYPERVISOR: exec_cmd: vm set_config ESW2 configs/i2_startup-config.cfg 
Nov 29 18:57:48.938 HYPERVISOR: exec_cmd: vm set_config ESW2 configs/i2_startup-config.cfg configs/i2_private-config.cfg 
Nov 29 18:57:49.069 HYPERVISOR: exec_cmd: nio create_tap tap-5181987e-cc46-4f73-860b-187a7f1f1edc tap2 
Nov 29 18:57:49.070 HYPERVISOR: exec_cmd: vm slot_add_nio_binding ESW2 1 0 tap-5181987e-cc46-4f73-860b-187a7f1f1edc 
Nov 29 18:57:49.070 HYPERVISOR: exec_cmd: vm get_status ESW2 
Nov 29 18:57:49.164 HYPERVISOR: exec_cmd: nio create_udp udp-c99e2379-b5b5-4ad6-8a73-e12f97bd18ad 15011 127.0.0.1 15010 
Nov 29 18:57:49.165 HYPERVISOR: exec_cmd: vm slot_add_nio_binding ESW2 1 2 udp-c99e2379-b5b5-4ad6-8a73-e12f97bd18ad 
Nov 29 18:57:49.165 HYPERVISOR: exec_cmd: vm get_status ESW2 
Nov 29 18:58:26.888 HYPERVISOR: exec_cmd: vm get_status ESW2 
Nov 29 18:58:26.889 HYPERVISOR: exec_cmd: vm extract_config ESW2 
Nov 29 18:58:26.890 HYPERVISOR: exec_cmd: vm delete ESW2 
Nov 29 18:58:26.890 VM: VM ESW2 destroyed.
Nov 29 18:58:26.899 HYPERVISOR: exec_cmd: hypervisor stop 
Nov 29 18:58:26.969 HYPERVISOR: Stopped.
Nov 29 18:58:26.969 GENERAL: reset done.
