Nov 28 08:38:07.009 HYPERVISOR: Release 0.2.17-amd64/Linux (tag 2017072410)
Nov 28 08:38:07.009 HYPERVISOR: Started on IP = 127.0.0.1, TCP port = 52989.
Nov 28 08:38:07.014 HYPERVISOR: exec_cmd: hypervisor version 
Nov 28 08:38:07.014 HYPERVISOR: exec_cmd: hypervisor working_dir /media/actionmystique/SAMSUNG5-VMs/Labs/GNS3/git-Public-Labs-Collection/CCNP/TBSHOOT/L3-Technologies/IPv4/Routing-Protocols/EIGRP/Jean-Christophe_Manciot/1+/TT 3-solutions-linux/project-files/dynamips 
Nov 28 08:38:07.014 GENERAL: working_dir=/media/actionmystique/SAMSUNG5-VMs/Labs/GNS3/git-Public-Labs-Collection/CCNP/TBSHOOT/L3-Technologies/IPv4/Routing-Protocols/EIGRP/Jean-Christophe_Manciot/1+/TT 3-solutions-linux/project-files/dynamips
Nov 28 08:38:07.014 HYPERVISOR: exec_cmd: vm create ESW1 1 c3725 
Nov 28 08:38:07.015 VM: VM ESW1 created.
Nov 28 08:38:07.015 HYPERVISOR: exec_cmd: vm set_con_tcp_port ESW1 2004 
Nov 28 08:38:07.015 HYPERVISOR: exec_cmd: c3725 get_mac_addr ESW1 
Nov 28 08:38:07.016 HYPERVISOR: exec_cmd: vm set_disk0 ESW1 1 
Nov 28 08:38:07.016 HYPERVISOR: exec_cmd: vm get_status ESW1 
Nov 28 08:38:07.016 HYPERVISOR: exec_cmd: vm slot_add_binding ESW1 1 0 NM-16ESW 
Nov 28 08:38:07.017 HYPERVISOR: exec_cmd: vm set_ios ESW1 /media/actionmystique/SAMSUNG5-VMs/Images/GNS3/IOS/c3725-adventerprisek9-mz.124-15.T10.image 
Nov 28 08:38:07.017 HYPERVISOR: exec_cmd: c3725 set_mac_addr ESW1 c201.1b91.0000 
Nov 28 08:38:07.018 HYPERVISOR: exec_cmd: vm slot_add_binding ESW1 0 16 WIC-2T 
Nov 28 08:38:07.018 HYPERVISOR: exec_cmd: vm get_status ESW1 
Nov 28 08:38:07.018 HYPERVISOR: exec_cmd: vm set_idle_pc ESW1 0x6026b804 
Nov 28 08:38:07.019 HYPERVISOR: exec_cmd: vm set_nvram ESW1 256 
Nov 28 08:38:07.019 HYPERVISOR: exec_cmd: vm set_config ESW1 configs/ios_base_startup-config.txt 
Nov 28 08:38:07.020 HYPERVISOR: exec_cmd: vm set_config ESW1 configs/ios_base_startup-config.txt configs/ios_base_private-config.txt 
Nov 28 08:38:07.122 HYPERVISOR: exec_cmd: nio create_udp udp-d25d441b-5537-4ed2-826f-66aa92f27803 15004 127.0.0.1 15006 
Nov 28 08:38:07.124 HYPERVISOR: exec_cmd: vm slot_add_nio_binding ESW1 1 0 udp-d25d441b-5537-4ed2-826f-66aa92f27803 
Nov 28 08:38:07.125 HYPERVISOR: exec_cmd: vm get_status ESW1 
Nov 28 08:38:07.204 HYPERVISOR: exec_cmd: nio create_udp udp-0db663a4-a9d7-4bad-a4de-4ba0353d5ff8 15007 127.0.0.1 15005 
Nov 28 08:38:07.204 HYPERVISOR: exec_cmd: vm slot_add_nio_binding ESW1 1 1 udp-0db663a4-a9d7-4bad-a4de-4ba0353d5ff8 
Nov 28 08:38:07.213 HYPERVISOR: exec_cmd: vm get_status ESW1 
