Nov 28 08:38:22.833 HYPERVISOR: Release 0.2.17-amd64/Linux (tag 2017072410)
Nov 28 08:38:22.833 HYPERVISOR: Started on IP = 127.0.0.1, TCP port = 48307.
Nov 28 08:38:22.883 HYPERVISOR: exec_cmd: hypervisor version 
Nov 28 08:38:22.884 HYPERVISOR: exec_cmd: hypervisor working_dir /media/actionmystique/SAMSUNG5-VMs/Labs/GNS3/TT 3-solutions-linux-/project-files/dynamips 
Nov 28 08:38:22.884 GENERAL: working_dir=/media/actionmystique/SAMSUNG5-VMs/Labs/GNS3/TT 3-solutions-linux-/project-files/dynamips
Nov 28 08:38:22.884 HYPERVISOR: exec_cmd: vm create ESW3 3 c3725 
Nov 28 08:38:22.884 VM: VM ESW3 created.
Nov 28 08:38:22.884 HYPERVISOR: exec_cmd: vm set_con_tcp_port ESW3 2006 
Nov 28 08:38:22.885 HYPERVISOR: exec_cmd: c3725 get_mac_addr ESW3 
Nov 28 08:38:22.885 HYPERVISOR: exec_cmd: vm set_disk0 ESW3 1 
Nov 28 08:38:22.885 HYPERVISOR: exec_cmd: vm get_status ESW3 
Nov 28 08:38:22.886 HYPERVISOR: exec_cmd: vm slot_add_binding ESW3 1 0 NM-16ESW 
Nov 28 08:38:22.886 HYPERVISOR: exec_cmd: vm set_ios ESW3 /media/actionmystique/SAMSUNG5-VMs/Images/GNS3/IOS/c3725-adventerprisek9-mz.124-15.T10.image 
Nov 28 08:38:22.887 HYPERVISOR: exec_cmd: c3725 set_mac_addr ESW3 c203.1bfb.0000 
Nov 28 08:38:22.887 HYPERVISOR: exec_cmd: vm slot_add_binding ESW3 0 16 WIC-2T 
Nov 28 08:38:22.887 HYPERVISOR: exec_cmd: vm get_status ESW3 
Nov 28 08:38:22.888 HYPERVISOR: exec_cmd: vm set_idle_pc ESW3 0x6026b804 
Nov 28 08:38:22.888 HYPERVISOR: exec_cmd: vm set_nvram ESW3 256 
Nov 28 08:38:22.889 HYPERVISOR: exec_cmd: vm set_config ESW3 configs/ios_base_startup-config.txt 
Nov 28 08:38:22.889 HYPERVISOR: exec_cmd: vm set_config ESW3 configs/ios_base_startup-config.txt configs/ios_base_private-config.txt 
Nov 28 08:38:23.002 HYPERVISOR: exec_cmd: nio create_tap tap-565240c9-6e76-4175-a4ed-3d5d1b5731c3 tap0 
Nov 28 08:38:23.004 HYPERVISOR: exec_cmd: vm slot_add_nio_binding ESW3 1 1 tap-565240c9-6e76-4175-a4ed-3d5d1b5731c3 
Nov 28 08:38:23.004 HYPERVISOR: exec_cmd: vm get_status ESW3 
Nov 28 08:38:23.115 HYPERVISOR: exec_cmd: nio create_udp udp-f37cf4a0-37c9-4c01-8ae4-bcc02ec9e56c 15007 127.0.0.1 15006 
Nov 28 08:38:23.116 HYPERVISOR: exec_cmd: vm slot_add_nio_binding ESW3 1 0 udp-f37cf4a0-37c9-4c01-8ae4-bcc02ec9e56c 
Nov 28 08:38:23.116 HYPERVISOR: exec_cmd: vm get_status ESW3 
Nov 28 08:38:42.336 HYPERVISOR: exec_cmd: vm get_status ESW3 
Nov 28 08:38:42.337 HYPERVISOR: exec_cmd: vm extract_config ESW3 
Nov 28 08:38:42.339 HYPERVISOR: exec_cmd: vm delete ESW3 
Nov 28 08:38:42.339 VM: VM ESW3 destroyed.
Nov 28 08:38:42.340 HYPERVISOR: exec_cmd: hypervisor stop 
Nov 28 08:38:42.404 HYPERVISOR: Stopped.
Nov 28 08:38:42.404 GENERAL: reset done.
