Nov 27 16:17:40.284 HYPERVISOR: Release 0.2.17-amd64/Linux (tag 2017072410)
Nov 27 16:17:40.284 HYPERVISOR: Started on IP = 127.0.0.1, TCP port = 55677.
Nov 27 16:17:40.305 HYPERVISOR: exec_cmd: hypervisor version 
Nov 27 16:17:40.307 HYPERVISOR: exec_cmd: hypervisor working_dir /media/actionmystique/SAMSUNG5-VMs/Labs/GNS3/TT 1-solutions-linux-/project-files/dynamips 
Nov 27 16:17:40.307 GENERAL: working_dir=/media/actionmystique/SAMSUNG5-VMs/Labs/GNS3/TT 1-solutions-linux-/project-files/dynamips
Nov 27 16:17:40.309 HYPERVISOR: exec_cmd: vm create ESW4 4 c3725 
Nov 27 16:17:40.309 VM: VM ESW4 created.
Nov 27 16:17:40.311 HYPERVISOR: exec_cmd: vm set_con_tcp_port ESW4 2009 
Nov 27 16:17:40.312 HYPERVISOR: exec_cmd: c3725 get_mac_addr ESW4 
Nov 27 16:17:40.313 HYPERVISOR: exec_cmd: vm set_nvram ESW4 256 
Nov 27 16:17:40.315 HYPERVISOR: exec_cmd: vm get_status ESW4 
Nov 27 16:17:40.316 HYPERVISOR: exec_cmd: vm set_idle_pc ESW4 0x60c06d20 
Nov 27 16:17:40.316 HYPERVISOR: exec_cmd: c3725 set_mac_addr ESW4 c204.68ae.0000 
Nov 27 16:17:40.318 HYPERVISOR: exec_cmd: vm get_status ESW4 
Nov 27 16:17:40.327 HYPERVISOR: exec_cmd: vm slot_add_binding ESW4 1 0 NM-16ESW 
Nov 27 16:17:40.330 HYPERVISOR: exec_cmd: vm set_disk0 ESW4 1 
Nov 27 16:17:40.332 HYPERVISOR: exec_cmd: vm set_ios ESW4 /media/actionmystique/SAMSUNG5-VMs/Images/GNS3/IOS/c3725-adventerprisek9-mz.124-15.T10.image 
Nov 27 16:17:40.333 HYPERVISOR: exec_cmd: vm slot_add_binding ESW4 0 16 WIC-2T 
Nov 27 16:17:40.338 HYPERVISOR: exec_cmd: vm set_config ESW4 configs/ios_base_startup-config.txt 
Nov 27 16:17:40.355 HYPERVISOR: exec_cmd: vm set_config ESW4 configs/ios_base_startup-config.txt configs/ios_base_private-config.txt 
Nov 27 16:17:40.732 HYPERVISOR: exec_cmd: nio create_udp udp-8da88b61-a8fc-4b62-b75a-c54e6e31e01d 15015 127.0.0.1 15014 
Nov 27 16:17:40.733 HYPERVISOR: exec_cmd: vm slot_add_nio_binding ESW4 1 0 udp-8da88b61-a8fc-4b62-b75a-c54e6e31e01d 
Nov 27 16:17:40.733 HYPERVISOR: exec_cmd: vm get_status ESW4 
Nov 27 16:17:40.745 HYPERVISOR: exec_cmd: nio create_udp udp-54168c4d-9b15-42ec-8131-45dc40453618 15016 127.0.0.1 15017 
Nov 27 16:17:40.746 HYPERVISOR: exec_cmd: vm slot_add_nio_binding ESW4 1 1 udp-54168c4d-9b15-42ec-8131-45dc40453618 
Nov 27 16:17:40.746 HYPERVISOR: exec_cmd: vm get_status ESW4 
Nov 27 16:17:54.796 HYPERVISOR: exec_cmd: vm get_status ESW4 
Nov 27 16:17:54.798 HYPERVISOR: exec_cmd: vm extract_config ESW4 
Nov 27 16:17:54.801 HYPERVISOR: exec_cmd: vm delete ESW4 
Nov 27 16:17:54.801 VM: VM ESW4 destroyed.
Nov 27 16:17:54.802 HYPERVISOR: exec_cmd: hypervisor stop 
Nov 27 16:17:54.818 HYPERVISOR: Stopped.
Nov 27 16:17:54.818 GENERAL: reset done.
