Nov 27 16:17:40.266 HYPERVISOR: Release 0.2.17-amd64/Linux (tag 2017072410)
Nov 27 16:17:40.266 HYPERVISOR: Started on IP = 127.0.0.1, TCP port = 32945.
Nov 27 16:17:40.304 HYPERVISOR: exec_cmd: hypervisor version 
Nov 27 16:17:40.306 HYPERVISOR: exec_cmd: hypervisor working_dir /media/actionmystique/SAMSUNG5-VMs/Labs/GNS3/TT 1-solutions-linux-/project-files/dynamips 
Nov 27 16:17:40.306 GENERAL: working_dir=/media/actionmystique/SAMSUNG5-VMs/Labs/GNS3/TT 1-solutions-linux-/project-files/dynamips
Nov 27 16:17:40.308 HYPERVISOR: exec_cmd: vm create ESW3 3 c3725 
Nov 27 16:17:40.308 VM: VM ESW3 created.
Nov 27 16:17:40.310 HYPERVISOR: exec_cmd: vm set_con_tcp_port ESW3 2006 
Nov 27 16:17:40.311 HYPERVISOR: exec_cmd: c3725 get_mac_addr ESW3 
Nov 27 16:17:40.313 HYPERVISOR: exec_cmd: vm set_nvram ESW3 256 
Nov 27 16:17:40.314 HYPERVISOR: exec_cmd: vm get_status ESW3 
Nov 27 16:17:40.315 HYPERVISOR: exec_cmd: vm set_idle_pc ESW3 0x60c06d20 
Nov 27 16:17:40.316 HYPERVISOR: exec_cmd: c3725 set_mac_addr ESW3 c203.1bfb.0000 
Nov 27 16:17:40.317 HYPERVISOR: exec_cmd: vm get_status ESW3 
Nov 27 16:17:40.318 HYPERVISOR: exec_cmd: vm slot_add_binding ESW3 1 0 NM-16ESW 
Nov 27 16:17:40.328 HYPERVISOR: exec_cmd: vm set_disk0 ESW3 1 
Nov 27 16:17:40.331 HYPERVISOR: exec_cmd: vm set_ios ESW3 /media/actionmystique/SAMSUNG5-VMs/Images/GNS3/IOS/c3725-adventerprisek9-mz.124-15.T10.image 
Nov 27 16:17:40.332 HYPERVISOR: exec_cmd: vm slot_add_binding ESW3 0 16 WIC-2T 
Nov 27 16:17:40.333 HYPERVISOR: exec_cmd: vm set_config ESW3 configs/ios_base_startup-config.txt 
Nov 27 16:17:40.339 HYPERVISOR: exec_cmd: vm set_config ESW3 configs/ios_base_startup-config.txt configs/ios_base_private-config.txt 
Nov 27 16:17:40.515 HYPERVISOR: exec_cmd: nio create_tap tap-422670c2-e75e-4e5b-a7fa-328f4414a3e8 tap0 
Nov 27 16:17:40.516 HYPERVISOR: exec_cmd: vm slot_add_nio_binding ESW3 1 1 tap-422670c2-e75e-4e5b-a7fa-328f4414a3e8 
Nov 27 16:17:40.516 HYPERVISOR: exec_cmd: vm get_status ESW3 
Nov 27 16:17:40.717 HYPERVISOR: exec_cmd: nio create_udp udp-f1abb253-4798-4e4e-beb7-cfc2485f8443 15013 127.0.0.1 15012 
Nov 27 16:17:40.717 HYPERVISOR: exec_cmd: vm slot_add_nio_binding ESW3 1 0 udp-f1abb253-4798-4e4e-beb7-cfc2485f8443 
Nov 27 16:17:40.717 HYPERVISOR: exec_cmd: vm get_status ESW3 
Nov 27 16:17:54.795 HYPERVISOR: exec_cmd: vm get_status ESW3 
Nov 27 16:17:54.797 HYPERVISOR: exec_cmd: vm extract_config ESW3 
Nov 27 16:17:54.800 HYPERVISOR: exec_cmd: vm delete ESW3 
Nov 27 16:17:54.800 VM: VM ESW3 destroyed.
Nov 27 16:17:54.802 HYPERVISOR: exec_cmd: hypervisor stop 
Nov 27 16:17:54.815 HYPERVISOR: Stopped.
Nov 27 16:17:54.816 GENERAL: reset done.
