Nov 28 08:53:51.179 HYPERVISOR: Release 0.2.17-amd64/Linux (tag 2017072410)
Nov 28 08:53:51.179 HYPERVISOR: Started on IP = 127.0.0.1, TCP port = 47443.
Nov 28 08:53:51.184 HYPERVISOR: exec_cmd: hypervisor version 
Nov 28 08:53:51.185 HYPERVISOR: exec_cmd: hypervisor working_dir /media/actionmystique/SAMSUNG5-VMs/Labs/GNS3/git-Public-Labs-Collection/CCNP/TBSHOOT/L3-Technologies/IPv4/Routing-Protocols/OSPFv2/Jean-Christophe_Manciot/1+/TT 2-solutions-linux/project-files/dynamips 
Nov 28 08:53:51.185 GENERAL: working_dir=/media/actionmystique/SAMSUNG5-VMs/Labs/GNS3/git-Public-Labs-Collection/CCNP/TBSHOOT/L3-Technologies/IPv4/Routing-Protocols/OSPFv2/Jean-Christophe_Manciot/1+/TT 2-solutions-linux/project-files/dynamips
Nov 28 08:53:51.186 HYPERVISOR: exec_cmd: vm create ESW4 4 c3725 
Nov 28 08:53:51.186 VM: VM ESW4 created.
Nov 28 08:53:51.187 HYPERVISOR: exec_cmd: vm set_con_tcp_port ESW4 2009 
Nov 28 08:53:51.187 HYPERVISOR: exec_cmd: c3725 get_mac_addr ESW4 
Nov 28 08:53:51.189 HYPERVISOR: exec_cmd: vm set_disk0 ESW4 1 
Nov 28 08:53:51.191 HYPERVISOR: exec_cmd: vm get_status ESW4 
Nov 28 08:53:51.192 HYPERVISOR: exec_cmd: vm slot_add_binding ESW4 1 0 NM-16ESW 
Nov 28 08:53:51.193 HYPERVISOR: exec_cmd: vm set_ios ESW4 /media/actionmystique/SAMSUNG5-VMs/Images/GNS3/IOS/c3725-adventerprisek9-mz.124-15.T10.image 
Nov 28 08:53:51.195 HYPERVISOR: exec_cmd: c3725 set_mac_addr ESW4 c204.11f4.0000 
Nov 28 08:53:51.196 HYPERVISOR: exec_cmd: vm slot_add_binding ESW4 0 16 WIC-2T 
Nov 28 08:53:51.197 HYPERVISOR: exec_cmd: vm get_status ESW4 
Nov 28 08:53:51.197 HYPERVISOR: exec_cmd: vm set_idle_pc ESW4 0x6026b804 
Nov 28 08:53:51.198 HYPERVISOR: exec_cmd: vm set_nvram ESW4 256 
Nov 28 08:53:51.199 HYPERVISOR: exec_cmd: vm set_config ESW4 configs/ios_base_startup-config.txt 
Nov 28 08:53:51.200 HYPERVISOR: exec_cmd: vm set_config ESW4 configs/ios_base_startup-config.txt configs/ios_base_private-config.txt 
Nov 28 08:53:51.439 HYPERVISOR: exec_cmd: nio create_udp udp-0db647c6-77fb-42fe-81bd-f9a874cad00b 15011 127.0.0.1 15010 
Nov 28 08:53:51.439 HYPERVISOR: exec_cmd: vm slot_add_nio_binding ESW4 1 0 udp-0db647c6-77fb-42fe-81bd-f9a874cad00b 
Nov 28 08:53:51.440 HYPERVISOR: exec_cmd: vm get_status ESW4 
Nov 28 08:53:51.455 HYPERVISOR: exec_cmd: nio create_udp udp-c1f2fc30-2164-4da9-8cbc-305f3344c6bf 15013 127.0.0.1 15012 
Nov 28 08:53:51.456 HYPERVISOR: exec_cmd: vm slot_add_nio_binding ESW4 1 1 udp-c1f2fc30-2164-4da9-8cbc-305f3344c6bf 
Nov 28 08:53:51.456 HYPERVISOR: exec_cmd: vm get_status ESW4 
