Nov 28 08:53:57.972 HYPERVISOR: Release 0.2.17-amd64/Linux (tag 2017072410)
Nov 28 08:53:57.972 HYPERVISOR: Started on IP = 127.0.0.1, TCP port = 60391.
Nov 28 08:53:57.992 HYPERVISOR: exec_cmd: hypervisor version 
Nov 28 08:53:57.992 HYPERVISOR: exec_cmd: hypervisor working_dir /media/actionmystique/SAMSUNG5-VMs/Labs/GNS3/TT 2-solutions-linux-/project-files/dynamips 
Nov 28 08:53:57.992 GENERAL: working_dir=/media/actionmystique/SAMSUNG5-VMs/Labs/GNS3/TT 2-solutions-linux-/project-files/dynamips
Nov 28 08:53:57.999 HYPERVISOR: exec_cmd: vm create ESW3 3 c3725 
Nov 28 08:53:57.999 VM: VM ESW3 created.
Nov 28 08:53:58.000 HYPERVISOR: exec_cmd: vm set_con_tcp_port ESW3 2006 
Nov 28 08:53:58.000 HYPERVISOR: exec_cmd: c3725 get_mac_addr ESW3 
Nov 28 08:53:58.007 HYPERVISOR: exec_cmd: vm set_disk0 ESW3 1 
Nov 28 08:53:58.015 HYPERVISOR: exec_cmd: vm get_status ESW3 
Nov 28 08:53:58.016 HYPERVISOR: exec_cmd: vm slot_add_binding ESW3 1 0 NM-16ESW 
Nov 28 08:53:58.016 HYPERVISOR: exec_cmd: vm set_ios ESW3 /media/actionmystique/SAMSUNG5-VMs/Images/GNS3/IOS/c3725-adventerprisek9-mz.124-15.T10.image 
Nov 28 08:53:58.017 HYPERVISOR: exec_cmd: c3725 set_mac_addr ESW3 c203.1bfb.0000 
Nov 28 08:53:58.017 HYPERVISOR: exec_cmd: vm slot_add_binding ESW3 0 16 WIC-2T 
Nov 28 08:53:58.017 HYPERVISOR: exec_cmd: vm get_status ESW3 
Nov 28 08:53:58.018 HYPERVISOR: exec_cmd: vm set_idle_pc ESW3 0x6026b804 
Nov 28 08:53:58.018 HYPERVISOR: exec_cmd: vm set_nvram ESW3 256 
Nov 28 08:53:58.019 HYPERVISOR: exec_cmd: vm set_config ESW3 configs/ios_base_startup-config.txt 
Nov 28 08:53:58.019 HYPERVISOR: exec_cmd: vm set_config ESW3 configs/ios_base_startup-config.txt configs/ios_base_private-config.txt 
Nov 28 08:53:58.168 HYPERVISOR: exec_cmd: nio create_tap tap-f3516099-3636-4ad4-a05e-f9d7866a681d tap0 
Nov 28 08:53:58.169 HYPERVISOR: exec_cmd: vm slot_add_nio_binding ESW3 1 1 tap-f3516099-3636-4ad4-a05e-f9d7866a681d 
Nov 28 08:53:58.169 HYPERVISOR: exec_cmd: vm get_status ESW3 
Nov 28 08:53:58.344 HYPERVISOR: exec_cmd: nio create_udp udp-397d03ee-13ca-4b81-9f46-83e9ceeac18b 15013 127.0.0.1 15011 
Nov 28 08:53:58.351 HYPERVISOR: exec_cmd: vm slot_add_nio_binding ESW3 1 0 udp-397d03ee-13ca-4b81-9f46-83e9ceeac18b 
Nov 28 08:53:58.351 HYPERVISOR: exec_cmd: vm get_status ESW3 
Nov 28 08:54:16.539 HYPERVISOR: exec_cmd: vm get_status ESW3 
Nov 28 08:54:16.541 HYPERVISOR: exec_cmd: vm extract_config ESW3 
Nov 28 08:54:16.543 HYPERVISOR: exec_cmd: vm delete ESW3 
Nov 28 08:54:16.543 VM: VM ESW3 destroyed.
Nov 28 08:54:16.544 HYPERVISOR: exec_cmd: hypervisor stop 
Nov 28 08:54:17.011 HYPERVISOR: Stopped.
Nov 28 08:54:17.011 GENERAL: reset done.
