Nov 29 15:29:01.007 HYPERVISOR: Release 0.2.17-amd64/Linux (tag 2017072410)
Nov 29 15:29:01.007 HYPERVISOR: Started on IP = 127.0.0.1, TCP port = 49587.
Nov 29 15:29:01.046 HYPERVISOR: exec_cmd: hypervisor version 
Nov 29 15:29:01.048 HYPERVISOR: exec_cmd: hypervisor working_dir /media/actionmystique/SAMSUNG5-VMs/Labs/GNS3/git-Public-Labs-Collection/CCNP/TBSHOOT/L3-Technologies/IPv4/Routing-Protocols/Redistribution/Jean-Christophe_Manciot/1+/TT 4-linux/project-files/dynamips 
Nov 29 15:29:01.048 GENERAL: working_dir=/media/actionmystique/SAMSUNG5-VMs/Labs/GNS3/git-Public-Labs-Collection/CCNP/TBSHOOT/L3-Technologies/IPv4/Routing-Protocols/Redistribution/Jean-Christophe_Manciot/1+/TT 4-linux/project-files/dynamips
Nov 29 15:29:01.049 HYPERVISOR: exec_cmd: vm create ESW3 3 c3725 
Nov 29 15:29:01.049 VM: VM ESW3 created.
Nov 29 15:29:01.050 HYPERVISOR: exec_cmd: vm set_con_tcp_port ESW3 2006 
Nov 29 15:29:01.055 HYPERVISOR: exec_cmd: c3725 get_mac_addr ESW3 
Nov 29 15:29:01.064 HYPERVISOR: exec_cmd: vm set_nvram ESW3 256 
Nov 29 15:29:01.066 HYPERVISOR: exec_cmd: vm slot_add_binding ESW3 0 16 WIC-2T 
Nov 29 15:29:01.067 HYPERVISOR: exec_cmd: c3725 set_mac_addr ESW3 c203.1bfb.0000 
Nov 29 15:29:01.069 HYPERVISOR: exec_cmd: vm set_disk0 ESW3 1 
Nov 29 15:29:01.070 HYPERVISOR: exec_cmd: vm set_ios ESW3 /media/actionmystique/SAMSUNG5-VMs/Images/GNS3/IOS/c3725-adventerprisek9-mz.124-15.T10.image 
Nov 29 15:29:01.071 HYPERVISOR: exec_cmd: vm get_status ESW3 
Nov 29 15:29:01.072 HYPERVISOR: exec_cmd: vm set_idle_pc ESW3 0x6026b804 
Nov 29 15:29:01.073 HYPERVISOR: exec_cmd: vm get_status ESW3 
Nov 29 15:29:01.074 HYPERVISOR: exec_cmd: vm slot_add_binding ESW3 1 0 NM-16ESW 
Nov 29 15:29:01.075 HYPERVISOR: exec_cmd: vm set_config ESW3 configs/ios_base_startup-config.txt 
Nov 29 15:29:01.076 HYPERVISOR: exec_cmd: vm set_config ESW3 configs/ios_base_startup-config.txt configs/ios_base_private-config.txt 
Nov 29 15:29:01.290 HYPERVISOR: exec_cmd: nio create_tap tap-37040916-d177-4658-959b-3c3a91af75ed tap0 
Nov 29 15:29:01.291 HYPERVISOR: exec_cmd: vm slot_add_nio_binding ESW3 1 1 tap-37040916-d177-4658-959b-3c3a91af75ed 
Nov 29 15:29:01.291 HYPERVISOR: exec_cmd: vm get_status ESW3 
Nov 29 15:29:01.644 HYPERVISOR: exec_cmd: nio create_udp udp-dd7ddc16-ca1a-4cd9-a613-e41e74593da9 15010 127.0.0.1 15011 
Nov 29 15:29:01.645 HYPERVISOR: exec_cmd: vm slot_add_nio_binding ESW3 1 0 udp-dd7ddc16-ca1a-4cd9-a613-e41e74593da9 
Nov 29 15:29:01.645 HYPERVISOR: exec_cmd: vm get_status ESW3 
