Nov 29 15:29:00.981 HYPERVISOR: Release 0.2.17-amd64/Linux (tag 2017072410)
Nov 29 15:29:00.981 HYPERVISOR: Started on IP = 127.0.0.1, TCP port = 36721.
Nov 29 15:29:00.995 HYPERVISOR: exec_cmd: hypervisor version 
Nov 29 15:29:00.996 HYPERVISOR: exec_cmd: hypervisor working_dir /media/actionmystique/SAMSUNG5-VMs/Labs/GNS3/git-Public-Labs-Collection/CCNP/TBSHOOT/L3-Technologies/IPv4/Routing-Protocols/Redistribution/Jean-Christophe_Manciot/1+/TT 4-linux/project-files/dynamips 
Nov 29 15:29:00.996 GENERAL: working_dir=/media/actionmystique/SAMSUNG5-VMs/Labs/GNS3/git-Public-Labs-Collection/CCNP/TBSHOOT/L3-Technologies/IPv4/Routing-Protocols/Redistribution/Jean-Christophe_Manciot/1+/TT 4-linux/project-files/dynamips
Nov 29 15:29:00.998 HYPERVISOR: exec_cmd: vm create ESW1 1 c3725 
Nov 29 15:29:00.998 VM: VM ESW1 created.
Nov 29 15:29:00.999 HYPERVISOR: exec_cmd: vm set_con_tcp_port ESW1 2004 
Nov 29 15:29:01.001 HYPERVISOR: exec_cmd: c3725 get_mac_addr ESW1 
Nov 29 15:29:01.002 HYPERVISOR: exec_cmd: vm set_nvram ESW1 256 
Nov 29 15:29:01.005 HYPERVISOR: exec_cmd: vm slot_add_binding ESW1 0 16 WIC-2T 
Nov 29 15:29:01.008 HYPERVISOR: exec_cmd: c3725 set_mac_addr ESW1 c201.1b91.0000 
Nov 29 15:29:01.010 HYPERVISOR: exec_cmd: vm set_disk0 ESW1 1 
Nov 29 15:29:01.014 HYPERVISOR: exec_cmd: vm set_ios ESW1 /media/actionmystique/SAMSUNG5-VMs/Images/GNS3/IOS/c3725-adventerprisek9-mz.124-15.T10.image 
Nov 29 15:29:01.016 HYPERVISOR: exec_cmd: vm get_status ESW1 
Nov 29 15:29:01.018 HYPERVISOR: exec_cmd: vm set_idle_pc ESW1 0x6026b804 
Nov 29 15:29:01.020 HYPERVISOR: exec_cmd: vm get_status ESW1 
Nov 29 15:29:01.021 HYPERVISOR: exec_cmd: vm slot_add_binding ESW1 1 0 NM-16ESW 
Nov 29 15:29:01.022 HYPERVISOR: exec_cmd: vm set_config ESW1 configs/ios_base_startup-config.txt 
Nov 29 15:29:01.023 HYPERVISOR: exec_cmd: vm set_config ESW1 configs/ios_base_startup-config.txt configs/ios_base_private-config.txt 
Nov 29 15:29:01.565 HYPERVISOR: exec_cmd: nio create_udp udp-9f03f9b7-1589-4b63-8d99-973a27be9045 15003 127.0.0.1 15002 
Nov 29 15:29:01.566 HYPERVISOR: exec_cmd: vm slot_add_nio_binding ESW1 1 1 udp-9f03f9b7-1589-4b63-8d99-973a27be9045 
Nov 29 15:29:01.567 HYPERVISOR: exec_cmd: vm get_status ESW1 
Nov 29 15:29:01.608 HYPERVISOR: exec_cmd: nio create_udp udp-08d81aec-8da7-4f98-bf66-f80134227aab 15007 127.0.0.1 15005 
Nov 29 15:29:01.609 HYPERVISOR: exec_cmd: vm slot_add_nio_binding ESW1 1 0 udp-08d81aec-8da7-4f98-bf66-f80134227aab 
Nov 29 15:29:01.609 HYPERVISOR: exec_cmd: vm get_status ESW1 
