Nov 29 15:29:01.172 HYPERVISOR: Release 0.2.17-amd64/Linux (tag 2017072410)
Nov 29 15:29:01.172 HYPERVISOR: Started on IP = 127.0.0.1, TCP port = 59199.
Nov 29 15:29:01.192 HYPERVISOR: exec_cmd: hypervisor version 
Nov 29 15:29:01.192 HYPERVISOR: exec_cmd: hypervisor working_dir /media/actionmystique/SAMSUNG5-VMs/Labs/GNS3/git-Public-Labs-Collection/CCNP/TBSHOOT/L3-Technologies/IPv4/Routing-Protocols/Redistribution/Jean-Christophe_Manciot/1+/TT 4-linux/project-files/dynamips 
Nov 29 15:29:01.192 GENERAL: working_dir=/media/actionmystique/SAMSUNG5-VMs/Labs/GNS3/git-Public-Labs-Collection/CCNP/TBSHOOT/L3-Technologies/IPv4/Routing-Protocols/Redistribution/Jean-Christophe_Manciot/1+/TT 4-linux/project-files/dynamips
Nov 29 15:29:01.192 HYPERVISOR: exec_cmd: vm create ESW8 8 c3725 
Nov 29 15:29:01.192 VM: VM ESW8 created.
Nov 29 15:29:01.193 HYPERVISOR: exec_cmd: vm set_con_tcp_port ESW8 2020 
Nov 29 15:29:01.193 HYPERVISOR: exec_cmd: c3725 get_mac_addr ESW8 
Nov 29 15:29:01.193 HYPERVISOR: exec_cmd: vm set_nvram ESW8 256 
Nov 29 15:29:01.194 HYPERVISOR: exec_cmd: vm slot_add_binding ESW8 0 16 WIC-2T 
Nov 29 15:29:01.194 HYPERVISOR: exec_cmd: c3725 set_mac_addr ESW8 c208.2754.0000 
Nov 29 15:29:01.194 HYPERVISOR: exec_cmd: vm set_disk0 ESW8 1 
Nov 29 15:29:01.195 HYPERVISOR: exec_cmd: vm set_ios ESW8 /media/actionmystique/SAMSUNG5-VMs/Images/GNS3/IOS/c3725-adventerprisek9-mz.124-15.T10.image 
Nov 29 15:29:01.195 HYPERVISOR: exec_cmd: vm get_status ESW8 
Nov 29 15:29:01.195 HYPERVISOR: exec_cmd: vm set_idle_pc ESW8 0x6026b804 
Nov 29 15:29:01.196 HYPERVISOR: exec_cmd: vm get_status ESW8 
Nov 29 15:29:01.196 HYPERVISOR: exec_cmd: vm slot_add_binding ESW8 1 0 NM-16ESW 
Nov 29 15:29:01.197 HYPERVISOR: exec_cmd: vm set_config ESW8 configs/i8_startup-config.cfg 
Nov 29 15:29:01.884 HYPERVISOR: exec_cmd: nio create_udp udp-56eaf349-73cb-44ea-8ebf-d0fcd9b7fdb5 15035 127.0.0.1 15034 
Nov 29 15:29:01.885 HYPERVISOR: exec_cmd: vm slot_add_nio_binding ESW8 1 1 udp-56eaf349-73cb-44ea-8ebf-d0fcd9b7fdb5 
Nov 29 15:29:01.885 HYPERVISOR: exec_cmd: vm get_status ESW8 
Nov 29 15:29:01.892 HYPERVISOR: exec_cmd: nio create_udp udp-ee6e1bca-c744-411b-9c5b-a2e00991b268 15036 127.0.0.1 15037 
Nov 29 15:29:01.892 HYPERVISOR: exec_cmd: vm slot_add_nio_binding ESW8 1 0 udp-ee6e1bca-c744-411b-9c5b-a2e00991b268 
Nov 29 15:29:01.893 HYPERVISOR: exec_cmd: vm get_status ESW8 
