Nov 29 15:27:08.360 HYPERVISOR: Release 0.2.17-amd64/Linux (tag 2017072410)
Nov 29 15:27:08.360 HYPERVISOR: Started on IP = 127.0.0.1, TCP port = 53363.
Nov 29 15:27:08.400 HYPERVISOR: exec_cmd: hypervisor version 
Nov 29 15:27:08.402 HYPERVISOR: exec_cmd: hypervisor working_dir /media/actionmystique/SAMSUNG5-VMs/Labs/GNS3/git-Public-Labs-Collection/CCNP/TBSHOOT/L3-Technologies/IPv4/Routing-Protocols/Redistribution/Jean-Christophe_Manciot/1+/TT 4-linux/project-files/dynamips 
Nov 29 15:27:08.402 GENERAL: working_dir=/media/actionmystique/SAMSUNG5-VMs/Labs/GNS3/git-Public-Labs-Collection/CCNP/TBSHOOT/L3-Technologies/IPv4/Routing-Protocols/Redistribution/Jean-Christophe_Manciot/1+/TT 4-linux/project-files/dynamips
Nov 29 15:27:08.411 HYPERVISOR: exec_cmd: vm create ESW1 1 c3725 
Nov 29 15:27:08.411 VM: VM ESW1 created.
Nov 29 15:27:08.422 HYPERVISOR: exec_cmd: vm set_con_tcp_port ESW1 2004 
Nov 29 15:27:08.423 HYPERVISOR: exec_cmd: c3725 get_mac_addr ESW1 
Nov 29 15:27:08.424 HYPERVISOR: exec_cmd: vm get_status ESW1 
Nov 29 15:27:08.425 HYPERVISOR: exec_cmd: vm set_idle_pc ESW1 0x6026b804 
Nov 29 15:27:08.426 HYPERVISOR: exec_cmd: vm get_status ESW1 
Nov 29 15:27:08.436 HYPERVISOR: exec_cmd: vm slot_add_binding ESW1 1 0 NM-16ESW 
Nov 29 15:27:08.438 HYPERVISOR: exec_cmd: vm set_disk0 ESW1 1 
Nov 29 15:27:08.438 HYPERVISOR: exec_cmd: vm set_nvram ESW1 256 
Nov 29 15:27:08.439 HYPERVISOR: exec_cmd: vm set_ios ESW1 /media/actionmystique/SAMSUNG5-VMs/Images/GNS3/IOS/c3725-adventerprisek9-mz.124-15.T10.image 
Nov 29 15:27:08.440 HYPERVISOR: exec_cmd: c3725 set_mac_addr ESW1 c201.1b91.0000 
Nov 29 15:27:08.440 HYPERVISOR: exec_cmd: vm slot_add_binding ESW1 0 16 WIC-2T 
Nov 29 15:27:08.441 HYPERVISOR: exec_cmd: vm set_config ESW1 configs/ios_base_startup-config.txt 
Nov 29 15:27:31.067 HYPERVISOR: exec_cmd: vm get_status ESW1 
Nov 29 15:27:31.071 HYPERVISOR: exec_cmd: vm extract_config ESW1 
Nov 29 15:27:31.075 HYPERVISOR: exec_cmd: vm delete ESW1 
Nov 29 15:27:31.075 VM: VM ESW1 destroyed.
Nov 29 15:27:31.075 HYPERVISOR: exec_cmd: hypervisor stop 
Nov 29 15:27:31.399 HYPERVISOR: Stopped.
Nov 29 15:27:31.399 GENERAL: reset done.
