Nov 26 20:03:39.246 HYPERVISOR: Release 0.2.17-amd64/Linux (tag 2017072410)
Nov 26 20:03:39.246 HYPERVISOR: Started on IP = 127.0.0.1, TCP port = 56041.
Nov 26 20:03:39.268 HYPERVISOR: exec_cmd: hypervisor version 
Nov 26 20:03:39.272 HYPERVISOR: exec_cmd: hypervisor working_dir /media/actionmystique/SAMSUNG5-VMs/Labs/GNS3/git-Public-Labs-Collection/CCDP/ARCH/BGP/Jean-Christophe_Manciot/1+/Route Reflectors-linux-/project-files/dynamips 
Nov 26 20:03:39.272 GENERAL: working_dir=/media/actionmystique/SAMSUNG5-VMs/Labs/GNS3/git-Public-Labs-Collection/CCDP/ARCH/BGP/Jean-Christophe_Manciot/1+/Route Reflectors-linux-/project-files/dynamips
Nov 26 20:03:39.275 HYPERVISOR: exec_cmd: vm create RR-London 4 c7200 
Nov 26 20:03:39.275 VM: VM RR-London created.
Nov 26 20:03:39.279 HYPERVISOR: exec_cmd: vm set_con_tcp_port RR-London 2105 
Nov 26 20:03:39.288 HYPERVISOR: exec_cmd: vm set_aux_tcp_port RR-London 2505 
Nov 26 20:03:39.299 HYPERVISOR: exec_cmd: c7200 get_mac_addr RR-London 
Nov 26 20:03:39.303 HYPERVISOR: exec_cmd: vm get_status RR-London 
Nov 26 20:03:39.304 HYPERVISOR: exec_cmd: vm slot_add_binding RR-London 0 0 C7200-IO-FE 
Nov 26 20:03:39.306 HYPERVISOR: exec_cmd: vm get_status RR-London 
Nov 26 20:03:39.308 HYPERVISOR: exec_cmd: vm set_idle_pc RR-London 0x6062d534 
Nov 26 20:03:39.310 HYPERVISOR: exec_cmd: vm get_status RR-London 
Nov 26 20:03:39.313 HYPERVISOR: exec_cmd: vm slot_add_binding RR-London 3 0 PA-GE 
Nov 26 20:03:39.321 HYPERVISOR: exec_cmd: vm set_ram RR-London 512 
Nov 26 20:03:39.326 HYPERVISOR: exec_cmd: vm set_ios RR-London /media/actionmystique/SAMSUNG5-VMs/Images/GNS3/IOS/c7200-adventerprisek9-mz.152-4.M2.image 
Nov 26 20:03:39.330 HYPERVISOR: exec_cmd: vm get_status RR-London 
Nov 26 20:03:39.335 HYPERVISOR: exec_cmd: vm slot_add_binding RR-London 1 0 PA-GE 
Nov 26 20:03:39.337 HYPERVISOR: exec_cmd: vm get_status RR-London 
Nov 26 20:03:39.342 HYPERVISOR: exec_cmd: vm slot_remove_binding RR-London 0 0 
Nov 26 20:03:39.345 HYPERVISOR: exec_cmd: vm get_status RR-London 
Nov 26 20:03:39.357 HYPERVISOR: exec_cmd: vm slot_add_binding RR-London 0 0 C7200-IO-GE-E 
Nov 26 20:03:39.369 HYPERVISOR: exec_cmd: vm get_status RR-London 
Nov 26 20:03:39.372 HYPERVISOR: exec_cmd: vm slot_add_binding RR-London 2 0 PA-GE 
Nov 26 20:03:39.374 HYPERVISOR: exec_cmd: c7200 set_mac_addr RR-London ca04.091f.0000 
Nov 26 20:03:39.394 HYPERVISOR: exec_cmd: vm set_config RR-London configs/i4_startup-config.cfg 
Nov 26 20:03:39.820 HYPERVISOR: exec_cmd: nio create_udp udp-642c5b94-2593-4292-bdfd-bcc3b0ad2842 15010 127.0.0.1 15007 
Nov 26 20:03:39.822 HYPERVISOR: exec_cmd: vm slot_add_nio_binding RR-London 3 0 udp-642c5b94-2593-4292-bdfd-bcc3b0ad2842 
Nov 26 20:03:39.827 HYPERVISOR: exec_cmd: vm get_status RR-London 
Nov 26 20:03:39.846 HYPERVISOR: exec_cmd: nio create_udp udp-d4528613-14d0-412f-a782-456b1101094b 15011 127.0.0.1 15009 
Nov 26 20:03:39.852 HYPERVISOR: exec_cmd: vm slot_add_nio_binding RR-London 0 0 udp-d4528613-14d0-412f-a782-456b1101094b 
Nov 26 20:03:39.854 HYPERVISOR: exec_cmd: vm get_status RR-London 
Nov 26 20:03:39.868 HYPERVISOR: exec_cmd: nio create_udp udp-fb96ea7e-8fa8-497b-8375-ce09663db8c1 15013 127.0.0.1 15012 
Nov 26 20:03:39.869 HYPERVISOR: exec_cmd: vm slot_add_nio_binding RR-London 1 0 udp-fb96ea7e-8fa8-497b-8375-ce09663db8c1 
Nov 26 20:03:39.870 HYPERVISOR: exec_cmd: vm get_status RR-London 
Nov 26 20:03:39.896 HYPERVISOR: exec_cmd: nio create_udp udp-ea9d0545-9951-4ec7-92be-cc0547732979 15015 127.0.0.1 15014 
Nov 26 20:03:39.896 HYPERVISOR: exec_cmd: vm slot_add_nio_binding RR-London 2 0 udp-ea9d0545-9951-4ec7-92be-cc0547732979 
Nov 26 20:03:39.898 HYPERVISOR: exec_cmd: vm get_status RR-London 
