Aug 31 18:28:02.206 HYPERVISOR: Release 0.2.16-amd64/Linux (tag 2015060118)
Aug 31 18:28:02.206 HYPERVISOR: Started on IP = 127.0.0.1, TCP port = 42530.
Aug 31 18:28:02.225 HYPERVISOR: exec_cmd: hypervisor version 
Aug 31 18:28:02.227 HYPERVISOR: exec_cmd: hypervisor working_dir /media/actionmystique/SAMSUNG-850-Ext4/Labs/GNS3/Route Reflectors/project-files/dynamips 
Aug 31 18:28:02.227 GENERAL: working_dir=/media/actionmystique/SAMSUNG-850-Ext4/Labs/GNS3/Route Reflectors/project-files/dynamips
Aug 31 18:28:02.228 HYPERVISOR: exec_cmd: vm create Client-Prague 6 c7200 
Aug 31 18:28:02.229 VM: VM Client-Prague created.
Aug 31 18:28:02.230 HYPERVISOR: exec_cmd: vm set_con_tcp_port Client-Prague 2107 
Aug 31 18:28:02.235 HYPERVISOR: exec_cmd: vm set_aux_tcp_port Client-Prague 2507 
Aug 31 18:28:02.244 HYPERVISOR: exec_cmd: c7200 get_mac_addr Client-Prague 
Aug 31 18:28:02.246 HYPERVISOR: exec_cmd: vm get_status Client-Prague 
Aug 31 18:28:02.248 HYPERVISOR: exec_cmd: vm slot_add_binding Client-Prague 0 0 C7200-IO-FE 
Aug 31 18:28:02.249 HYPERVISOR: exec_cmd: vm set_ram Client-Prague 512 
Aug 31 18:28:02.251 HYPERVISOR: exec_cmd: vm get_status Client-Prague 
Aug 31 18:28:02.252 HYPERVISOR: exec_cmd: vm slot_remove_binding Client-Prague 0 0 
Aug 31 18:28:02.257 HYPERVISOR: exec_cmd: vm get_status Client-Prague 
Aug 31 18:28:02.260 HYPERVISOR: exec_cmd: vm slot_add_binding Client-Prague 0 0 C7200-IO-GE-E 
Aug 31 18:28:02.262 HYPERVISOR: exec_cmd: vm set_ios Client-Prague /media/actionmystique/SAMSUNG-850-Ext4/Images/GNS3/IOS/c7200-adventerprisek9-mz.152-4.M2.image 
Aug 31 18:28:02.268 HYPERVISOR: exec_cmd: vm get_status Client-Prague 
Aug 31 18:28:02.269 HYPERVISOR: exec_cmd: vm set_idle_pc Client-Prague 0x6062d534 
Aug 31 18:28:02.270 HYPERVISOR: exec_cmd: vm set_config Client-Prague configs/i6_startup-config.cfg 
Aug 31 18:28:02.684 HYPERVISOR: exec_cmd: vm extract_config Client-Prague 
Aug 31 18:28:02.745 HYPERVISOR: exec_cmd: nio create_udp udp-9cf48503-6fc3-4459-a365-55bd0aad3eec 15007 127.0.0.1 15006 
Aug 31 18:28:02.747 HYPERVISOR: exec_cmd: vm slot_add_nio_binding Client-Prague 0 0 udp-9cf48503-6fc3-4459-a365-55bd0aad3eec 
Aug 31 18:28:02.753 HYPERVISOR: exec_cmd: vm get_status Client-Prague 
Aug 31 18:28:07.801 HYPERVISOR: exec_cmd: vm set_ghost_status Client-Prague 2 
Aug 31 18:28:07.802 HYPERVISOR: exec_cmd: vm set_ghost_file Client-Prague c7200-adventerprisek9-mz.152-4.M2.image-512.ghost 
Aug 31 18:28:07.802 HYPERVISOR: exec_cmd: vm get_status Client-Prague 
Aug 31 18:28:07.803 HYPERVISOR: exec_cmd: vm start Client-Prague 
Aug 31 18:40:58.189 HYPERVISOR: exec_cmd: vm extract_config Client-Prague 
Aug 31 18:46:15.765 HYPERVISOR: exec_cmd: vm extract_config Client-Prague 
Aug 31 18:46:18.948 HYPERVISOR: exec_cmd: vm get_status Client-Prague 
Aug 31 18:46:18.950 HYPERVISOR: exec_cmd: vm stop Client-Prague 
Aug 31 18:46:19.022 VM: VM Client-Prague shutdown.
Aug 31 18:46:19.024 HYPERVISOR: exec_cmd: vm extract_config Client-Prague 
Aug 31 18:46:36.237 HYPERVISOR: exec_cmd: vm get_status Client-Prague 
Aug 31 18:46:36.240 HYPERVISOR: exec_cmd: vm extract_config Client-Prague 
Aug 31 18:46:36.246 HYPERVISOR: exec_cmd: vm delete Client-Prague 
Aug 31 18:46:36.246 VM: VM Client-Prague destroyed.
Aug 31 18:46:36.250 HYPERVISOR: exec_cmd: hypervisor stop 
Aug 31 18:46:36.253 HYPERVISOR: Stopped.
Aug 31 18:46:36.253 GENERAL: reset done.
