Jul 19 16:11:07.772 HYPERVISOR: Release 0.2.16-amd64/Linux (tag 2015060118)
Jul 19 16:11:07.772 HYPERVISOR: Started on IP = 127.0.0.1, TCP port = 44361.
Jul 19 16:11:07.795 HYPERVISOR: exec_cmd: hypervisor version 
Jul 19 16:11:07.796 HYPERVISOR: exec_cmd: hypervisor working_dir /media/actionmystique/SAMSUNG-850-Ext4/Labs/GNS3/CCNP/TBSHOOT/Exam-Topology/Jean-Christophe_Manciot/1+/v2-solutions-linux/project-files/dynamips 
Jul 19 16:11:07.796 GENERAL: working_dir=/media/actionmystique/SAMSUNG-850-Ext4/Labs/GNS3/CCNP/TBSHOOT/Exam-Topology/Jean-Christophe_Manciot/1+/v2-solutions-linux/project-files/dynamips
Jul 19 16:11:07.796 HYPERVISOR: exec_cmd: vm create POP 10 c3725 
Jul 19 16:11:07.797 VM: VM POP created.
Jul 19 16:11:07.798 HYPERVISOR: exec_cmd: vm set_con_tcp_port POP 2017 
Jul 19 16:11:07.799 HYPERVISOR: exec_cmd: c3725 get_mac_addr POP 
Jul 19 16:11:07.800 HYPERVISOR: exec_cmd: c3725 set_mac_addr POP c20a.12bf.0000 
Jul 19 16:11:07.802 HYPERVISOR: exec_cmd: vm set_ios POP /media/actionmystique/SAMSUNG-850-Ext4/Images/GNS3/IOS/c3725-adventerprisek9-mz.124-15.T10.image 
Jul 19 16:11:07.803 HYPERVISOR: exec_cmd: vm get_status POP 
Jul 19 16:11:07.804 HYPERVISOR: exec_cmd: vm slot_add_binding POP 1 0 NM-16ESW 
Jul 19 16:11:07.806 HYPERVISOR: exec_cmd: vm get_status POP 
Jul 19 16:11:07.807 HYPERVISOR: exec_cmd: vm set_idle_pc POP 0x6026b804 
Jul 19 16:11:07.812 HYPERVISOR: exec_cmd: vm set_nvram POP 256 
Jul 19 16:11:07.820 HYPERVISOR: exec_cmd: vm set_disk0 POP 1 
Jul 19 16:11:07.824 HYPERVISOR: exec_cmd: vm slot_add_binding POP 0 16 WIC-2T 
Jul 19 16:11:07.826 HYPERVISOR: exec_cmd: vm set_config POP configs/i10_startup-config.cfg 
Jul 19 16:11:07.827 HYPERVISOR: exec_cmd: vm set_config POP configs/i10_startup-config.cfg configs/i10_private-config.cfg 
Jul 19 16:11:08.854 HYPERVISOR: exec_cmd: nio create_udp udp-a6682eb2-d004-4fbe-95e9-04ba918674a2 15054 127.0.0.1 15055 
Jul 19 16:11:08.860 HYPERVISOR: exec_cmd: vm slot_add_nio_binding POP 1 4 udp-a6682eb2-d004-4fbe-95e9-04ba918674a2 
Jul 19 16:11:08.861 HYPERVISOR: exec_cmd: vm get_status POP 
Jul 19 16:11:08.867 HYPERVISOR: exec_cmd: nio create_udp udp-bc120310-5029-425a-8b5e-dda8720154ca 15057 127.0.0.1 15056 
Jul 19 16:11:08.868 HYPERVISOR: exec_cmd: vm slot_add_nio_binding POP 1 2 udp-bc120310-5029-425a-8b5e-dda8720154ca 
Jul 19 16:11:08.868 HYPERVISOR: exec_cmd: vm get_status POP 
Jul 19 16:11:08.893 HYPERVISOR: exec_cmd: nio create_udp udp-53fd848f-b351-479c-856b-36398afde37d 15058 127.0.0.1 15059 
Jul 19 16:11:08.894 HYPERVISOR: exec_cmd: vm slot_add_nio_binding POP 1 1 udp-53fd848f-b351-479c-856b-36398afde37d 
Jul 19 16:11:08.894 HYPERVISOR: exec_cmd: vm get_status POP 
Jul 19 16:11:08.905 HYPERVISOR: exec_cmd: nio create_udp udp-732dec03-2645-4ee8-9522-1c9a35566011 15060 127.0.0.1 15061 
Jul 19 16:11:08.911 HYPERVISOR: exec_cmd: vm slot_add_nio_binding POP 1 3 udp-732dec03-2645-4ee8-9522-1c9a35566011 
Jul 19 16:11:08.911 HYPERVISOR: exec_cmd: vm get_status POP 
Jul 19 16:16:33.576 HYPERVISOR: exec_cmd: vm get_status POP 
Jul 19 16:16:33.581 HYPERVISOR: exec_cmd: vm extract_config POP 
Jul 19 16:16:33.588 HYPERVISOR: exec_cmd: vm delete POP 
Jul 19 16:16:33.588 VM: VM POP destroyed.
Jul 19 16:16:33.591 HYPERVISOR: exec_cmd: hypervisor stop 
Jul 19 16:16:34.090 HYPERVISOR: Stopped.
Jul 19 16:16:34.090 GENERAL: reset done.
