Nov 26 22:07:21.906 HYPERVISOR: Release 0.2.17-amd64/Linux (tag 2017072410)
Nov 26 22:07:21.906 HYPERVISOR: Started on IP = 127.0.0.1, TCP port = 44957.
Nov 26 22:07:21.919 HYPERVISOR: exec_cmd: hypervisor version 
Nov 26 22:07:21.919 HYPERVISOR: exec_cmd: hypervisor working_dir /media/actionmystique/SAMSUNG5-VMs/Labs/GNS3/TT 1-solutions-linux-/project-files/dynamips 
Nov 26 22:07:21.919 GENERAL: working_dir=/media/actionmystique/SAMSUNG5-VMs/Labs/GNS3/TT 1-solutions-linux-/project-files/dynamips
Nov 26 22:07:21.919 HYPERVISOR: exec_cmd: vm create ESW2 2 c3725 
Nov 26 22:07:21.919 VM: VM ESW2 created.
Nov 26 22:07:21.920 HYPERVISOR: exec_cmd: vm set_con_tcp_port ESW2 2002 
Nov 26 22:07:21.920 HYPERVISOR: exec_cmd: vm set_aux_tcp_port ESW2 2502 
Nov 26 22:07:21.920 HYPERVISOR: exec_cmd: c3725 get_mac_addr ESW2 
Nov 26 22:07:21.921 HYPERVISOR: exec_cmd: vm slot_add_binding ESW2 0 16 WIC-2T 
Nov 26 22:07:21.921 HYPERVISOR: exec_cmd: vm get_status ESW2 
Nov 26 22:07:21.921 HYPERVISOR: exec_cmd: vm set_idle_pc ESW2 0x60c06d20 
Nov 26 22:07:21.922 HYPERVISOR: exec_cmd: vm set_nvram ESW2 256 
Nov 26 22:07:21.922 HYPERVISOR: exec_cmd: vm get_status ESW2 
Nov 26 22:07:21.922 HYPERVISOR: exec_cmd: vm slot_add_binding ESW2 1 0 NM-16ESW 
Nov 26 22:07:21.923 HYPERVISOR: exec_cmd: vm set_ios ESW2 /media/actionmystique/SAMSUNG5-VMs/Images/GNS3/IOS/c3725-adventerprisek9-mz.124-15.T10.image 
Nov 26 22:07:21.924 HYPERVISOR: exec_cmd: vm set_disk0 ESW2 1 
Nov 26 22:07:21.924 HYPERVISOR: exec_cmd: c3725 set_mac_addr ESW2 c202.28c2.0000 
Nov 26 22:07:21.925 HYPERVISOR: exec_cmd: vm set_config ESW2 configs/i2_startup-config.cfg 
Nov 26 22:07:21.925 HYPERVISOR: exec_cmd: vm set_config ESW2 configs/i2_startup-config.cfg configs/i2_private-config.cfg 
Nov 26 22:07:22.024 HYPERVISOR: exec_cmd: nio create_tap tap-bbe92db0-b667-469c-b28a-35063ad1aa37 tap0 
Nov 26 22:07:22.027 HYPERVISOR: exec_cmd: vm slot_add_nio_binding ESW2 1 0 tap-bbe92db0-b667-469c-b28a-35063ad1aa37 
Nov 26 22:07:22.033 HYPERVISOR: exec_cmd: vm get_status ESW2 
Nov 26 22:07:22.129 HYPERVISOR: exec_cmd: nio create_udp udp-4b3263f0-89db-4e2e-9adf-54d60c38e270 15009 127.0.0.1 15008 
Nov 26 22:07:22.129 HYPERVISOR: exec_cmd: vm slot_add_nio_binding ESW2 1 2 udp-4b3263f0-89db-4e2e-9adf-54d60c38e270 
Nov 26 22:07:22.130 HYPERVISOR: exec_cmd: vm get_status ESW2 
Nov 26 22:07:34.423 HYPERVISOR: exec_cmd: vm get_status ESW2 
Nov 26 22:07:34.424 HYPERVISOR: exec_cmd: vm extract_config ESW2 
Nov 26 22:07:34.426 HYPERVISOR: exec_cmd: vm delete ESW2 
Nov 26 22:07:34.426 VM: VM ESW2 destroyed.
Nov 26 22:07:34.426 HYPERVISOR: exec_cmd: hypervisor stop 
Nov 26 22:07:34.431 HYPERVISOR: Stopped.
Nov 26 22:07:34.431 GENERAL: reset done.
