Nov 28 08:53:33.524 HYPERVISOR: Release 0.2.17-amd64/Linux (tag 2017072410)
Nov 28 08:53:33.524 HYPERVISOR: Started on IP = 127.0.0.1, TCP port = 57811.
Nov 28 08:53:33.560 HYPERVISOR: exec_cmd: hypervisor version 
Nov 28 08:53:33.561 HYPERVISOR: exec_cmd: hypervisor working_dir /media/actionmystique/SAMSUNG5-VMs/Labs/GNS3/TT 2-linux-/project-files/dynamips 
Nov 28 08:53:33.561 GENERAL: working_dir=/media/actionmystique/SAMSUNG5-VMs/Labs/GNS3/TT 2-linux-/project-files/dynamips
Nov 28 08:53:33.561 HYPERVISOR: exec_cmd: vm create ESW1 1 c3725 
Nov 28 08:53:33.561 VM: VM ESW1 created.
Nov 28 08:53:33.562 HYPERVISOR: exec_cmd: vm set_con_tcp_port ESW1 2004 
Nov 28 08:53:33.562 HYPERVISOR: exec_cmd: c3725 get_mac_addr ESW1 
Nov 28 08:53:33.563 HYPERVISOR: exec_cmd: vm set_disk0 ESW1 1 
Nov 28 08:53:33.564 HYPERVISOR: exec_cmd: vm get_status ESW1 
Nov 28 08:53:33.564 HYPERVISOR: exec_cmd: vm slot_add_binding ESW1 1 0 NM-16ESW 
Nov 28 08:53:33.565 HYPERVISOR: exec_cmd: vm set_ios ESW1 /media/actionmystique/SAMSUNG5-VMs/Images/GNS3/IOS/c3725-adventerprisek9-mz.124-15.T10.image 
Nov 28 08:53:33.565 HYPERVISOR: exec_cmd: c3725 set_mac_addr ESW1 c201.1b91.0000 
Nov 28 08:53:33.566 HYPERVISOR: exec_cmd: vm slot_add_binding ESW1 0 16 WIC-2T 
Nov 28 08:53:33.566 HYPERVISOR: exec_cmd: vm get_status ESW1 
Nov 28 08:53:33.568 HYPERVISOR: exec_cmd: vm set_idle_pc ESW1 0x6026b804 
Nov 28 08:53:33.569 HYPERVISOR: exec_cmd: vm set_nvram ESW1 256 
Nov 28 08:53:33.571 HYPERVISOR: exec_cmd: vm set_config ESW1 configs/ios_base_startup-config.txt 
Nov 28 08:53:33.571 HYPERVISOR: exec_cmd: vm set_config ESW1 configs/ios_base_startup-config.txt configs/ios_base_private-config.txt 
Nov 28 08:53:33.847 HYPERVISOR: exec_cmd: nio create_udp udp-b6968d6c-44fe-4f35-81cf-f814e85cabc8 15007 127.0.0.1 15004 
Nov 28 08:53:33.847 HYPERVISOR: exec_cmd: vm slot_add_nio_binding ESW1 1 0 udp-b6968d6c-44fe-4f35-81cf-f814e85cabc8 
Nov 28 08:53:33.848 HYPERVISOR: exec_cmd: vm get_status ESW1 
Nov 28 08:53:33.871 HYPERVISOR: exec_cmd: nio create_udp udp-f80ad038-de19-4ff8-82c3-23ffcf8167f6 15008 127.0.0.1 15009 
Nov 28 08:53:33.871 HYPERVISOR: exec_cmd: vm slot_add_nio_binding ESW1 1 1 udp-f80ad038-de19-4ff8-82c3-23ffcf8167f6 
Nov 28 08:53:33.872 HYPERVISOR: exec_cmd: vm get_status ESW1 
Nov 28 08:53:50.332 HYPERVISOR: exec_cmd: vm get_status ESW1 
Nov 28 08:53:50.334 HYPERVISOR: exec_cmd: vm extract_config ESW1 
Nov 28 08:53:50.336 HYPERVISOR: exec_cmd: vm delete ESW1 
Nov 28 08:53:50.336 VM: VM ESW1 destroyed.
Nov 28 08:53:50.338 HYPERVISOR: exec_cmd: hypervisor stop 
Nov 28 08:53:50.578 HYPERVISOR: Stopped.
Nov 28 08:53:50.578 GENERAL: reset done.
