Nov 27 16:20:53.840 HYPERVISOR: Release 0.2.17-amd64/Linux (tag 2017072410)
Nov 27 16:20:53.840 HYPERVISOR: Started on IP = 127.0.0.1, TCP port = 35463.
Nov 27 16:20:53.853 HYPERVISOR: exec_cmd: hypervisor version 
Nov 27 16:20:53.853 HYPERVISOR: exec_cmd: hypervisor working_dir /media/actionmystique/SAMSUNG5-VMs/Labs/GNS3/git-Public-Labs-Collection/CCNP/TBSHOOT/L3-Technologies/IPv4/High-Availability/HSRP/Jean-Christophe_Manciot/1+/TT 1-solutions-linux/project-files/dynamips 
Nov 27 16:20:53.853 GENERAL: working_dir=/media/actionmystique/SAMSUNG5-VMs/Labs/GNS3/git-Public-Labs-Collection/CCNP/TBSHOOT/L3-Technologies/IPv4/High-Availability/HSRP/Jean-Christophe_Manciot/1+/TT 1-solutions-linux/project-files/dynamips
Nov 27 16:20:53.853 HYPERVISOR: exec_cmd: vm create SW3 3 c3725 
Nov 27 16:20:53.853 VM: VM SW3 created.
Nov 27 16:20:53.854 HYPERVISOR: exec_cmd: vm set_con_tcp_port SW3 2003 
Nov 27 16:20:53.854 HYPERVISOR: exec_cmd: c3725 get_mac_addr SW3 
Nov 27 16:20:53.854 HYPERVISOR: exec_cmd: vm set_nvram SW3 256 
Nov 27 16:20:53.855 HYPERVISOR: exec_cmd: vm get_status SW3 
Nov 27 16:20:53.855 HYPERVISOR: exec_cmd: vm set_idle_pc SW3 0x6026b804 
Nov 27 16:20:53.856 HYPERVISOR: exec_cmd: c3725 set_mac_addr SW3 cccc.cccc.cccc 
Nov 27 16:20:53.856 HYPERVISOR: exec_cmd: vm set_exec_area SW3 16 
Nov 27 16:20:53.856 HYPERVISOR: exec_cmd: vm get_status SW3 
Nov 27 16:20:53.857 HYPERVISOR: exec_cmd: vm slot_add_binding SW3 1 0 NM-16ESW 
Nov 27 16:20:53.857 HYPERVISOR: exec_cmd: vm set_ios SW3 /media/actionmystique/SAMSUNG5-VMs/Images/GNS3/IOS/c3725-adventerprisek9-mz.124-15.T10.image 
Nov 27 16:20:53.858 HYPERVISOR: exec_cmd: vm slot_add_binding SW3 0 16 WIC-2T 
Nov 27 16:20:53.858 HYPERVISOR: exec_cmd: vm set_disk0 SW3 1 
Nov 27 16:20:53.859 HYPERVISOR: exec_cmd: vm set_config SW3 configs/i3_startup-config.cfg 
Nov 27 16:20:53.859 HYPERVISOR: exec_cmd: vm set_config SW3 configs/i3_startup-config.cfg configs/i3_private-config.cfg 
Nov 27 16:20:54.081 HYPERVISOR: exec_cmd: nio create_udp udp-5030f500-a4de-4859-bfcb-9bf9ff1f7de2 15005 127.0.0.1 15008 
Nov 27 16:20:54.081 HYPERVISOR: exec_cmd: vm slot_add_nio_binding SW3 1 2 udp-5030f500-a4de-4859-bfcb-9bf9ff1f7de2 
Nov 27 16:20:54.082 HYPERVISOR: exec_cmd: vm get_status SW3 
Nov 27 16:20:54.099 HYPERVISOR: exec_cmd: nio create_udp udp-abac8d0a-50f7-4931-9be9-412e234f67d6 15009 127.0.0.1 15007 
Nov 27 16:20:54.100 HYPERVISOR: exec_cmd: vm slot_add_nio_binding SW3 1 5 udp-abac8d0a-50f7-4931-9be9-412e234f67d6 
Nov 27 16:20:54.101 HYPERVISOR: exec_cmd: vm get_status SW3 
Nov 27 16:20:54.133 HYPERVISOR: exec_cmd: nio create_udp udp-03d8fea8-ecaf-4e02-bf99-12228e35e75c 15010 127.0.0.1 15011 
Nov 27 16:20:54.133 HYPERVISOR: exec_cmd: vm slot_add_nio_binding SW3 1 6 udp-03d8fea8-ecaf-4e02-bf99-12228e35e75c 
Nov 27 16:20:54.134 HYPERVISOR: exec_cmd: vm get_status SW3 
Nov 27 16:20:54.140 HYPERVISOR: exec_cmd: nio create_udp udp-1f74c966-d7c9-4542-8bc4-85708125a9df 15013 127.0.0.1 15012 
Nov 27 16:20:54.141 HYPERVISOR: exec_cmd: vm slot_add_nio_binding SW3 1 1 udp-1f74c966-d7c9-4542-8bc4-85708125a9df 
Nov 27 16:20:54.141 HYPERVISOR: exec_cmd: vm get_status SW3 
