Nov 26 21:01:59.380 HYPERVISOR: Release 0.2.17-amd64/Linux (tag 2017072410)
Nov 26 21:01:59.380 HYPERVISOR: Started on IP = 127.0.0.1, TCP port = 39089.
Nov 26 21:01:59.409 HYPERVISOR: exec_cmd: hypervisor version 
Nov 26 21:01:59.414 HYPERVISOR: exec_cmd: hypervisor working_dir /media/actionmystique/SAMSUNG5-VMs/Labs/GNS3/PVST+ EtherChannel HSRP/project-files/dynamips 
Nov 26 21:01:59.414 GENERAL: working_dir=/media/actionmystique/SAMSUNG5-VMs/Labs/GNS3/PVST+ EtherChannel HSRP/project-files/dynamips
Nov 26 21:01:59.416 HYPERVISOR: exec_cmd: vm create VerISPon 12 c7200 
Nov 26 21:01:59.416 VM: VM VerISPon created.
Nov 26 21:01:59.417 HYPERVISOR: exec_cmd: vm set_con_tcp_port VerISPon 2014 
Nov 26 21:01:59.418 HYPERVISOR: exec_cmd: vm set_aux_tcp_port VerISPon 2514 
Nov 26 21:01:59.420 HYPERVISOR: exec_cmd: c7200 get_mac_addr VerISPon 
Nov 26 21:01:59.421 HYPERVISOR: exec_cmd: vm get_status VerISPon 
Nov 26 21:01:59.422 HYPERVISOR: exec_cmd: vm slot_add_binding VerISPon 0 0 C7200-IO-FE 
Nov 26 21:01:59.423 HYPERVISOR: exec_cmd: vm set_ram VerISPon 512 
Nov 26 21:01:59.424 HYPERVISOR: exec_cmd: vm get_status VerISPon 
Nov 26 21:01:59.429 HYPERVISOR: exec_cmd: vm set_idle_pc VerISPon 0x60188e14 
Nov 26 21:01:59.430 HYPERVISOR: exec_cmd: vm get_status VerISPon 
Nov 26 21:01:59.435 HYPERVISOR: exec_cmd: vm slot_add_binding VerISPon 1 0 PA-POS-OC3 
Nov 26 21:01:59.438 HYPERVISOR: exec_cmd: vm set_ios VerISPon /media/actionmystique/SAMSUNG5-VMs/Images/GNS3/IOS/c7200-adventerprisek9-mz.152-4.M2.image 
Nov 26 21:01:59.439 HYPERVISOR: exec_cmd: vm set_config VerISPon configs/i12_startup-config.cfg 
Nov 26 21:02:00.189 HYPERVISOR: exec_cmd: vm extract_config VerISPon 
Nov 26 21:02:00.782 HYPERVISOR: exec_cmd: nio create_udp udp-8192aa95-2fe7-4295-ae74-985a4119301e 15057 127.0.0.1 15056 
Nov 26 21:02:00.783 HYPERVISOR: exec_cmd: vm slot_add_nio_binding VerISPon 1 0 udp-8192aa95-2fe7-4295-ae74-985a4119301e 
Nov 26 21:02:00.783 HYPERVISOR: exec_cmd: vm get_status VerISPon 
Nov 26 21:02:00.805 HYPERVISOR: exec_cmd: nio create_udp udp-a4e8a523-bebc-4c7f-9484-161975d95417 15059 127.0.0.1 15058 
Nov 26 21:02:00.805 HYPERVISOR: exec_cmd: vm slot_add_nio_binding VerISPon 0 0 udp-a4e8a523-bebc-4c7f-9484-161975d95417 
Nov 26 21:02:00.805 HYPERVISOR: exec_cmd: vm get_status VerISPon 
Nov 26 21:03:00.812 HYPERVISOR: exec_cmd: vm get_status VerISPon 
Nov 26 21:03:00.816 HYPERVISOR: exec_cmd: vm extract_config VerISPon 
Nov 26 21:03:00.819 HYPERVISOR: exec_cmd: vm delete VerISPon 
Nov 26 21:03:00.819 VM: VM VerISPon destroyed.
Nov 26 21:03:00.821 HYPERVISOR: exec_cmd: hypervisor stop 
Nov 26 21:03:00.965 HYPERVISOR: Stopped.
Nov 26 21:03:00.965 GENERAL: reset done.
