Nov 27 16:22:33.711 HYPERVISOR: Release 0.2.17-amd64/Linux (tag 2017072410)
Nov 27 16:22:33.711 HYPERVISOR: Started on IP = 127.0.0.1, TCP port = 36873.
Nov 27 16:22:33.724 HYPERVISOR: exec_cmd: hypervisor version 
Nov 27 16:22:33.724 HYPERVISOR: exec_cmd: hypervisor working_dir /media/actionmystique/SAMSUNG5-VMs/Labs/GNS3/TT 3-solutions-linux-/project-files/dynamips 
Nov 27 16:22:33.724 GENERAL: working_dir=/media/actionmystique/SAMSUNG5-VMs/Labs/GNS3/TT 3-solutions-linux-/project-files/dynamips
Nov 27 16:22:33.725 HYPERVISOR: exec_cmd: vm create Core 4 c3725 
Nov 27 16:22:33.725 VM: VM Core created.
Nov 27 16:22:33.725 HYPERVISOR: exec_cmd: vm set_con_tcp_port Core 2005 
Nov 27 16:22:33.725 HYPERVISOR: exec_cmd: c3725 get_mac_addr Core 
Nov 27 16:22:33.726 HYPERVISOR: exec_cmd: vm set_ram Core 256 
Nov 27 16:22:33.726 HYPERVISOR: exec_cmd: vm set_nvram Core 256 
Nov 27 16:22:33.726 HYPERVISOR: exec_cmd: vm get_status Core 
Nov 27 16:22:33.727 HYPERVISOR: exec_cmd: vm set_idle_pc Core 0x622a6154 
Nov 27 16:22:33.727 HYPERVISOR: exec_cmd: c3725 set_mac_addr Core c204.0c3e.0000 
Nov 27 16:22:33.728 HYPERVISOR: exec_cmd: vm get_status Core 
Nov 27 16:22:33.728 HYPERVISOR: exec_cmd: vm slot_add_binding Core 1 0 NM-16ESW 
Nov 27 16:22:33.728 HYPERVISOR: exec_cmd: vm set_disk0 Core 1 
Nov 27 16:22:33.729 HYPERVISOR: exec_cmd: vm set_ios Core /media/actionmystique/SAMSUNG5-VMs/Images/GNS3/IOS/c3725-adventerprisek9-mz.124-15.T10.image 
Nov 27 16:22:33.729 HYPERVISOR: exec_cmd: vm slot_add_binding Core 0 16 WIC-2T 
Nov 27 16:22:33.729 HYPERVISOR: exec_cmd: vm set_config Core configs/i4_startup-config.cfg 
Nov 27 16:22:33.730 HYPERVISOR: exec_cmd: vm set_config Core configs/i4_startup-config.cfg configs/i4_private-config.cfg 
Nov 27 16:22:34.001 HYPERVISOR: exec_cmd: nio create_udp udp-11af1ca7-ca6f-45b8-a777-11946f0fb87c 15003 127.0.0.1 15004 
Nov 27 16:22:34.010 HYPERVISOR: exec_cmd: vm slot_add_nio_binding Core 1 1 udp-11af1ca7-ca6f-45b8-a777-11946f0fb87c 
Nov 27 16:22:34.011 HYPERVISOR: exec_cmd: vm get_status Core 
Nov 27 16:22:34.118 HYPERVISOR: exec_cmd: nio create_udp udp-004f3f4b-a0d8-4a8a-9395-09b0c5d63e98 15013 127.0.0.1 15010 
Nov 27 16:22:34.119 HYPERVISOR: exec_cmd: vm slot_add_nio_binding Core 1 0 udp-004f3f4b-a0d8-4a8a-9395-09b0c5d63e98 
Nov 27 16:22:34.119 HYPERVISOR: exec_cmd: vm get_status Core 
Nov 27 16:22:46.945 HYPERVISOR: exec_cmd: vm get_status Core 
Nov 27 16:22:46.946 HYPERVISOR: exec_cmd: vm extract_config Core 
Nov 27 16:22:46.948 HYPERVISOR: exec_cmd: vm delete Core 
Nov 27 16:22:46.948 VM: VM Core destroyed.
Nov 27 16:22:46.950 HYPERVISOR: exec_cmd: hypervisor stop 
Nov 27 16:22:47.237 HYPERVISOR: Stopped.
Nov 27 16:22:47.237 GENERAL: reset done.
