Nov 29 19:01:27.160 HYPERVISOR: Release 0.2.17-amd64/Linux (tag 2017072410)
Nov 29 19:01:27.160 HYPERVISOR: Started on IP = 127.0.0.1, TCP port = 60051.
Nov 29 19:01:27.174 HYPERVISOR: exec_cmd: hypervisor version 
Nov 29 19:01:27.175 HYPERVISOR: exec_cmd: hypervisor working_dir /media/actionmystique/SAMSUNG5-VMs/Labs/GNS3/git-Public-Labs-Collection/CCNP/TBSHOOT/L3-Technologies/IPv6/IOS-Filtering-Tools/ACL/Jean-Christophe_Manciot/1+/TT 2-solutions-linux/project-files/dynamips 
Nov 29 19:01:27.175 GENERAL: working_dir=/media/actionmystique/SAMSUNG5-VMs/Labs/GNS3/git-Public-Labs-Collection/CCNP/TBSHOOT/L3-Technologies/IPv6/IOS-Filtering-Tools/ACL/Jean-Christophe_Manciot/1+/TT 2-solutions-linux/project-files/dynamips
Nov 29 19:01:27.175 HYPERVISOR: exec_cmd: vm create ESW2 2 c3725 
Nov 29 19:01:27.175 VM: VM ESW2 created.
Nov 29 19:01:27.175 HYPERVISOR: exec_cmd: vm set_con_tcp_port ESW2 2002 
Nov 29 19:01:27.176 HYPERVISOR: exec_cmd: vm set_aux_tcp_port ESW2 2502 
Nov 29 19:01:27.176 HYPERVISOR: exec_cmd: c3725 get_mac_addr ESW2 
Nov 29 19:01:27.176 HYPERVISOR: exec_cmd: vm slot_add_binding ESW2 0 16 WIC-2T 
Nov 29 19:01:27.177 HYPERVISOR: exec_cmd: vm set_ios ESW2 /media/actionmystique/SAMSUNG5-VMs/Images/GNS3/IOS/c3725-adventerprisek9-mz.124-15.T10.image 
Nov 29 19:01:27.177 HYPERVISOR: exec_cmd: vm get_status ESW2 
Nov 29 19:01:27.177 HYPERVISOR: exec_cmd: vm set_idle_pc ESW2 0x60c05928 
Nov 29 19:01:27.178 HYPERVISOR: exec_cmd: vm get_status ESW2 
Nov 29 19:01:27.178 HYPERVISOR: exec_cmd: vm slot_add_binding ESW2 1 0 NM-16ESW 
Nov 29 19:01:27.178 HYPERVISOR: exec_cmd: c3725 set_mac_addr ESW2 c202.28c2.0000 
Nov 29 19:01:27.179 HYPERVISOR: exec_cmd: vm set_disk0 ESW2 1 
Nov 29 19:01:27.179 HYPERVISOR: exec_cmd: vm set_nvram ESW2 256 
Nov 29 19:01:27.180 HYPERVISOR: exec_cmd: vm set_config ESW2 configs/i2_startup-config.cfg 
Nov 29 19:01:27.180 HYPERVISOR: exec_cmd: vm set_config ESW2 configs/i2_startup-config.cfg configs/i2_private-config.cfg 
Nov 29 19:01:27.249 HYPERVISOR: exec_cmd: nio create_tap tap-55fd2559-ea01-45ef-b2a4-afcbdb54a554 tap2 
Nov 29 19:01:27.250 HYPERVISOR: exec_cmd: vm slot_add_nio_binding ESW2 1 1 tap-55fd2559-ea01-45ef-b2a4-afcbdb54a554 
Nov 29 19:01:27.251 HYPERVISOR: exec_cmd: vm get_status ESW2 
Nov 29 19:01:27.353 HYPERVISOR: exec_cmd: nio create_udp udp-c9ea33cb-e058-45c2-90b3-d6fca31239a3 15011 127.0.0.1 15010 
Nov 29 19:01:27.353 HYPERVISOR: exec_cmd: vm slot_add_nio_binding ESW2 1 2 udp-c9ea33cb-e058-45c2-90b3-d6fca31239a3 
Nov 29 19:01:27.354 HYPERVISOR: exec_cmd: vm get_status ESW2 
