Nov 28 08:11:25.005 HYPERVISOR: Release 0.2.17-amd64/Linux (tag 2017072410)
Nov 28 08:11:25.005 HYPERVISOR: Started on IP = 127.0.0.1, TCP port = 39501.
Nov 28 08:11:25.010 HYPERVISOR: exec_cmd: hypervisor version 
Nov 28 08:11:25.010 HYPERVISOR: exec_cmd: hypervisor working_dir /media/actionmystique/SAMSUNG5-VMs/Labs/GNS3/git-Public-Labs-Collection/CCNP/TBSHOOT/L3-Technologies/IPv4/IOS-Filtering-Tools/Prefix-List/Jean-Christophe_Manciot/1+/TT 1-linux-/project-files/dynamips 
Nov 28 08:11:25.010 GENERAL: working_dir=/media/actionmystique/SAMSUNG5-VMs/Labs/GNS3/git-Public-Labs-Collection/CCNP/TBSHOOT/L3-Technologies/IPv4/IOS-Filtering-Tools/Prefix-List/Jean-Christophe_Manciot/1+/TT 1-linux-/project-files/dynamips
Nov 28 08:11:25.010 HYPERVISOR: exec_cmd: vm create ESW2 2 c3725 
Nov 28 08:11:25.011 VM: VM ESW2 created.
Nov 28 08:11:25.011 HYPERVISOR: exec_cmd: vm set_con_tcp_port ESW2 2004 
Nov 28 08:11:25.011 HYPERVISOR: exec_cmd: c3725 get_mac_addr ESW2 
Nov 28 08:11:25.011 HYPERVISOR: exec_cmd: vm set_disk0 ESW2 1 
Nov 28 08:11:25.012 HYPERVISOR: exec_cmd: vm get_status ESW2 
Nov 28 08:11:25.012 HYPERVISOR: exec_cmd: vm slot_add_binding ESW2 1 0 NM-16ESW 
Nov 28 08:11:25.012 HYPERVISOR: exec_cmd: vm set_ios ESW2 /media/actionmystique/SAMSUNG5-VMs/Images/GNS3/IOS/c3725-adventerprisek9-mz.124-15.T10.image 
Nov 28 08:11:25.013 HYPERVISOR: exec_cmd: c3725 set_mac_addr ESW2 c202.447a.0000 
Nov 28 08:11:25.013 HYPERVISOR: exec_cmd: vm slot_add_binding ESW2 0 16 WIC-2T 
Nov 28 08:11:25.014 HYPERVISOR: exec_cmd: vm get_status ESW2 
Nov 28 08:11:25.014 HYPERVISOR: exec_cmd: vm set_idle_pc ESW2 0x614ac27c 
Nov 28 08:11:25.014 HYPERVISOR: exec_cmd: vm set_nvram ESW2 256 
Nov 28 08:11:25.015 HYPERVISOR: exec_cmd: vm set_config ESW2 configs/ios_base_startup-config.txt 
Nov 28 08:11:25.015 HYPERVISOR: exec_cmd: vm set_config ESW2 configs/ios_base_startup-config.txt configs/ios_base_private-config.txt 
Nov 28 08:11:25.243 HYPERVISOR: exec_cmd: nio create_udp udp-8e28ee9d-11f0-4931-a62b-2f44358d43e3 15011 127.0.0.1 15010 
Nov 28 08:11:25.243 HYPERVISOR: exec_cmd: vm slot_add_nio_binding ESW2 1 0 udp-8e28ee9d-11f0-4931-a62b-2f44358d43e3 
Nov 28 08:11:25.244 HYPERVISOR: exec_cmd: vm get_status ESW2 
Nov 28 08:11:45.308 HYPERVISOR: exec_cmd: vm get_status ESW2 
Nov 28 08:11:45.310 HYPERVISOR: exec_cmd: vm extract_config ESW2 
Nov 28 08:11:45.311 HYPERVISOR: exec_cmd: vm delete ESW2 
Nov 28 08:11:45.311 VM: VM ESW2 destroyed.
Nov 28 08:11:45.313 HYPERVISOR: exec_cmd: hypervisor stop 
Nov 28 08:11:45.524 HYPERVISOR: Stopped.
Nov 28 08:11:45.524 GENERAL: reset done.
