autostart = False
version = 0.8.2
[127.0.0.1:7200]
    workingdir = C:\Users\ActionMystique\Documents\Missions\GNS3\Temp
    udp = 10000
    [[3725]]
        image = C:\Users\ActionMystique\Documents\Missions\IOS\Binaries\c3725-adventerprisek9-mz.124-15.T5.image
        ram = 128
        idlepc = 0x60bbf000
        sparsemem = True
        ghostios = True
    [[ROUTER R1]]
        model = 3725
        console = 2006
        aux = 2106
        wic0/0 = WIC-2T
        wic0/1 = WIC-2T
        wic0/2 = WIC-2T
        s0/0 = R2 s0/0
        slot1 = NM-1FE-TX
        slot2 = NM-1FE-TX
        x = -274.0
        y = 60.0
        z = 1.0
    [[ROUTER R2]]
        model = 3725
        console = 2007
        aux = 2107
        wic0/0 = WIC-2T
        wic0/1 = WIC-2T
        wic0/2 = WIC-2T
        s0/0 = R1 s0/0
        s0/1 = R3 s0/1
        slot1 = NM-1FE-TX
        slot2 = NM-1FE-TX
        x = -28.0
        y = -359.0
        z = 1.0
    [[ROUTER R3]]
        model = 3725
        console = 2008
        aux = 2108
        wic0/0 = WIC-2T
        wic0/1 = WIC-2T
        wic0/2 = WIC-2T
        s0/1 = R2 s0/1
        slot1 = NM-1FE-TX
        slot2 = NM-1FE-TX
        x = 228.0
        y = 56.0
        z = 1.0
[GNS3-DATA]
    configs = configs
    width = 5000
    height = 2500
    [[NOTE 1]]
        text = 10.1.12.0/24\nArea 0
        x = -231.0
        y = -175.5
    [[NOTE 2]]
        text = s0/1\n.3
        x = 237.0
        y = -14.5
    [[NOTE 3]]
        text = s0/0\nDCE\n.1
        x = -258.0
        y = -25.5
    [[NOTE 4]]
        text = s0/1\nDCE\n.2
        x = 51.0
        y = -334.5
    [[NOTE 5]]
        text = 10.1.23.0/24\nArea 23\nNSSA
        x = 155.0
        y = -185.5
    [[NOTE 6]]
        text = lo3: 10.1.3.1/24
        x = 201.0
        y = 124.5
    [[NOTE 7]]
        text = s0/0\n.2
        x = -69.0
        y = -322.5
    [[NOTE 8]]
        text = Lo1: 10.1.1.1/24
        x = -310.0
        y = 127.5
    [[NOTE 9]]
        text = lo2: 10.1.2.1/24
        x = -180.0
        y = -351.5
    [[SHAPE 1]]
        type = ellipse
        x = 247.0
        y = 95.0
        width = 29.0
        height = 21.0
        border_style = 2
        z = -2.0
    [[SHAPE 2]]
        type = ellipse
        x = -259.0
        y = 100.0
        width = 30.0
        height = 21.0
        border_style = 2
        z = -2.0
    [[SHAPE 3]]
        type = ellipse
        x = -56.0
        y = -348.0
        width = 30.0
        height = 21.0
        border_style = 2
        z = -2.0
