Nov 28 08:13:41.119 HYPERVISOR: Release 0.2.17-amd64/Linux (tag 2017072410)
Nov 28 08:13:41.119 HYPERVISOR: Started on IP = 127.0.0.1, TCP port = 40291.
Nov 28 08:13:41.134 HYPERVISOR: exec_cmd: hypervisor version 
Nov 28 08:13:41.135 HYPERVISOR: exec_cmd: hypervisor working_dir /media/actionmystique/SAMSUNG5-VMs/Labs/GNS3/git-Public-Labs-Collection/CCNP/TBSHOOT/L3-Technologies/IPv4/PBR/Jean-Christophe_Manciot/1+/TT 2-linux/project-files/dynamips 
Nov 28 08:13:41.135 GENERAL: working_dir=/media/actionmystique/SAMSUNG5-VMs/Labs/GNS3/git-Public-Labs-Collection/CCNP/TBSHOOT/L3-Technologies/IPv4/PBR/Jean-Christophe_Manciot/1+/TT 2-linux/project-files/dynamips
Nov 28 08:13:41.136 HYPERVISOR: exec_cmd: vm create ESW3 3 c3725 
Nov 28 08:13:41.136 VM: VM ESW3 created.
Nov 28 08:13:41.137 HYPERVISOR: exec_cmd: vm set_con_tcp_port ESW3 2006 
Nov 28 08:13:41.138 HYPERVISOR: exec_cmd: c3725 get_mac_addr ESW3 
Nov 28 08:13:41.138 HYPERVISOR: exec_cmd: vm set_disk0 ESW3 1 
Nov 28 08:13:41.139 HYPERVISOR: exec_cmd: vm get_status ESW3 
Nov 28 08:13:41.140 HYPERVISOR: exec_cmd: vm slot_add_binding ESW3 1 0 NM-16ESW 
Nov 28 08:13:41.142 HYPERVISOR: exec_cmd: vm set_ios ESW3 /media/actionmystique/SAMSUNG5-VMs/Images/GNS3/IOS/c3725-adventerprisek9-mz.124-15.T10.image 
Nov 28 08:13:41.143 HYPERVISOR: exec_cmd: c3725 set_mac_addr ESW3 c203.1bfb.0000 
Nov 28 08:13:41.144 HYPERVISOR: exec_cmd: vm slot_add_binding ESW3 0 16 WIC-2T 
Nov 28 08:13:41.146 HYPERVISOR: exec_cmd: vm get_status ESW3 
Nov 28 08:13:41.148 HYPERVISOR: exec_cmd: vm set_idle_pc ESW3 0x614ac27c 
Nov 28 08:13:41.151 HYPERVISOR: exec_cmd: vm set_nvram ESW3 256 
Nov 28 08:13:41.152 HYPERVISOR: exec_cmd: vm set_config ESW3 configs/ios_base_startup-config.txt 
Nov 28 08:13:41.154 HYPERVISOR: exec_cmd: vm set_config ESW3 configs/ios_base_startup-config.txt configs/ios_base_private-config.txt 
Nov 28 08:13:41.427 HYPERVISOR: exec_cmd: nio create_udp udp-cc57f6e0-e88a-44cf-adb7-8f8b27f30737 15015 127.0.0.1 15014 
Nov 28 08:13:41.428 HYPERVISOR: exec_cmd: vm slot_add_nio_binding ESW3 1 0 udp-cc57f6e0-e88a-44cf-adb7-8f8b27f30737 
Nov 28 08:13:41.428 HYPERVISOR: exec_cmd: vm get_status ESW3 
Nov 28 08:13:49.227 HYPERVISOR: exec_cmd: nio create_tap tap-a97b9cc4-70cd-4157-9893-5943445536d0 tap0 
Nov 28 08:13:49.227 HYPERVISOR: exec_cmd: vm slot_add_nio_binding ESW3 1 1 tap-a97b9cc4-70cd-4157-9893-5943445536d0 
Nov 28 08:13:49.228 HYPERVISOR: exec_cmd: vm get_status ESW3 
