Nov 29 19:08:08.230 HYPERVISOR: Release 0.2.17-amd64/Linux (tag 2017072410)
Nov 29 19:08:08.230 HYPERVISOR: Started on IP = 127.0.0.1, TCP port = 35491.
Nov 29 19:08:08.245 HYPERVISOR: exec_cmd: hypervisor version 
Nov 29 19:08:08.248 HYPERVISOR: exec_cmd: hypervisor working_dir /media/actionmystique/SAMSUNG5-VMs/Labs/GNS3/git-Public-Labs-Collection/CCNP/TBSHOOT/L3-Technologies/IPv6/Routing-Protocols/EIGRPv6/Jean-Christophe_Manciot/1+/TT 2-linux/project-files/dynamips 
Nov 29 19:08:08.248 GENERAL: working_dir=/media/actionmystique/SAMSUNG5-VMs/Labs/GNS3/git-Public-Labs-Collection/CCNP/TBSHOOT/L3-Technologies/IPv6/Routing-Protocols/EIGRPv6/Jean-Christophe_Manciot/1+/TT 2-linux/project-files/dynamips
Nov 29 19:08:08.249 HYPERVISOR: exec_cmd: vm create ESW5 5 c3725 
Nov 29 19:08:08.250 VM: VM ESW5 created.
Nov 29 19:08:08.252 HYPERVISOR: exec_cmd: vm set_con_tcp_port ESW5 2010 
Nov 29 19:08:08.252 HYPERVISOR: exec_cmd: c3725 get_mac_addr ESW5 
Nov 29 19:08:08.253 HYPERVISOR: exec_cmd: vm set_disk0 ESW5 1 
Nov 29 19:08:08.254 HYPERVISOR: exec_cmd: c3725 set_mac_addr ESW5 c205.6a03.0000 
Nov 29 19:08:08.255 HYPERVISOR: exec_cmd: vm get_status ESW5 
Nov 29 19:08:08.257 HYPERVISOR: exec_cmd: vm set_idle_pc ESW5 0x614ac27c 
Nov 29 19:08:08.258 HYPERVISOR: exec_cmd: vm get_status ESW5 
Nov 29 19:08:08.258 HYPERVISOR: exec_cmd: vm slot_add_binding ESW5 1 0 NM-16ESW 
Nov 29 19:08:08.259 HYPERVISOR: exec_cmd: vm slot_add_binding ESW5 0 16 WIC-2T 
Nov 29 19:08:08.261 HYPERVISOR: exec_cmd: vm set_ios ESW5 /media/actionmystique/SAMSUNG5-VMs/Images/GNS3/IOS/c3725-adventerprisek9-mz.124-15.T10.image 
Nov 29 19:08:08.263 HYPERVISOR: exec_cmd: vm set_nvram ESW5 256 
Nov 29 19:08:08.264 HYPERVISOR: exec_cmd: vm set_config ESW5 configs/ios_base_startup-config.txt 
Nov 29 19:08:08.266 HYPERVISOR: exec_cmd: vm set_config ESW5 configs/ios_base_startup-config.txt configs/ios_base_private-config.txt 
Nov 29 19:08:08.564 HYPERVISOR: exec_cmd: nio create_udp udp-f1c16169-e428-406b-83a9-f32e630a9eb9 15009 127.0.0.1 15008 
Nov 29 19:08:08.565 HYPERVISOR: exec_cmd: vm slot_add_nio_binding ESW5 1 0 udp-f1c16169-e428-406b-83a9-f32e630a9eb9 
Nov 29 19:08:08.565 HYPERVISOR: exec_cmd: vm get_status ESW5 
Nov 29 19:08:08.571 HYPERVISOR: exec_cmd: nio create_udp udp-22495fa7-7a45-4138-a594-720e0da36f0b 15010 127.0.0.1 15012 
Nov 29 19:08:08.572 HYPERVISOR: exec_cmd: vm slot_add_nio_binding ESW5 1 1 udp-22495fa7-7a45-4138-a594-720e0da36f0b 
Nov 29 19:08:08.572 HYPERVISOR: exec_cmd: vm get_status ESW5 
