Nov 29 19:05:20.785 HYPERVISOR: Release 0.2.17-amd64/Linux (tag 2017072410)
Nov 29 19:05:20.785 HYPERVISOR: Started on IP = 127.0.0.1, TCP port = 39463.
Nov 29 19:05:20.803 HYPERVISOR: exec_cmd: hypervisor version 
Nov 29 19:05:20.804 HYPERVISOR: exec_cmd: hypervisor working_dir /media/actionmystique/SAMSUNG5-VMs/Labs/GNS3/git-Public-Labs-Collection/CCNP/TBSHOOT/L3-Technologies/IPv6/Routing-Protocols/EIGRPv6/Jean-Christophe_Manciot/1+/TT 2-linux/project-files/dynamips 
Nov 29 19:05:20.804 GENERAL: working_dir=/media/actionmystique/SAMSUNG5-VMs/Labs/GNS3/git-Public-Labs-Collection/CCNP/TBSHOOT/L3-Technologies/IPv6/Routing-Protocols/EIGRPv6/Jean-Christophe_Manciot/1+/TT 2-linux/project-files/dynamips
Nov 29 19:05:20.805 HYPERVISOR: exec_cmd: vm create ESW5 5 c3725 
Nov 29 19:05:20.805 VM: VM ESW5 created.
Nov 29 19:05:20.806 HYPERVISOR: exec_cmd: vm set_con_tcp_port ESW5 2010 
Nov 29 19:05:20.808 HYPERVISOR: exec_cmd: c3725 get_mac_addr ESW5 
Nov 29 19:05:20.815 HYPERVISOR: exec_cmd: vm set_disk0 ESW5 1 
Nov 29 19:05:20.818 HYPERVISOR: exec_cmd: vm set_ios ESW5 /media/actionmystique/SAMSUNG5-VMs/Images/GNS3/IOS/c3725-adventerprisek9-mz.124-15.T10.image 
Nov 29 19:05:20.819 HYPERVISOR: exec_cmd: c3725 set_mac_addr ESW5 c205.6a03.0000 
Nov 29 19:05:20.821 HYPERVISOR: exec_cmd: vm get_status ESW5 
Nov 29 19:05:20.822 HYPERVISOR: exec_cmd: vm slot_add_binding ESW5 1 0 NM-16ESW 
Nov 29 19:05:20.823 HYPERVISOR: exec_cmd: vm slot_add_binding ESW5 0 16 WIC-2T 
Nov 29 19:05:20.823 HYPERVISOR: exec_cmd: vm get_status ESW5 
Nov 29 19:05:20.824 HYPERVISOR: exec_cmd: vm set_idle_pc ESW5 0x614ac27c 
Nov 29 19:05:20.825 HYPERVISOR: exec_cmd: vm set_nvram ESW5 256 
Nov 29 19:05:20.827 HYPERVISOR: exec_cmd: vm set_config ESW5 configs/ios_base_startup-config.txt 
Nov 29 19:05:56.629 HYPERVISOR: exec_cmd: vm get_status ESW5 
Nov 29 19:05:56.632 HYPERVISOR: exec_cmd: vm extract_config ESW5 
Nov 29 19:05:56.635 HYPERVISOR: exec_cmd: vm delete ESW5 
Nov 29 19:05:56.635 VM: VM ESW5 destroyed.
Nov 29 19:05:56.637 HYPERVISOR: exec_cmd: hypervisor stop 
Nov 29 19:05:56.838 HYPERVISOR: Stopped.
Nov 29 19:05:56.838 GENERAL: reset done.
