Nov 27 16:21:15.687 HYPERVISOR: Release 0.2.17-amd64/Linux (tag 2017072410)
Nov 27 16:21:15.687 HYPERVISOR: Started on IP = 127.0.0.1, TCP port = 45269.
Nov 27 16:21:15.696 HYPERVISOR: exec_cmd: hypervisor version 
Nov 27 16:21:15.696 HYPERVISOR: exec_cmd: hypervisor working_dir /media/actionmystique/SAMSUNG5-VMs/Labs/GNS3/git-Public-Labs-Collection/CCNP/TBSHOOT/L3-Technologies/IPv4/High-Availability/HSRP/Jean-Christophe_Manciot/1+/TT 2-linux/project-files/dynamips 
Nov 27 16:21:15.696 GENERAL: working_dir=/media/actionmystique/SAMSUNG5-VMs/Labs/GNS3/git-Public-Labs-Collection/CCNP/TBSHOOT/L3-Technologies/IPv4/High-Availability/HSRP/Jean-Christophe_Manciot/1+/TT 2-linux/project-files/dynamips
Nov 27 16:21:15.697 HYPERVISOR: exec_cmd: vm create SW2 2 c3725 
Nov 27 16:21:15.697 VM: VM SW2 created.
Nov 27 16:21:15.697 HYPERVISOR: exec_cmd: vm set_con_tcp_port SW2 2002 
Nov 27 16:21:15.697 HYPERVISOR: exec_cmd: c3725 get_mac_addr SW2 
Nov 27 16:21:15.698 HYPERVISOR: exec_cmd: vm set_nvram SW2 256 
Nov 27 16:21:15.698 HYPERVISOR: exec_cmd: vm get_status SW2 
Nov 27 16:21:15.698 HYPERVISOR: exec_cmd: vm set_idle_pc SW2 0x614ac21c 
Nov 27 16:21:15.699 HYPERVISOR: exec_cmd: c3725 set_mac_addr SW2 eeee.eeee.eeee 
Nov 27 16:21:15.699 HYPERVISOR: exec_cmd: vm set_exec_area SW2 16 
Nov 27 16:21:15.699 HYPERVISOR: exec_cmd: vm get_status SW2 
Nov 27 16:21:15.700 HYPERVISOR: exec_cmd: vm slot_add_binding SW2 1 0 NM-16ESW 
Nov 27 16:21:15.700 HYPERVISOR: exec_cmd: vm set_ios SW2 /media/actionmystique/SAMSUNG5-VMs/Images/GNS3/IOS/c3725-adventerprisek9-mz.124-15.T10.image 
Nov 27 16:21:15.701 HYPERVISOR: exec_cmd: vm slot_add_binding SW2 0 16 WIC-2T 
Nov 27 16:21:15.701 HYPERVISOR: exec_cmd: vm set_disk0 SW2 1 
Nov 27 16:21:15.701 HYPERVISOR: exec_cmd: vm set_config SW2 configs/i2_startup-config.cfg 
Nov 27 16:21:15.702 HYPERVISOR: exec_cmd: vm set_config SW2 configs/i2_startup-config.cfg configs/i2_private-config.cfg 
Nov 27 16:21:15.853 HYPERVISOR: exec_cmd: nio create_udp udp-5a67e26c-56d4-452a-b9b6-d669e00bc2e5 15003 127.0.0.1 15002 
Nov 27 16:21:15.853 HYPERVISOR: exec_cmd: vm slot_add_nio_binding SW2 1 2 udp-5a67e26c-56d4-452a-b9b6-d669e00bc2e5 
Nov 27 16:21:15.854 HYPERVISOR: exec_cmd: vm get_status SW2 
Nov 27 16:21:15.891 HYPERVISOR: exec_cmd: nio create_udp udp-ac1f9b58-f9a2-4282-8579-bc07623616d9 15005 127.0.0.1 15001 
Nov 27 16:21:15.897 HYPERVISOR: exec_cmd: vm slot_add_nio_binding SW2 1 0 udp-ac1f9b58-f9a2-4282-8579-bc07623616d9 
Nov 27 16:21:15.898 HYPERVISOR: exec_cmd: vm get_status SW2 
Nov 27 16:21:15.933 HYPERVISOR: exec_cmd: nio create_udp udp-23774f71-f42b-4f51-9f77-75b27f975d79 15006 127.0.0.1 15007 
Nov 27 16:21:15.936 HYPERVISOR: exec_cmd: vm slot_add_nio_binding SW2 1 1 udp-23774f71-f42b-4f51-9f77-75b27f975d79 
Nov 27 16:21:15.937 HYPERVISOR: exec_cmd: vm get_status SW2 
