autostart = False
version = 0.8.5
[127.0.0.1:7203]
    workingdir = C:\Users\ActionMystique\AppData\Local\GNS3
    udp = 10200
    [[7200]]
        image = C:\Users\ActionMystique\Google Drive\Missions\Certifications\Cisco\IOS\Binaries\c7200-adventerprisek9-mz.152-4.S.image
        ram = 512
        idlepc = 0x62a29de4
        sparsemem = True
        ghostios = True
    [[ROUTER R5]]
        console = 2003
        aux = 2150
        cnfg = configs\R5.cfg
        slot0 = C7200-IO-GE-E
        slot1 = PA-8T
        s1/0 = FrameRelay 5
        x = -104.91883092
        y = 279.757359313
        z = 1.0
    [[ROUTER WAN2]]
        console = 2005
        aux = 2105
        cnfg = configs\WAN2.cfg
        slot0 = C7200-IO-GE-E
        g0/0 = WAN1 g0/0
        slot1 = PA-8T
        s1/0 = FrameRelay 2
        slot2 = PA-2FE-TX
        f2/0 = SW2 f1/1
        f2/1 = SW1 f2/0
        x = -23.0904037955
        y = 129.343145751
        z = 1.0
[127.0.0.1:7200]
    workingdir = C:\Users\ActionMystique\AppData\Local\GNS3
    udp = 10000
    [[7200]]
        image = C:\Users\ActionMystique\Google Drive\Missions\Certifications\Cisco\IOS\Binaries\c7200-adventerprisek9-mz.152-4.S.image
        ram = 512
        idlepc = 0x62a29de4
        sparsemem = True
    [[3725]]
        image = C:\Users\ActionMystique\Google Drive\Missions\Certifications\Cisco\IOS\Binaries\c3725-adventerprisek9-mz.124-15.T5.image
        ram = 128
        idlepc = 0x602649b4
        sparsemem = True
        ghostios = True
    [[ROUTER WAN1]]
        console = 2000
        aux = 2100
        cnfg = configs\WAN1.cfg
        slot0 = C7200-IO-GE-E
        g0/0 = WAN2 g0/0
        slot1 = PA-8T
        s1/0 = FrameRelay 1
        slot2 = PA-2FE-TX
        f2/0 = SW1 f1/1
        f2/1 = SW2 f2/0
        x = -24.0904037955
        y = -169.656854249
        z = 1.0
    [[FRSW FrameRelay]]
        1:103 = 3:301
        1:104 = 4:401
        1:105 = 5:501
        2:203 = 3:302
        2:204 = 4:402
        2:205 = 5:502
        3:301 = 1:103
        3:302 = 2:203
        4:401 = 1:104
        4:402 = 2:204
        5:501 = 1:105
        5:502 = 2:205
        1 = WAN1 s1/0
        2 = WAN2 s1/0
        3 = R3 s1/0
        4 = R4 s1/0
        5 = R5 s1/0
        x = -207.590403796
        y = -28.1568542495
        z = 1.0
    [[ROUTER SW1]]
        model = 3725
        console = 2006
        aux = 2106
        cnfg = configs\SW1.cfg
        f0/1 = SW2 f0/1
        slot1 = NM-16ESW
        f1/1 = WAN1 f2/0
        f1/2 = R6 f0/0
        f1/3 = R7 f0/0
        slot2 = NM-1FE-TX
        f2/0 = WAN2 f2/1
        symbol = EtherSwitch router
        x = 212.409596204
        y = -177.156854249
        z = 1.0
    [[ROUTER SW2]]
        model = 3725
        console = 2008
        aux = 2108
        cnfg = configs\SW2.cfg
        f0/1 = SW1 f0/1
        slot1 = NM-16ESW
        f1/1 = WAN2 f2/0
        f1/2 = R7 f0/1
        f1/3 = R8 f0/0
        slot2 = NM-1FE-TX
        f2/0 = WAN1 f2/1
        symbol = EtherSwitch router
        x = 212.409596204
        y = 125.843145751
        z = 1.0
        hx = 2.75735931288
        hy = 45.7106781186
[127.0.0.1:7201]
    workingdir = C:\Users\ActionMystique\AppData\Local\GNS3
    udp = 10100
    [[7200]]
        image = C:\Users\ActionMystique\Google Drive\Missions\Certifications\Cisco\IOS\Binaries\c7200-adventerprisek9-mz.152-4.S.image
        ram = 512
        idlepc = 0x62a29de4
        sparsemem = True
        ghostios = True
    [[ROUTER R4]]
        console = 2002
        aux = 2103
        cnfg = configs\R4.cfg
        slot0 = C7200-IO-GE-E
        slot1 = PA-8T
        s1/0 = FrameRelay 4
        x = -446.036579927
        y = 126.350288426
        z = 1.0
    [[ROUTER R3]]
        console = 2001
        aux = 2130
        cnfg = configs\R3.cfg
        slot0 = C7200-IO-GE-E
        slot1 = PA-8T
        s1/0 = FrameRelay 3
        x = -452.107647739
        y = -160.627416997
        z = 1.0
[127.0.0.1:7204]
    workingdir = C:\Users\ActionMystique\AppData\Local\GNS3
    udp = 10400
    [[7200]]
        image = C:\Users\ActionMystique\Google Drive\Missions\Certifications\Cisco\IOS\Binaries\c7200-adventerprisek9-mz.152-4.S.image
        ram = 512
        idlepc = 0x62a29de4
        sparsemem = True
        ghostios = True
    [[ROUTER R6]]
        console = 2010
        aux = 2510
        cnfg = configs\R6.cfg
        slot0 = C7200-IO-2FE
        f0/0 = SW1 f1/2
        slot1 = PA-2FE-TX
        slot2 = PA-2FE-TX
        slot3 = PA-2FE-TX
        x = 297.925973595
        y = -245.445742855
        z = 1.0
    [[ROUTER R7]]
        console = 2011
        aux = 2511
        cnfg = configs\R7.cfg
        slot0 = C7200-IO-2FE
        f0/0 = SW1 f1/3
        f0/1 = SW2 f1/2
        slot1 = PA-2FE-TX
        slot2 = PA-2FE-TX
        slot3 = PA-2FE-TX
        f3/1 = R8 f1/0
        x = 309.239682094
        y = -3.61522368916
        z = 1.0
        hx = 33.2279220613
        hy = 40.0538238691
[127.0.0.1:7205]
    workingdir = C:\Users\ActionMystique\AppData\Local\GNS3
    udp = 10500
    [[7200]]
        image = C:\Users\ActionMystique\Google Drive\Missions\Certifications\Cisco\IOS\Binaries\c7200-adventerprisek9-mz.152-4.S.image
        ram = 512
        idlepc = 0x62a29de4
        sparsemem = True
        ghostios = True
    [[ROUTER R8]]
        console = 2012
        aux = 2512
        cnfg = configs\R8.cfg
        slot0 = C7200-IO-2FE
        f0/0 = SW2 f1/3
        slot1 = PA-2FE-TX
        f1/0 = R7 f3/1
        x = 546.827560573
        y = 120.8355698
        z = 1.0
[GNS3-DATA]
    configs = configs
    m11 = 0.707106781187
    m22 = 0.707106781187
    [[NOTE 1]]
        text = "301"
        x = -309.341666454
        y = -103.870057685
    [[NOTE 2]]
        text = "34.0/24 + * ---"
        x = 415.778787337
        y = -271.605122421
    [[NOTE 3]]
        text = "10.16.64.0/19"
        x = 371.938166904
        y = -90.585786438
    [[NOTE 4]]
        text = "16.2/29"
        x = -71.1909088591
        y = 168.112698373
    [[NOTE 5]]
        text = "---"
        x = 403.050865277
        y = -62.5025253169
    [[NOTE 6]]
        text = "402"
        x = -297.249783362
        y = 74.8319984622
    [[NOTE 7]]
        text = "EIGRP"
        x = 380.423448278
        y = -381.712770159
        font = "MS Shell Dlg 2,14,-1,5,75,0,0,0,0,0"
    [[NOTE 8]]
        text = "|"
        x = 397.394011027
        y = -3.91673887934
    [[NOTE 9]]
        text = "36.0/26 -"
        x = 415.778787337
        y = -211.605122421
    [[NOTE 10]]
        text = "36.136/27"
        x = 303.12489168
        y = -207.159379566
    [[NOTE 11]]
        text = "105"
        x = -124.090403796
        y = -60.6568542495
    [[NOTE 12]]
        text = "95.88/25"
        x = 491.215295476
        y = 151.246824769
    [[NOTE 13]]
        text = "73.137/26"
        x = 255.04163056
        y = -115.235498012
    [[NOTE 14]]
        text = "--- Filtered in AS 65507 with Route-map"
        x = 615.182899632
        y = -85.9411254968
        font = "MS Shell Dlg 2,12,-1,5,75,0,0,0,0,0"
    [[NOTE 15]]
        text = "104"
        x = -126.090403796
        y = -79.6568542495
    [[NOTE 16]]
        text = "---------------------"
        x = 606.697618258
        y = 129.421356237
    [[NOTE 17]]
        text = "---"
        x = 397.394011027
        y = -210.190908859
    [[NOTE 18]]
        text = "64.0/23 -"
        x = 422.84985515
        y = -61.0883117546
    [[NOTE 19]]
        text = "---"
        x = 397.394011027
        y = -190.190908859
    [[NOTE 20]]
        text = "---"
        x = 397.394011027
        y = -290.190908859
    [[NOTE 21]]
        text = "INTERNET"
        x = 759.432682994
        y = 130.8355698
        font = "MS Shell Dlg 2,14,-1,5,75,0,0,0,0,0"
    [[NOTE 22]]
        text = "MD5 Authentication"
        x = -340.825468532
        y = -289.185858225
    [[NOTE 23]]
        text = "36.137/27"
        x = 260.698484809
        y = -175.845671067
    [[NOTE 24]]
        text = "13.2/29"
        x = -77.0904037955
        y = 102.343145751
    [[NOTE 25]]
        text = "103"
        x = -126.090403796
        y = -96.6568542495
    [[NOTE 26]]
        text = "|"
        x = -129.91883092
        y = 291.257359313
    [[NOTE 27]]
        text = "|"
        x = 391.737156777
        y = -188.776695297
    [[NOTE 28]]
        text = "Default route injected in all AS\n(Static or default-network)"
        x = 608.11183182
        y = 27.5979797464
        font = "MS Shell Dlg 2,12,-1,5,75,0,0,0,0,0"
    [[NOTE 29]]
        text = "---"
        x = -125.333044483
        y = 291.585786438
    [[NOTE 30]]
        text = "203"
        x = -105.090403796
        y = 36.3431457505
    [[NOTE 31]]
        text = "12.1/24"
        x = -6.1198410475
        y = -100.485281374
    [[NOTE 32]]
        text = "17.7/24"
        x = 151.804040507
        y = -178.272077938
    [[NOTE 33]]
        text = "|"
        x = 622.253967444
        y = 106.391918986
    [[NOTE 34]]
        text = "|"
        x = 622.253967444
        y = 66.3919189858
    [[NOTE 35]]
        text = "12.2/24"
        x = -3.1198410475
        y = 80.5147186258
    [[NOTE 36]]
        text = "5.5/27"
        x = -150.161471607
        y = 306.192388156
    [[NOTE 37]]
        text = "204"
        x = -105.090403796
        y = 54.3431457505
    [[NOTE 38]]
        text = "35.0/25 + * ---"
        x = 415.778787337
        y = -251.605122421
    [[NOTE 39]]
        text = "73.177/26"
        x = 242.313708498
        y = -24.9268401472
    [[NOTE 40]]
        text = "Filtering, Summarizing and Default route"
        x = -233.34523779
        y = -415.251875403
        font = "MS Shell Dlg 2,20,-1,5,75,0,0,0,0,0"
        color = "#0000ff"
    [[NOTE 41]]
        text = "---"
        x = 403.050865277
        y = -22.502525317
    [[NOTE 42]]
        text = "95.8/25"
        x = 277.669047558
        y = 152.862048459
    [[NOTE 43]]
        text = "205"
        x = -103.090403796
        y = 72.3431457505
    [[NOTE 44]]
        text = "|"
        x = 391.737156777
        y = -208.776695297
    [[NOTE 45]]
        text = "v"
        x = 622.253967444
        y = 115.279220614
    [[NOTE 46]]
        text = "17.1/24"
        x = 42.9095962045
        y = -176.656854249
    [[NOTE 47]]
        text = "68.0/24 -"
        x = 422.84985515
        y = -41.0883117546
    [[NOTE 48]]
        text = "13.3/29"
        x = -383.865007052
        y = -144.798989873
    [[NOTE 49]]
        text = "|"
        x = 397.394011027
        y = -43.9167388793
    [[NOTE 50]]
        text = "-----"
        x = 370.523953342
        y = 3.55634918613
    [[NOTE 51]]
        text = "AS 65534"
        x = -315.36962441
        y = 280.340187158
        font = "MS Shell Dlg 2,14,-1,5,75,0,0,0,0,0"
    [[NOTE 52]]
        text = "36.64/26 -"
        x = 415.778787337
        y = -191.605122421
    [[NOTE 53]]
        text = "32.0/23 + * ---"
        x = 415.778787337
        y = -291.605122421
    [[NOTE 54]]
        text = "EIGRP"
        x = -306.884343035
        y = -344.340187157
        font = "MS Shell Dlg 2,14,-1,5,75,0,0,0,0,0"
    [[NOTE 55]]
        text = "|"
        x = 391.737156777
        y = -248.776695297
    [[NOTE 56]]
        text = "Multiple AS EIGRP over Frame-Relay, Gigabit Ethernet and Fast Ethernet"
        x = -410.121933087
        y = -451.820417898
        font = "MS Shell Dlg 2,20,-1,5,75,0,1,0,0,0"
        color = "#0000ff"
    [[NOTE 57]]
        text = "35.128/25 + * ---"
        x = 415.778787337
        y = -231.605122421
    [[NOTE 58]]
        text = "28.2/24"
        x = 38.9095962045
        y = 152.343145751
    [[NOTE 59]]
        text = "* Filtered in AS 65534 with Route-map"
        x = 625.082394569
        y = -143.5218613
        font = "MS Shell Dlg 2,12,-1,5,75,0,0,0,0,0"
    [[NOTE 60]]
        text = "10.9.0.0/16"
        x = 104.651803615
        y = -337.671139599
    [[NOTE 61]]
        text = "15.5/29"
        x = -145.605122421
        y = 261.757359313
    [[NOTE 62]]
        text = "- Filtered in AS 65505 with Standard ACL"
        x = 629.325035256
        y = -125.74011537
        font = "MS Shell Dlg 2,12,-1,5,75,0,0,0,0,0"
    [[NOTE 63]]
        text = "Static Neighbor"
        x = -38.1837661845
        y = 286.399061661
    [[NOTE 64]]
        text = "|"
        x = 397.394011027
        y = -23.9167388793
    [[NOTE 65]]
        text = "72.0/25 + --"
        x = 422.84985515
        y = -21.0883117546
    [[NOTE 66]]
        text = "73.67/26"
        x = 367.695526216
        y = 45.9827560573
    [[NOTE 67]]
        text = "|"
        x = 622.253967444
        y = 86.3919189858
    [[NOTE 68]]
        text = "13.1/29"
        x = -73.8477631085
        y = -119.786796564
    [[NOTE 69]]
        text = "---"
        x = 403.050865277
        y = 17.497474683
    [[NOTE 70]]
        text = "EIGRP"
        x = -137.17871555
        y = -357.269119345
        font = "MS Shell Dlg 2,14,-1,5,75,0,0,0,0,0"
    [[NOTE 71]]
        text = "|"
        x = 391.737156777
        y = -288.776695297
    [[NOTE 72]]
        text = "16.5/29"
        x = -90.9188309202
        y = 239.414213563
    [[NOTE 73]]
        text = "---"
        x = 403.050865277
        y = -2.50252531704
    [[NOTE 74]]
        text = "10.11.0.0/16"
        x = -318.198051534
        y = -308.984848098
    [[NOTE 75]]
        text = "+ Summarized in all AS"
        x = 620.839753881
        y = -63.3137084988
        font = "MS Shell Dlg 2,12,-1,5,75,0,0,0,0,0"
    [[NOTE 76]]
        text = "---"
        x = -466.158513015
        y = 140.063925137
    [[NOTE 77]]
        text = "3.1/24"
        x = -505.487373416
        y = -162.171572875
    [[NOTE 78]]
        text = "13.4/29"
        x = -379.79393924
        y = 117.651803616
    [[NOTE 79]]
        text = "MD5 Authentication"
        x = 83.43860018
        y = -320.499566724
    [[NOTE 80]]
        text = "73.198/26"
        x = 266.355339059
        y = 90.8376618409
    [[NOTE 81]]
        text = "---"
        x = -473.229580827
        y = -144.394011026
    [[NOTE 82]]
        text = "|"
        x = 397.394011027
        y = 16.0832611207
    [[NOTE 83]]
        text = "---"
        x = 397.394011027
        y = -250.190908859
    [[NOTE 84]]
        text = "|"
        x = -476.401153702
        y = -146.136651714
    [[NOTE 85]]
        text = "72.128/25 + --"
        x = 422.84985515
        y = -2.50252531694
    [[NOTE 86]]
        text = "|"
        x = -469.33008589
        y = 138.32128445
    [[NOTE 87]]
        text = "-----"
        x = 359.210244843
        y = -238.475180106
    [[NOTE 88]]
        text = "73.88/26"
        x = 502.045814642
        y = 81.1370849898
    [[NOTE 89]]
        text = "4.1/24"
        x = -491.345237792
        y = 159.05591591
    [[NOTE 90]]
        text = "16.7/24"
        x = 194.230447378
        y = -104.933982822
    [[NOTE 91]]
        text = "501"
        x = -160.656854249
        y = 154.409162929
    [[NOTE 92]]
        text = "27.7/24"
        x = 148.975613382
        y = -130.389826944
    [[NOTE 93]]
        text = "15.1/29"
        x = -83.0609665435
        y = -196.024386617
    [[NOTE 94]]
        text = "18.8/24"
        x = 148.975613382
        y = 107.901586978
    [[NOTE 95]]
        text = "AS 64512"
        x = 96.1665222405
        y = 293.269119346
        font = "MS Shell Dlg 2,14,-1,5,75,0,0,0,0,0"
    [[NOTE 96]]
        text = "AS 65505"
        x = -154.149278299
        y = 349.435641587
        font = "MS Shell Dlg 2,14,-1,5,75,0,0,0,0,0"
    [[NOTE 97]]
        text = "-- Filtered in AS 65506 with Prefix-list"
        x = 622.253967444
        y = -105.539105243
        font = "MS Shell Dlg 2,12,-1,5,75,0,0,0,0,0"
    [[NOTE 98]]
        text = "AS 65506"
        x = 379.009234715
        y = -126.953318806
        font = "MS Shell Dlg 2,14,-1,5,75,0,0,0,0,0"
    [[NOTE 99]]
        text = "|"
        x = 391.737156777
        y = -228.776695297
    [[NOTE 100]]
        text = "10.17.32.0/21"
        x = 370.523953341
        y = -344.943217538
    [[NOTE 101]]
        text = "73.207/26"
        x = 243.727922061
        y = 27.1980515338
    [[NOTE 102]]
        text = "27.2/24"
        x = 40.3238097665
        y = 111.0
    [[NOTE 103]]
        text = "16.8/24"
        x = 194.230447378
        y = 85.7838379714
    [[NOTE 104]]
        text = "AS 65507"
        x = 374.766594028
        y = 258.925973595
        font = "MS Shell Dlg 2,14,-1,5,75,0,0,0,0,0"
    [[NOTE 105]]
        text = "10.12.0.0/16"
        x = -147.078210487
        y = -300.70057685
    [[NOTE 106]]
        text = "502"
        x = -129.333044483
        y = 153.928932189
    [[NOTE 107]]
        text = "28.8/24"
        x = 153.460894756
        y = 154.970562749
    [[NOTE 108]]
        text = "125.34.7.78/8"
        x = 579.827560573
        y = 157.705627485
    [[NOTE 109]]
        text = "|"
        x = 391.737156777
        y = -268.776695297
    [[NOTE 110]]
        text = "18.1/24"
        x = 41.4953826425
        y = -129.485281374
    [[NOTE 111]]
        text = "302"
        x = -322.655374953
        y = -64.1923881554
    [[NOTE 112]]
        text = "---"
        x = 397.394011027
        y = -270.190908859
    [[NOTE 113]]
        text = "401"
        x = -333.605122422
        y = 44.1040764008
    [[NOTE 114]]
        text = "|"
        x = 397.394011027
        y = -63.9167388793
    [[NOTE 115]]
        text = "EIGRP"
        x = 108.894444302
        y = -374.44069222
        font = "MS Shell Dlg 2,14,-1,5,75,0,0,0,0,0"
    [[NOTE 116]]
        text = "---"
        x = 397.394011027
        y = -230.190908859
    [[NOTE 117]]
        text = "---"
        x = 403.050865277
        y = -42.502525317
    [[NOTE 118]]
        text = "Filtering with Distribute-list"
        x = 695.793072687
        y = -167.563491861
        font = "MS Shell Dlg 2,12,-1,5,75,0,0,0,0,0"
    [[NOTE 119]]
        text = "73.0/26 --"
        x = 422.84985515
        y = 17.4974746831
    [[SHAPE 1]]
        type = ellipse
        x = 250.31580054
        y = -347.896536344
        width = 342.239682094
        height = 255.97265479
        fill_color = "#aaffff"
        border_style = 2
    [[PIXMAP 1]]
        path = Cloud.bmp
        x = 674.300215362
        y = 11.5782104867
    [[SHAPE 2]]
        type = ellipse
        x = 243.244732728
        y = -284.256926037
        width = 359.210244843
        height = 578.41334701
        fill_color = "#55ffff"
        border_style = 2
        z = -1.0
    [[SHAPE 3]]
        type = ellipse
        x = -551.543289325
        y = -312.541197284
        width = 560.028570699
        height = 627.910821693
        fill_color = "#5555ff"
        border_style = 2
        z = -1.0
    [[SHAPE 4]]
        type = ellipse
        x = -11.3137084985
        y = -343.653895656
        width = 312.541197284
        height = 681.650937064
        fill_color = "#00ffff"
        border_style = 2
        z = -2.0
    [[SHAPE 5]]
        type = ellipse
        x = -202.232539419
        y = -323.854905783
        width = 200.0
        height = 719.834703248
        fill_color = "#0055ff"
        border_style = 2
        z = -3.0
