Nov 29 19:08:30.243 HYPERVISOR: Release 0.2.17-amd64/Linux (tag 2017072410)
Nov 29 19:08:30.243 HYPERVISOR: Started on IP = 127.0.0.1, TCP port = 42325.
Nov 29 19:08:30.266 HYPERVISOR: exec_cmd: hypervisor version 
Nov 29 19:08:30.267 HYPERVISOR: exec_cmd: hypervisor working_dir /media/actionmystique/SAMSUNG5-VMs/Labs/GNS3/git-Public-Labs-Collection/CCNP/TBSHOOT/L3-Technologies/IPv6/Routing-Protocols/EIGRPv6/Jean-Christophe_Manciot/1+/TT 2-solutions-linux/project-files/dynamips 
Nov 29 19:08:30.267 GENERAL: working_dir=/media/actionmystique/SAMSUNG5-VMs/Labs/GNS3/git-Public-Labs-Collection/CCNP/TBSHOOT/L3-Technologies/IPv6/Routing-Protocols/EIGRPv6/Jean-Christophe_Manciot/1+/TT 2-solutions-linux/project-files/dynamips
Nov 29 19:08:30.267 HYPERVISOR: exec_cmd: vm create ESW1 1 c3725 
Nov 29 19:08:30.267 VM: VM ESW1 created.
Nov 29 19:08:30.268 HYPERVISOR: exec_cmd: vm set_con_tcp_port ESW1 2004 
Nov 29 19:08:30.269 HYPERVISOR: exec_cmd: c3725 get_mac_addr ESW1 
Nov 29 19:08:30.269 HYPERVISOR: exec_cmd: vm set_disk0 ESW1 1 
Nov 29 19:08:30.270 HYPERVISOR: exec_cmd: vm get_status ESW1 
Nov 29 19:08:30.271 HYPERVISOR: exec_cmd: vm set_idle_pc ESW1 0x6026b804 
Nov 29 19:08:30.271 HYPERVISOR: exec_cmd: c3725 set_mac_addr ESW1 c201.1b91.0000 
Nov 29 19:08:30.272 HYPERVISOR: exec_cmd: vm set_nvram ESW1 256 
Nov 29 19:08:30.273 HYPERVISOR: exec_cmd: vm get_status ESW1 
Nov 29 19:08:30.273 HYPERVISOR: exec_cmd: vm slot_add_binding ESW1 1 0 NM-16ESW 
Nov 29 19:08:30.274 HYPERVISOR: exec_cmd: vm set_ios ESW1 /media/actionmystique/SAMSUNG5-VMs/Images/GNS3/IOS/c3725-adventerprisek9-mz.124-15.T10.image 
Nov 29 19:08:30.275 HYPERVISOR: exec_cmd: vm slot_add_binding ESW1 0 16 WIC-2T 
Nov 29 19:08:30.279 HYPERVISOR: exec_cmd: vm set_config ESW1 configs/ios_base_startup-config.txt 
Nov 29 19:08:30.281 HYPERVISOR: exec_cmd: vm set_config ESW1 configs/ios_base_startup-config.txt configs/ios_base_private-config.txt 
Nov 29 19:08:30.585 HYPERVISOR: exec_cmd: nio create_udp udp-ae632aa6-8430-4875-bcb1-9873bf0a270e 15010 127.0.0.1 15011 
Nov 29 19:08:30.586 HYPERVISOR: exec_cmd: vm slot_add_nio_binding ESW1 1 0 udp-ae632aa6-8430-4875-bcb1-9873bf0a270e 
Nov 29 19:08:30.586 HYPERVISOR: exec_cmd: vm get_status ESW1 
Nov 29 19:08:30.621 HYPERVISOR: exec_cmd: nio create_udp udp-d564c498-5ae5-40d2-91c2-d2b6fb1f5897 15012 127.0.0.1 15013 
Nov 29 19:08:30.622 HYPERVISOR: exec_cmd: vm slot_add_nio_binding ESW1 1 1 udp-d564c498-5ae5-40d2-91c2-d2b6fb1f5897 
Nov 29 19:08:30.628 HYPERVISOR: exec_cmd: vm get_status ESW1 
