Nov 29 19:08:30.285 HYPERVISOR: Release 0.2.17-amd64/Linux (tag 2017072410)
Nov 29 19:08:30.285 HYPERVISOR: Started on IP = 127.0.0.1, TCP port = 34749.
Nov 29 19:08:30.308 HYPERVISOR: exec_cmd: hypervisor version 
Nov 29 19:08:30.308 HYPERVISOR: exec_cmd: hypervisor working_dir /media/actionmystique/SAMSUNG5-VMs/Labs/GNS3/git-Public-Labs-Collection/CCNP/TBSHOOT/L3-Technologies/IPv6/Routing-Protocols/EIGRPv6/Jean-Christophe_Manciot/1+/TT 2-solutions-linux/project-files/dynamips 
Nov 29 19:08:30.308 GENERAL: working_dir=/media/actionmystique/SAMSUNG5-VMs/Labs/GNS3/git-Public-Labs-Collection/CCNP/TBSHOOT/L3-Technologies/IPv6/Routing-Protocols/EIGRPv6/Jean-Christophe_Manciot/1+/TT 2-solutions-linux/project-files/dynamips
Nov 29 19:08:30.309 HYPERVISOR: exec_cmd: vm create ESW5 5 c3725 
Nov 29 19:08:30.309 VM: VM ESW5 created.
Nov 29 19:08:30.310 HYPERVISOR: exec_cmd: vm set_con_tcp_port ESW5 2010 
Nov 29 19:08:30.310 HYPERVISOR: exec_cmd: c3725 get_mac_addr ESW5 
Nov 29 19:08:30.311 HYPERVISOR: exec_cmd: vm set_disk0 ESW5 1 
Nov 29 19:08:30.312 HYPERVISOR: exec_cmd: vm get_status ESW5 
Nov 29 19:08:30.312 HYPERVISOR: exec_cmd: vm set_idle_pc ESW5 0x6026b804 
Nov 29 19:08:30.313 HYPERVISOR: exec_cmd: c3725 set_mac_addr ESW5 c205.6a03.0000 
Nov 29 19:08:30.314 HYPERVISOR: exec_cmd: vm set_nvram ESW5 256 
Nov 29 19:08:30.314 HYPERVISOR: exec_cmd: vm get_status ESW5 
Nov 29 19:08:30.315 HYPERVISOR: exec_cmd: vm slot_add_binding ESW5 1 0 NM-16ESW 
Nov 29 19:08:30.316 HYPERVISOR: exec_cmd: vm set_ios ESW5 /media/actionmystique/SAMSUNG5-VMs/Images/GNS3/IOS/c3725-adventerprisek9-mz.124-15.T10.image 
Nov 29 19:08:30.317 HYPERVISOR: exec_cmd: vm slot_add_binding ESW5 0 16 WIC-2T 
Nov 29 19:08:30.318 HYPERVISOR: exec_cmd: vm set_config ESW5 configs/ios_base_startup-config.txt 
Nov 29 19:08:30.322 HYPERVISOR: exec_cmd: vm set_config ESW5 configs/ios_base_startup-config.txt configs/ios_base_private-config.txt 
Nov 29 19:08:30.664 HYPERVISOR: exec_cmd: nio create_udp udp-d96c9a87-94d4-4145-9543-2b88416897e8 15017 127.0.0.1 15015 
Nov 29 19:08:30.665 HYPERVISOR: exec_cmd: vm slot_add_nio_binding ESW5 1 0 udp-d96c9a87-94d4-4145-9543-2b88416897e8 
Nov 29 19:08:30.666 HYPERVISOR: exec_cmd: vm get_status ESW5 
Nov 29 19:08:30.672 HYPERVISOR: exec_cmd: nio create_udp udp-ce8f04ce-9edf-4de8-b3d1-e1c3648766cc 15018 127.0.0.1 15019 
Nov 29 19:08:30.672 HYPERVISOR: exec_cmd: vm slot_add_nio_binding ESW5 1 1 udp-ce8f04ce-9edf-4de8-b3d1-e1c3648766cc 
Nov 29 19:08:30.673 HYPERVISOR: exec_cmd: vm get_status ESW5 
