Nov 29 15:25:48.507 HYPERVISOR: Release 0.2.17-amd64/Linux (tag 2017072410)
Nov 29 15:25:48.507 HYPERVISOR: Started on IP = 127.0.0.1, TCP port = 49573.
Nov 29 15:25:48.534 HYPERVISOR: exec_cmd: hypervisor version 
Nov 29 15:25:48.536 HYPERVISOR: exec_cmd: hypervisor working_dir /media/actionmystique/SAMSUNG5-VMs/Labs/GNS3/git-Public-Labs-Collection/CCNP/TBSHOOT/L3-Technologies/IPv4/Routing-Protocols/Redistribution/Jean-Christophe_Manciot/1+/TT 2-solutions-linux/project-files/dynamips 
Nov 29 15:25:48.536 GENERAL: working_dir=/media/actionmystique/SAMSUNG5-VMs/Labs/GNS3/git-Public-Labs-Collection/CCNP/TBSHOOT/L3-Technologies/IPv4/Routing-Protocols/Redistribution/Jean-Christophe_Manciot/1+/TT 2-solutions-linux/project-files/dynamips
Nov 29 15:25:48.536 HYPERVISOR: exec_cmd: vm create ESW5 5 c3725 
Nov 29 15:25:48.537 VM: VM ESW5 created.
Nov 29 15:25:48.537 HYPERVISOR: exec_cmd: vm set_con_tcp_port ESW5 2010 
Nov 29 15:25:48.538 HYPERVISOR: exec_cmd: c3725 get_mac_addr ESW5 
Nov 29 15:25:48.539 HYPERVISOR: exec_cmd: vm get_status ESW5 
Nov 29 15:25:48.539 HYPERVISOR: exec_cmd: vm set_idle_pc ESW5 0x6026b804 
Nov 29 15:25:48.540 HYPERVISOR: exec_cmd: vm get_status ESW5 
Nov 29 15:25:48.541 HYPERVISOR: exec_cmd: vm slot_add_binding ESW5 1 0 NM-16ESW 
Nov 29 15:25:48.542 HYPERVISOR: exec_cmd: vm set_disk0 ESW5 1 
Nov 29 15:25:48.546 HYPERVISOR: exec_cmd: vm set_nvram ESW5 256 
Nov 29 15:25:48.547 HYPERVISOR: exec_cmd: vm set_ios ESW5 /media/actionmystique/SAMSUNG5-VMs/Images/GNS3/IOS/c3725-adventerprisek9-mz.124-15.T10.image 
Nov 29 15:25:48.548 HYPERVISOR: exec_cmd: c3725 set_mac_addr ESW5 c205.6a03.0000 
Nov 29 15:25:48.549 HYPERVISOR: exec_cmd: vm slot_add_binding ESW5 0 16 WIC-2T 
Nov 29 15:25:48.550 HYPERVISOR: exec_cmd: vm set_config ESW5 configs/ios_base_startup-config.txt 
Nov 29 15:25:48.551 HYPERVISOR: exec_cmd: vm set_config ESW5 configs/ios_base_startup-config.txt configs/ios_base_private-config.txt 
Nov 29 15:25:48.916 HYPERVISOR: exec_cmd: nio create_udp udp-26d0599a-ccb9-4067-b4da-234a3a644583 15016 127.0.0.1 15017 
Nov 29 15:25:48.917 HYPERVISOR: exec_cmd: vm slot_add_nio_binding ESW5 1 0 udp-26d0599a-ccb9-4067-b4da-234a3a644583 
Nov 29 15:25:48.917 HYPERVISOR: exec_cmd: vm get_status ESW5 
Nov 29 15:25:48.928 HYPERVISOR: exec_cmd: nio create_udp udp-48f8530c-b61d-42b1-9179-2e8ec07eac6b 15019 127.0.0.1 15018 
Nov 29 15:25:48.929 HYPERVISOR: exec_cmd: vm slot_add_nio_binding ESW5 1 1 udp-48f8530c-b61d-42b1-9179-2e8ec07eac6b 
Nov 29 15:25:48.929 HYPERVISOR: exec_cmd: vm get_status ESW5 
