Nov 29 15:25:54.859 HYPERVISOR: Release 0.2.17-amd64/Linux (tag 2017072410)
Nov 29 15:25:54.859 HYPERVISOR: Started on IP = 127.0.0.1, TCP port = 56319.
Nov 29 15:25:54.873 HYPERVISOR: exec_cmd: hypervisor version 
Nov 29 15:25:54.874 HYPERVISOR: exec_cmd: hypervisor working_dir /media/actionmystique/SAMSUNG5-VMs/Labs/GNS3/TT 2-solutions-linux-/project-files/dynamips 
Nov 29 15:25:54.874 GENERAL: working_dir=/media/actionmystique/SAMSUNG5-VMs/Labs/GNS3/TT 2-solutions-linux-/project-files/dynamips
Nov 29 15:25:54.875 HYPERVISOR: exec_cmd: vm create ESW5 5 c3725 
Nov 29 15:25:54.875 VM: VM ESW5 created.
Nov 29 15:25:54.876 HYPERVISOR: exec_cmd: vm set_con_tcp_port ESW5 2010 
Nov 29 15:25:54.876 HYPERVISOR: exec_cmd: c3725 get_mac_addr ESW5 
Nov 29 15:25:54.877 HYPERVISOR: exec_cmd: vm get_status ESW5 
Nov 29 15:25:54.879 HYPERVISOR: exec_cmd: vm slot_add_binding ESW5 1 0 NM-16ESW 
Nov 29 15:25:54.882 HYPERVISOR: exec_cmd: c3725 set_mac_addr ESW5 c205.6a03.0000 
Nov 29 15:25:54.887 HYPERVISOR: exec_cmd: vm set_disk0 ESW5 1 
Nov 29 15:25:54.888 HYPERVISOR: exec_cmd: vm set_nvram ESW5 256 
Nov 29 15:25:54.889 HYPERVISOR: exec_cmd: vm set_ios ESW5 /media/actionmystique/SAMSUNG5-VMs/Images/GNS3/IOS/c3725-adventerprisek9-mz.124-15.T10.image 
Nov 29 15:25:54.890 HYPERVISOR: exec_cmd: vm get_status ESW5 
Nov 29 15:25:54.890 HYPERVISOR: exec_cmd: vm set_idle_pc ESW5 0x6026b804 
Nov 29 15:25:54.890 HYPERVISOR: exec_cmd: vm slot_add_binding ESW5 0 16 WIC-2T 
Nov 29 15:25:54.891 HYPERVISOR: exec_cmd: vm set_config ESW5 configs/ios_base_startup-config.txt 
Nov 29 15:25:54.891 HYPERVISOR: exec_cmd: vm set_config ESW5 configs/ios_base_startup-config.txt configs/ios_base_private-config.txt 
Nov 29 15:25:55.224 HYPERVISOR: exec_cmd: nio create_udp udp-94b1b1e9-dc05-4dd2-9fb3-3376fe380ce8 15017 127.0.0.1 15016 
Nov 29 15:25:55.225 HYPERVISOR: exec_cmd: vm slot_add_nio_binding ESW5 1 0 udp-94b1b1e9-dc05-4dd2-9fb3-3376fe380ce8 
Nov 29 15:25:55.225 HYPERVISOR: exec_cmd: vm get_status ESW5 
Nov 29 15:25:55.232 HYPERVISOR: exec_cmd: nio create_udp udp-671b7532-6cac-4a12-90f2-e7817a11e12d 15018 127.0.0.1 15019 
Nov 29 15:25:55.233 HYPERVISOR: exec_cmd: vm slot_add_nio_binding ESW5 1 1 udp-671b7532-6cac-4a12-90f2-e7817a11e12d 
Nov 29 15:25:55.233 HYPERVISOR: exec_cmd: vm get_status ESW5 
Nov 29 15:26:11.355 HYPERVISOR: exec_cmd: vm get_status ESW5 
Nov 29 15:26:11.357 HYPERVISOR: exec_cmd: vm extract_config ESW5 
Nov 29 15:26:11.359 HYPERVISOR: exec_cmd: vm delete ESW5 
Nov 29 15:26:11.360 VM: VM ESW5 destroyed.
Nov 29 15:26:11.361 HYPERVISOR: exec_cmd: hypervisor stop 
Nov 29 15:26:11.389 HYPERVISOR: Stopped.
Nov 29 15:26:11.389 GENERAL: reset done.
