Nov 28 08:08:44.412 HYPERVISOR: Release 0.2.17-amd64/Linux (tag 2017072410)
Nov 28 08:08:44.412 HYPERVISOR: Started on IP = 127.0.0.1, TCP port = 33173.
Nov 28 08:08:44.442 HYPERVISOR: exec_cmd: hypervisor version 
Nov 28 08:08:44.443 HYPERVISOR: exec_cmd: hypervisor working_dir /media/actionmystique/SAMSUNG5-VMs/Labs/GNS3/TT 1-solutions-linux-/project-files/dynamips 
Nov 28 08:08:44.443 GENERAL: working_dir=/media/actionmystique/SAMSUNG5-VMs/Labs/GNS3/TT 1-solutions-linux-/project-files/dynamips
Nov 28 08:08:44.444 HYPERVISOR: exec_cmd: vm create ESW1 1 c3725 
Nov 28 08:08:44.444 VM: VM ESW1 created.
Nov 28 08:08:44.444 HYPERVISOR: exec_cmd: vm set_con_tcp_port ESW1 2003 
Nov 28 08:08:44.445 HYPERVISOR: exec_cmd: c3725 get_mac_addr ESW1 
Nov 28 08:08:44.446 HYPERVISOR: exec_cmd: vm get_status ESW1 
Nov 28 08:08:44.446 HYPERVISOR: exec_cmd: vm slot_add_binding ESW1 1 0 NM-16ESW 
Nov 28 08:08:44.447 HYPERVISOR: exec_cmd: vm set_disk0 ESW1 1 
Nov 28 08:08:44.449 HYPERVISOR: exec_cmd: vm slot_add_binding ESW1 0 16 WIC-2T 
Nov 28 08:08:44.450 HYPERVISOR: exec_cmd: vm get_status ESW1 
Nov 28 08:08:44.451 HYPERVISOR: exec_cmd: vm set_idle_pc ESW1 0x6026b804 
Nov 28 08:08:44.453 HYPERVISOR: exec_cmd: c3725 set_mac_addr ESW1 c201.4468.0000 
Nov 28 08:08:44.454 HYPERVISOR: exec_cmd: vm set_nvram ESW1 256 
Nov 28 08:08:44.455 HYPERVISOR: exec_cmd: vm set_ios ESW1 /media/actionmystique/SAMSUNG5-VMs/Images/GNS3/IOS/c3725-adventerprisek9-mz.124-15.T10.image 
Nov 28 08:08:44.460 HYPERVISOR: exec_cmd: vm set_config ESW1 configs/ios_base_startup-config.txt 
Nov 28 08:08:44.462 HYPERVISOR: exec_cmd: vm set_config ESW1 configs/ios_base_startup-config.txt configs/ios_base_private-config.txt 
Nov 28 08:08:44.683 HYPERVISOR: exec_cmd: nio create_udp udp-119b4195-8492-4e3e-96b3-263fd781a596 15010 127.0.0.1 15005 
Nov 28 08:08:44.684 HYPERVISOR: exec_cmd: vm slot_add_nio_binding ESW1 1 0 udp-119b4195-8492-4e3e-96b3-263fd781a596 
Nov 28 08:08:44.684 HYPERVISOR: exec_cmd: vm get_status ESW1 
Nov 28 08:09:03.564 HYPERVISOR: exec_cmd: vm get_status ESW1 
Nov 28 08:09:03.566 HYPERVISOR: exec_cmd: vm extract_config ESW1 
Nov 28 08:09:03.569 HYPERVISOR: exec_cmd: vm delete ESW1 
Nov 28 08:09:03.569 VM: VM ESW1 destroyed.
Nov 28 08:09:03.580 HYPERVISOR: exec_cmd: hypervisor stop 
Nov 28 08:09:03.961 HYPERVISOR: Stopped.
Nov 28 08:09:03.961 GENERAL: reset done.
