Nov 27 16:20:09.909 HYPERVISOR: Release 0.2.17-amd64/Linux (tag 2017072410)
Nov 27 16:20:09.909 HYPERVISOR: Started on IP = 127.0.0.1, TCP port = 49885.
Nov 27 16:20:09.923 HYPERVISOR: exec_cmd: hypervisor version 
Nov 27 16:20:09.923 HYPERVISOR: exec_cmd: hypervisor working_dir /media/actionmystique/SAMSUNG5-VMs/Labs/GNS3/git-Public-Labs-Collection/CCNP/TBSHOOT/L3-Technologies/IPv4/High-Availability/HSRP/Jean-Christophe_Manciot/1+/TT 1-linux/project-files/dynamips 
Nov 27 16:20:09.923 GENERAL: working_dir=/media/actionmystique/SAMSUNG5-VMs/Labs/GNS3/git-Public-Labs-Collection/CCNP/TBSHOOT/L3-Technologies/IPv4/High-Availability/HSRP/Jean-Christophe_Manciot/1+/TT 1-linux/project-files/dynamips
Nov 27 16:20:09.924 HYPERVISOR: exec_cmd: vm create Core 4 c3725 
Nov 27 16:20:09.924 VM: VM Core created.
Nov 27 16:20:09.924 HYPERVISOR: exec_cmd: vm set_con_tcp_port Core 2005 
Nov 27 16:20:09.924 HYPERVISOR: exec_cmd: c3725 get_mac_addr Core 
Nov 27 16:20:09.925 HYPERVISOR: exec_cmd: vm set_ram Core 256 
Nov 27 16:20:09.925 HYPERVISOR: exec_cmd: vm set_nvram Core 256 
Nov 27 16:20:09.925 HYPERVISOR: exec_cmd: vm get_status Core 
Nov 27 16:20:09.926 HYPERVISOR: exec_cmd: vm set_idle_pc Core 0x614ac21c 
Nov 27 16:20:09.926 HYPERVISOR: exec_cmd: c3725 set_mac_addr Core c204.0c3e.0000 
Nov 27 16:20:09.926 HYPERVISOR: exec_cmd: vm get_status Core 
Nov 27 16:20:09.927 HYPERVISOR: exec_cmd: vm slot_add_binding Core 1 0 NM-16ESW 
Nov 27 16:20:09.927 HYPERVISOR: exec_cmd: vm set_ios Core /media/actionmystique/SAMSUNG5-VMs/Images/GNS3/IOS/c3725-adventerprisek9-mz.124-15.T10.image 
Nov 27 16:20:09.928 HYPERVISOR: exec_cmd: vm slot_add_binding Core 0 16 WIC-2T 
Nov 27 16:20:09.928 HYPERVISOR: exec_cmd: vm set_disk0 Core 1 
Nov 27 16:20:09.929 HYPERVISOR: exec_cmd: vm set_config Core configs/i4_startup-config.cfg 
Nov 27 16:20:09.929 HYPERVISOR: exec_cmd: vm set_config Core configs/i4_startup-config.cfg configs/i4_private-config.cfg 
Nov 27 16:20:10.144 HYPERVISOR: exec_cmd: nio create_udp udp-52f00333-48ee-43ce-a781-976c7fbfacfa 15006 127.0.0.1 15003 
Nov 27 16:20:10.145 HYPERVISOR: exec_cmd: vm slot_add_nio_binding Core 1 1 udp-52f00333-48ee-43ce-a781-976c7fbfacfa 
Nov 27 16:20:10.146 HYPERVISOR: exec_cmd: vm get_status Core 
Nov 27 16:20:10.236 HYPERVISOR: exec_cmd: nio create_udp udp-958a40cc-1cb7-4b04-9b67-351413befed8 15012 127.0.0.1 15013 
Nov 27 16:20:10.237 HYPERVISOR: exec_cmd: vm slot_add_nio_binding Core 1 0 udp-958a40cc-1cb7-4b04-9b67-351413befed8 
Nov 27 16:20:10.237 HYPERVISOR: exec_cmd: vm get_status Core 
