Nov 27 16:20:09.883 HYPERVISOR: Release 0.2.17-amd64/Linux (tag 2017072410)
Nov 27 16:20:09.883 HYPERVISOR: Started on IP = 127.0.0.1, TCP port = 35447.
Nov 27 16:20:09.896 HYPERVISOR: exec_cmd: hypervisor version 
Nov 27 16:20:09.897 HYPERVISOR: exec_cmd: hypervisor working_dir /media/actionmystique/SAMSUNG5-VMs/Labs/GNS3/git-Public-Labs-Collection/CCNP/TBSHOOT/L3-Technologies/IPv4/High-Availability/HSRP/Jean-Christophe_Manciot/1+/TT 1-linux/project-files/dynamips 
Nov 27 16:20:09.897 GENERAL: working_dir=/media/actionmystique/SAMSUNG5-VMs/Labs/GNS3/git-Public-Labs-Collection/CCNP/TBSHOOT/L3-Technologies/IPv4/High-Availability/HSRP/Jean-Christophe_Manciot/1+/TT 1-linux/project-files/dynamips
Nov 27 16:20:09.898 HYPERVISOR: exec_cmd: vm create SW2 2 c3725 
Nov 27 16:20:09.898 VM: VM SW2 created.
Nov 27 16:20:09.898 HYPERVISOR: exec_cmd: vm set_con_tcp_port SW2 2002 
Nov 27 16:20:09.899 HYPERVISOR: exec_cmd: c3725 get_mac_addr SW2 
Nov 27 16:20:09.900 HYPERVISOR: exec_cmd: vm set_nvram SW2 256 
Nov 27 16:20:09.900 HYPERVISOR: exec_cmd: vm get_status SW2 
Nov 27 16:20:09.902 HYPERVISOR: exec_cmd: vm set_idle_pc SW2 0x614ac21c 
Nov 27 16:20:09.903 HYPERVISOR: exec_cmd: c3725 set_mac_addr SW2 eeee.eeee.eeee 
Nov 27 16:20:09.904 HYPERVISOR: exec_cmd: vm set_exec_area SW2 16 
Nov 27 16:20:09.905 HYPERVISOR: exec_cmd: vm get_status SW2 
Nov 27 16:20:09.906 HYPERVISOR: exec_cmd: vm slot_add_binding SW2 1 0 NM-16ESW 
Nov 27 16:20:09.907 HYPERVISOR: exec_cmd: vm set_ios SW2 /media/actionmystique/SAMSUNG5-VMs/Images/GNS3/IOS/c3725-adventerprisek9-mz.124-15.T10.image 
Nov 27 16:20:09.908 HYPERVISOR: exec_cmd: vm slot_add_binding SW2 0 16 WIC-2T 
Nov 27 16:20:09.909 HYPERVISOR: exec_cmd: vm set_disk0 SW2 1 
Nov 27 16:20:09.910 HYPERVISOR: exec_cmd: vm set_config SW2 configs/i2_startup-config.cfg 
Nov 27 16:20:09.911 HYPERVISOR: exec_cmd: vm set_config SW2 configs/i2_startup-config.cfg configs/i2_private-config.cfg 
Nov 27 16:20:10.117 HYPERVISOR: exec_cmd: nio create_udp udp-5e9184f3-e48f-46d1-bb04-2b009e7e4516 15002 127.0.0.1 15001 
Nov 27 16:20:10.117 HYPERVISOR: exec_cmd: vm slot_add_nio_binding SW2 1 2 udp-5e9184f3-e48f-46d1-bb04-2b009e7e4516 
Nov 27 16:20:10.118 HYPERVISOR: exec_cmd: vm get_status SW2 
Nov 27 16:20:10.124 HYPERVISOR: exec_cmd: nio create_udp udp-ed29877d-2b33-45bc-93da-1ee9f3bb90ac 15004 127.0.0.1 15000 
Nov 27 16:20:10.133 HYPERVISOR: exec_cmd: vm slot_add_nio_binding SW2 1 0 udp-ed29877d-2b33-45bc-93da-1ee9f3bb90ac 
Nov 27 16:20:10.134 HYPERVISOR: exec_cmd: vm get_status SW2 
Nov 27 16:20:10.213 HYPERVISOR: exec_cmd: nio create_udp udp-ee64b857-4b81-4885-85ce-bfdbdf69d5c4 15010 127.0.0.1 15011 
Nov 27 16:20:10.213 HYPERVISOR: exec_cmd: vm slot_add_nio_binding SW2 1 1 udp-ee64b857-4b81-4885-85ce-bfdbdf69d5c4 
Nov 27 16:20:10.214 HYPERVISOR: exec_cmd: vm get_status SW2 
