Dec 04 11:10:46.965 HYPERVISOR: Release 0.2.17-amd64/Linux (tag 2017072410)
Dec 04 11:10:46.965 HYPERVISOR: Started on IP = 127.0.0.1, TCP port = 34313.
Dec 04 11:10:46.988 HYPERVISOR: exec_cmd: hypervisor version 
Dec 04 11:10:46.988 HYPERVISOR: exec_cmd: hypervisor working_dir /media/actionmystique/SAMSUNG5-VMs/Labs/GNS3/TT 2-linux-/project-files/dynamips 
Dec 04 11:10:46.988 GENERAL: working_dir=/media/actionmystique/SAMSUNG5-VMs/Labs/GNS3/TT 2-linux-/project-files/dynamips
Dec 04 11:10:46.989 HYPERVISOR: exec_cmd: vm create ESW3 3 c3725 
Dec 04 11:10:46.989 VM: VM ESW3 created.
Dec 04 11:10:46.990 HYPERVISOR: exec_cmd: vm set_con_tcp_port ESW3 2006 
Dec 04 11:10:46.990 HYPERVISOR: exec_cmd: c3725 get_mac_addr ESW3 
Dec 04 11:10:46.991 HYPERVISOR: exec_cmd: vm set_nvram ESW3 256 
Dec 04 11:10:46.992 HYPERVISOR: exec_cmd: vm set_ios ESW3 /media/actionmystique/SAMSUNG5-VMs/Images/GNS3/IOS/c3725-adventerprisek9-mz.124-15.T10.image 
Dec 04 11:10:46.993 HYPERVISOR: exec_cmd: c3725 set_mac_addr ESW3 c203.1bfb.0000 
Dec 04 11:10:46.994 HYPERVISOR: exec_cmd: vm get_status ESW3 
Dec 04 11:10:46.994 HYPERVISOR: exec_cmd: vm slot_add_binding ESW3 1 0 NM-16ESW 
Dec 04 11:10:46.995 HYPERVISOR: exec_cmd: vm get_status ESW3 
Dec 04 11:10:46.996 HYPERVISOR: exec_cmd: vm set_idle_pc ESW3 0x614ac27c 
Dec 04 11:10:46.996 HYPERVISOR: exec_cmd: vm set_disk0 ESW3 1 
Dec 04 11:10:46.997 HYPERVISOR: exec_cmd: vm slot_add_binding ESW3 0 16 WIC-2T 
Dec 04 11:10:46.998 HYPERVISOR: exec_cmd: vm set_config ESW3 configs/ios_base_startup-config.txt 
Dec 04 11:10:46.998 HYPERVISOR: exec_cmd: vm set_config ESW3 configs/ios_base_startup-config.txt configs/ios_base_private-config.txt 
Dec 04 11:10:47.126 HYPERVISOR: exec_cmd: nio create_tap tap-f5b3060c-67db-4945-b2bc-6d5a4c639cfa tap0 
Dec 04 11:10:47.138 HYPERVISOR: exec_cmd: vm slot_add_nio_binding ESW3 1 1 tap-f5b3060c-67db-4945-b2bc-6d5a4c639cfa 
Dec 04 11:10:47.140 HYPERVISOR: exec_cmd: vm get_status ESW3 
Dec 04 11:10:47.255 HYPERVISOR: exec_cmd: nio create_udp udp-9aace003-9c2a-4509-9054-a0d9355deefb 15011 127.0.0.1 15010 
Dec 04 11:10:47.256 HYPERVISOR: exec_cmd: vm slot_add_nio_binding ESW3 1 0 udp-9aace003-9c2a-4509-9054-a0d9355deefb 
Dec 04 11:10:47.256 HYPERVISOR: exec_cmd: vm get_status ESW3 
Dec 04 11:11:29.170 HYPERVISOR: exec_cmd: vm get_status ESW3 
Dec 04 11:11:29.172 HYPERVISOR: exec_cmd: vm extract_config ESW3 
Dec 04 11:11:29.173 HYPERVISOR: exec_cmd: vm delete ESW3 
Dec 04 11:11:29.173 VM: VM ESW3 destroyed.
Dec 04 11:11:29.177 HYPERVISOR: exec_cmd: hypervisor stop 
Dec 04 11:11:29.529 HYPERVISOR: Stopped.
Dec 04 11:11:29.529 GENERAL: reset done.
