Dec 04 11:10:04.169 HYPERVISOR: Release 0.2.17-amd64/Linux (tag 2017072410)
Dec 04 11:10:04.169 HYPERVISOR: Started on IP = 127.0.0.1, TCP port = 46145.
Dec 04 11:10:04.180 HYPERVISOR: exec_cmd: hypervisor version 
Dec 04 11:10:04.181 HYPERVISOR: exec_cmd: hypervisor working_dir /media/actionmystique/SAMSUNG5-VMs/Labs/GNS3/git-Public-Labs-Collection/CCNP/TBSHOOT/L3-Technologies/IPv6/Routing-Protocols/RIPng/Jean-Christophe_Manciot/1+/TT 2-linux/project-files/dynamips 
Dec 04 11:10:04.181 GENERAL: working_dir=/media/actionmystique/SAMSUNG5-VMs/Labs/GNS3/git-Public-Labs-Collection/CCNP/TBSHOOT/L3-Technologies/IPv6/Routing-Protocols/RIPng/Jean-Christophe_Manciot/1+/TT 2-linux/project-files/dynamips
Dec 04 11:10:04.181 HYPERVISOR: exec_cmd: vm create ESW2 2 c3725 
Dec 04 11:10:04.181 VM: VM ESW2 created.
Dec 04 11:10:04.182 HYPERVISOR: exec_cmd: vm set_con_tcp_port ESW2 2005 
Dec 04 11:10:04.183 HYPERVISOR: exec_cmd: c3725 get_mac_addr ESW2 
Dec 04 11:10:04.183 HYPERVISOR: exec_cmd: vm set_nvram ESW2 256 
Dec 04 11:10:04.184 HYPERVISOR: exec_cmd: vm set_ios ESW2 /media/actionmystique/SAMSUNG5-VMs/Images/GNS3/IOS/c3725-adventerprisek9-mz.124-15.T10.image 
Dec 04 11:10:04.185 HYPERVISOR: exec_cmd: c3725 set_mac_addr ESW2 c202.1bd4.0000 
Dec 04 11:10:04.186 HYPERVISOR: exec_cmd: vm get_status ESW2 
Dec 04 11:10:04.186 HYPERVISOR: exec_cmd: vm slot_add_binding ESW2 1 0 NM-16ESW 
Dec 04 11:10:04.187 HYPERVISOR: exec_cmd: vm get_status ESW2 
Dec 04 11:10:04.188 HYPERVISOR: exec_cmd: vm set_idle_pc ESW2 0x614ac27c 
Dec 04 11:10:04.190 HYPERVISOR: exec_cmd: vm set_disk0 ESW2 1 
Dec 04 11:10:04.191 HYPERVISOR: exec_cmd: vm slot_add_binding ESW2 0 16 WIC-2T 
Dec 04 11:10:04.192 HYPERVISOR: exec_cmd: vm set_config ESW2 configs/ios_base_startup-config.txt 
Dec 04 11:10:04.193 HYPERVISOR: exec_cmd: vm set_config ESW2 configs/ios_base_startup-config.txt configs/ios_base_private-config.txt 
Dec 04 11:10:04.368 HYPERVISOR: exec_cmd: nio create_udp udp-d8cd3bf4-5442-4be3-b241-463897fffb06 15011 127.0.0.1 15009 
Dec 04 11:10:04.369 HYPERVISOR: exec_cmd: vm slot_add_nio_binding ESW2 1 0 udp-d8cd3bf4-5442-4be3-b241-463897fffb06 
Dec 04 11:10:04.369 HYPERVISOR: exec_cmd: vm get_status ESW2 
