Nov 27 16:12:15.394 HYPERVISOR: Release 0.2.17-amd64/Linux (tag 2017072410)
Nov 27 16:12:15.394 HYPERVISOR: Started on IP = 127.0.0.1, TCP port = 56169.
Nov 27 16:12:15.405 HYPERVISOR: exec_cmd: hypervisor version 
Nov 27 16:12:15.405 HYPERVISOR: exec_cmd: hypervisor working_dir /media/actionmystique/SAMSUNG5-VMs/Labs/GNS3/git-Public-Labs-Collection/CCNP/TBSHOOT/L2-Technologies/SPAN-RSPAN/Jean-Christophe_Manciot/1+/TT 1-solutions-linux/project-files/dynamips 
Nov 27 16:12:15.405 GENERAL: working_dir=/media/actionmystique/SAMSUNG5-VMs/Labs/GNS3/git-Public-Labs-Collection/CCNP/TBSHOOT/L2-Technologies/SPAN-RSPAN/Jean-Christophe_Manciot/1+/TT 1-solutions-linux/project-files/dynamips
Nov 27 16:12:15.405 HYPERVISOR: exec_cmd: vm create ESW2 2 c3725 
Nov 27 16:12:15.405 VM: VM ESW2 created.
Nov 27 16:12:15.406 HYPERVISOR: exec_cmd: vm set_con_tcp_port ESW2 2002 
Nov 27 16:12:15.406 HYPERVISOR: exec_cmd: c3725 get_mac_addr ESW2 
Nov 27 16:12:15.406 HYPERVISOR: exec_cmd: vm set_nvram ESW2 256 
Nov 27 16:12:15.407 HYPERVISOR: exec_cmd: vm get_status ESW2 
Nov 27 16:12:15.407 HYPERVISOR: exec_cmd: vm set_idle_pc ESW2 0x60c05928 
Nov 27 16:12:15.407 HYPERVISOR: exec_cmd: c3725 set_mac_addr ESW2 c202.3b70.0000 
Nov 27 16:12:15.408 HYPERVISOR: exec_cmd: vm get_status ESW2 
Nov 27 16:12:15.408 HYPERVISOR: exec_cmd: vm slot_add_binding ESW2 1 0 NM-16ESW 
Nov 27 16:12:15.409 HYPERVISOR: exec_cmd: vm set_ios ESW2 /media/actionmystique/SAMSUNG5-VMs/Images/GNS3/IOS/c3725-adventerprisek9-mz.124-15.T10.image 
Nov 27 16:12:15.409 HYPERVISOR: exec_cmd: vm slot_add_binding ESW2 0 16 WIC-2T 
Nov 27 16:12:15.410 HYPERVISOR: exec_cmd: vm set_disk0 ESW2 1 
Nov 27 16:12:15.410 HYPERVISOR: exec_cmd: vm set_config ESW2 configs/i2_startup-config.cfg 
Nov 27 16:12:15.411 HYPERVISOR: exec_cmd: vm set_config ESW2 configs/i2_startup-config.cfg configs/i2_private-config.cfg 
Nov 27 16:12:15.541 HYPERVISOR: exec_cmd: nio create_udp udp-fb7d3043-a000-4645-8b6a-ce604c0d0723 15001 127.0.0.1 15000 
Nov 27 16:12:15.545 HYPERVISOR: exec_cmd: vm slot_add_nio_binding ESW2 1 2 udp-fb7d3043-a000-4645-8b6a-ce604c0d0723 
Nov 27 16:12:15.545 HYPERVISOR: exec_cmd: vm get_status ESW2 
Nov 27 16:12:15.554 HYPERVISOR: exec_cmd: nio create_udp udp-321f0d07-7ec8-4726-b621-95e43b383648 15004 127.0.0.1 15003 
Nov 27 16:12:15.556 HYPERVISOR: exec_cmd: vm slot_add_nio_binding ESW2 1 1 udp-321f0d07-7ec8-4726-b621-95e43b383648 
Nov 27 16:12:15.556 HYPERVISOR: exec_cmd: vm get_status ESW2 
Nov 27 16:12:15.607 HYPERVISOR: exec_cmd: nio create_udp udp-1c38ae4d-a308-47e7-8fd7-e738b41e37c1 15007 127.0.0.1 15002 
Nov 27 16:12:15.607 HYPERVISOR: exec_cmd: vm slot_add_nio_binding ESW2 1 0 udp-1c38ae4d-a308-47e7-8fd7-e738b41e37c1 
Nov 27 16:12:15.608 HYPERVISOR: exec_cmd: vm get_status ESW2 
