Nov 27 16:12:15.375 HYPERVISOR: Release 0.2.17-amd64/Linux (tag 2017072410)
Nov 27 16:12:15.375 HYPERVISOR: Started on IP = 127.0.0.1, TCP port = 42087.
Nov 27 16:12:15.390 HYPERVISOR: exec_cmd: hypervisor version 
Nov 27 16:12:15.390 HYPERVISOR: exec_cmd: hypervisor working_dir /media/actionmystique/SAMSUNG5-VMs/Labs/GNS3/git-Public-Labs-Collection/CCNP/TBSHOOT/L2-Technologies/SPAN-RSPAN/Jean-Christophe_Manciot/1+/TT 1-solutions-linux/project-files/dynamips 
Nov 27 16:12:15.390 GENERAL: working_dir=/media/actionmystique/SAMSUNG5-VMs/Labs/GNS3/git-Public-Labs-Collection/CCNP/TBSHOOT/L2-Technologies/SPAN-RSPAN/Jean-Christophe_Manciot/1+/TT 1-solutions-linux/project-files/dynamips
Nov 27 16:12:15.391 HYPERVISOR: exec_cmd: vm create ESW3 3 c3725 
Nov 27 16:12:15.391 VM: VM ESW3 created.
Nov 27 16:12:15.391 HYPERVISOR: exec_cmd: vm set_con_tcp_port ESW3 2003 
Nov 27 16:12:15.391 HYPERVISOR: exec_cmd: c3725 get_mac_addr ESW3 
Nov 27 16:12:15.392 HYPERVISOR: exec_cmd: vm set_nvram ESW3 256 
Nov 27 16:12:15.392 HYPERVISOR: exec_cmd: vm get_status ESW3 
Nov 27 16:12:15.392 HYPERVISOR: exec_cmd: vm set_idle_pc ESW3 0x60c05928 
Nov 27 16:12:15.393 HYPERVISOR: exec_cmd: c3725 set_mac_addr ESW3 c203.3b82.0000 
Nov 27 16:12:15.393 HYPERVISOR: exec_cmd: vm get_status ESW3 
Nov 27 16:12:15.394 HYPERVISOR: exec_cmd: vm slot_add_binding ESW3 1 0 NM-16ESW 
Nov 27 16:12:15.394 HYPERVISOR: exec_cmd: vm set_ios ESW3 /media/actionmystique/SAMSUNG5-VMs/Images/GNS3/IOS/c3725-adventerprisek9-mz.124-15.T10.image 
Nov 27 16:12:15.394 HYPERVISOR: exec_cmd: vm slot_add_binding ESW3 0 16 WIC-2T 
Nov 27 16:12:15.395 HYPERVISOR: exec_cmd: vm set_disk0 ESW3 1 
Nov 27 16:12:15.395 HYPERVISOR: exec_cmd: vm set_config ESW3 configs/i3_startup-config.cfg 
Nov 27 16:12:15.396 HYPERVISOR: exec_cmd: vm set_config ESW3 configs/i3_startup-config.cfg configs/i3_private-config.cfg 
Nov 27 16:12:15.544 HYPERVISOR: exec_cmd: nio create_udp udp-7e27abee-80c8-4373-abb7-de24f770df8b 15000 127.0.0.1 15001 
Nov 27 16:12:15.545 HYPERVISOR: exec_cmd: vm slot_add_nio_binding ESW3 1 2 udp-7e27abee-80c8-4373-abb7-de24f770df8b 
Nov 27 16:12:15.546 HYPERVISOR: exec_cmd: vm get_status ESW3 
Nov 27 16:12:15.593 HYPERVISOR: exec_cmd: nio create_udp udp-8b51a682-dd34-4e38-928e-01701db8e422 15005 127.0.0.1 15006 
Nov 27 16:12:15.593 HYPERVISOR: exec_cmd: vm slot_add_nio_binding ESW3 1 1 udp-8b51a682-dd34-4e38-928e-01701db8e422 
Nov 27 16:12:15.594 HYPERVISOR: exec_cmd: vm get_status ESW3 
