Sep 05 15:45:20.852 HYPERVISOR: Release 0.2.16-amd64/Linux (tag 2015060118)
Sep 05 15:45:20.852 HYPERVISOR: Started on IP = 127.0.0.1, TCP port = 47138.
Sep 05 15:45:20.864 HYPERVISOR: exec_cmd: hypervisor version 
Sep 05 15:45:20.865 HYPERVISOR: exec_cmd: hypervisor working_dir /media/actionmystique/SAMSUNG-850-Ext4/Labs/GNS3/CCNP/TBSHOOT/Infrastructure-Services/Device-Management/Telnet-SSH/Jean-Christophe_Manciot/1+/TT 1-solutions-linux/project-files/dynamips 
Sep 05 15:45:20.865 GENERAL: working_dir=/media/actionmystique/SAMSUNG-850-Ext4/Labs/GNS3/CCNP/TBSHOOT/Infrastructure-Services/Device-Management/Telnet-SSH/Jean-Christophe_Manciot/1+/TT 1-solutions-linux/project-files/dynamips
Sep 05 15:45:20.865 HYPERVISOR: exec_cmd: vm create ESW1 1 c3725 
Sep 05 15:45:20.865 VM: VM ESW1 created.
Sep 05 15:45:20.865 HYPERVISOR: exec_cmd: vm set_con_tcp_port ESW1 2004 
Sep 05 15:45:20.866 HYPERVISOR: exec_cmd: c3725 get_mac_addr ESW1 
Sep 05 15:45:20.866 HYPERVISOR: exec_cmd: vm get_status ESW1 
Sep 05 15:45:20.866 HYPERVISOR: exec_cmd: vm slot_add_binding ESW1 1 0 NM-16ESW 
Sep 05 15:45:20.867 HYPERVISOR: exec_cmd: vm get_status ESW1 
Sep 05 15:45:20.867 HYPERVISOR: exec_cmd: vm set_idle_pc ESW1 0x0 
Sep 05 15:45:20.867 HYPERVISOR: exec_cmd: vm set_disk0 ESW1 1 
Sep 05 15:45:20.868 HYPERVISOR: exec_cmd: vm set_ios ESW1 /media/actionmystique/SAMSUNG-850-Ext4/Images/GNS3/IOS/c3725-adventerprisek9-mz.124-15.T10.image 
Sep 05 15:45:20.868 HYPERVISOR: exec_cmd: vm slot_add_binding ESW1 0 16 WIC-2T 
Sep 05 15:45:20.868 HYPERVISOR: exec_cmd: c3725 set_mac_addr ESW1 c201.1a63.0000 
Sep 05 15:45:20.869 HYPERVISOR: exec_cmd: vm set_nvram ESW1 256 
Sep 05 15:45:20.869 HYPERVISOR: exec_cmd: vm set_config ESW1 configs/i1_startup-config.cfg 
Sep 05 15:45:20.870 HYPERVISOR: exec_cmd: vm set_config ESW1 configs/i1_startup-config.cfg configs/i1_private-config.cfg 
Sep 05 15:45:20.929 HYPERVISOR: exec_cmd: nio create_tap tap-7c4c4e2d-d62f-453c-b8e7-b3626b42fbdc tap0 
Sep 05 15:45:20.931 HYPERVISOR: exec_cmd: vm slot_add_nio_binding ESW1 1 1 tap-7c4c4e2d-d62f-453c-b8e7-b3626b42fbdc 
Sep 05 15:45:20.932 HYPERVISOR: exec_cmd: vm get_status ESW1 
Sep 05 15:45:20.975 HYPERVISOR: exec_cmd: nio create_udp udp-86cd318c-5a8b-471f-b247-53b43e0edda9 15004 127.0.0.1 15005 
Sep 05 15:45:20.980 HYPERVISOR: exec_cmd: vm slot_add_nio_binding ESW1 1 0 udp-86cd318c-5a8b-471f-b247-53b43e0edda9 
Sep 05 15:45:20.981 HYPERVISOR: exec_cmd: vm get_status ESW1 
Sep 05 15:45:22.492 HYPERVISOR: exec_cmd: vm create Ghost 0 c3725 
Sep 05 15:45:22.492 VM: VM Ghost created.
Sep 05 15:45:22.494 HYPERVISOR: exec_cmd: vm set_ios Ghost /media/actionmystique/SAMSUNG-850-Ext4/Images/GNS3/IOS/c3725-adventerprisek9-mz.124-15.T10.image 
Sep 05 15:45:22.499 HYPERVISOR: exec_cmd: vm set_ghost_status Ghost 1 
Sep 05 15:45:22.508 HYPERVISOR: exec_cmd: vm set_ghost_file Ghost c3725-adventerprisek9-mz.124-15.T10.image-128.ghost 
Sep 05 15:45:22.509 HYPERVISOR: exec_cmd: vm get_status Ghost 
Sep 05 15:45:22.511 HYPERVISOR: exec_cmd: vm start Ghost 
Sep 05 15:45:22.781 HYPERVISOR: exec_cmd: vm get_status Ghost 
Sep 05 15:45:22.782 HYPERVISOR: exec_cmd: vm stop Ghost 
Sep 05 15:45:22.935 VM: VM Ghost shutdown.
Sep 05 15:45:22.936 HYPERVISOR: exec_cmd: vm clean_delete Ghost 
Sep 05 15:45:22.936 VM: VM Ghost destroyed.
Sep 05 15:45:22.937 HYPERVISOR: exec_cmd: vm set_ghost_status ESW1 2 
Sep 05 15:45:22.938 HYPERVISOR: exec_cmd: vm set_ghost_file ESW1 c3725-adventerprisek9-mz.124-15.T10.image-128.ghost 
Sep 05 15:45:22.938 HYPERVISOR: exec_cmd: vm get_status ESW1 
Sep 05 15:45:22.939 HYPERVISOR: exec_cmd: vm start ESW1 
Sep 05 15:49:14.122 HYPERVISOR: exec_cmd: vm extract_config ESW1 
Sep 05 15:49:17.252 HYPERVISOR: exec_cmd: vm get_status ESW1 
Sep 05 15:49:17.253 HYPERVISOR: exec_cmd: vm stop ESW1 
Sep 05 15:49:17.342 VM: VM ESW1 shutdown.
Sep 05 15:49:17.343 HYPERVISOR: exec_cmd: vm extract_config ESW1 
Sep 05 15:49:22.949 HYPERVISOR: exec_cmd: vm get_status ESW1 
Sep 05 15:49:22.949 HYPERVISOR: exec_cmd: vm extract_config ESW1 
Sep 05 15:49:22.950 HYPERVISOR: exec_cmd: vm delete ESW1 
Sep 05 15:49:22.950 VM: VM ESW1 destroyed.
Sep 05 15:49:22.950 HYPERVISOR: exec_cmd: hypervisor stop 
Sep 05 15:49:23.081 HYPERVISOR: Stopped.
Sep 05 15:49:23.081 GENERAL: reset done.
