Nov 26 20:03:06.527 HYPERVISOR: Release 0.2.17-amd64/Linux (tag 2017072410)
Nov 26 20:03:06.527 HYPERVISOR: Started on IP = 127.0.0.1, TCP port = 53563.
Nov 26 20:03:06.541 HYPERVISOR: exec_cmd: hypervisor version 
Nov 26 20:03:06.544 HYPERVISOR: exec_cmd: hypervisor working_dir /media/actionmystique/SAMSUNG5-VMs/Labs/GNS3/git-Public-Labs-Collection/CCDP/ARCH/BGP/Jean-Christophe_Manciot/1+/Confederations-linux-/project-files/dynamips 
Nov 26 20:03:06.544 GENERAL: working_dir=/media/actionmystique/SAMSUNG5-VMs/Labs/GNS3/git-Public-Labs-Collection/CCDP/ARCH/BGP/Jean-Christophe_Manciot/1+/Confederations-linux-/project-files/dynamips
Nov 26 20:03:06.546 HYPERVISOR: exec_cmd: vm create Berlin 3 c7200 
Nov 26 20:03:06.546 VM: VM Berlin created.
Nov 26 20:03:06.548 HYPERVISOR: exec_cmd: vm set_con_tcp_port Berlin 2103 
Nov 26 20:03:06.550 HYPERVISOR: exec_cmd: vm set_aux_tcp_port Berlin 2503 
Nov 26 20:03:06.551 HYPERVISOR: exec_cmd: c7200 get_mac_addr Berlin 
Nov 26 20:03:06.552 HYPERVISOR: exec_cmd: vm get_status Berlin 
Nov 26 20:03:06.553 HYPERVISOR: exec_cmd: vm slot_add_binding Berlin 0 0 C7200-IO-FE 
Nov 26 20:03:06.553 HYPERVISOR: exec_cmd: vm get_status Berlin 
Nov 26 20:03:06.554 HYPERVISOR: exec_cmd: vm set_idle_pc Berlin 0x6062d534 
Nov 26 20:03:06.555 HYPERVISOR: exec_cmd: vm get_status Berlin 
Nov 26 20:03:06.561 HYPERVISOR: exec_cmd: vm slot_add_binding Berlin 3 0 PA-GE 
Nov 26 20:03:06.573 HYPERVISOR: exec_cmd: vm set_ram Berlin 512 
Nov 26 20:03:06.575 HYPERVISOR: exec_cmd: vm set_ios Berlin /media/actionmystique/SAMSUNG5-VMs/Images/GNS3/IOS/c7200-adventerprisek9-mz.152-4.M2.image 
Nov 26 20:03:06.578 HYPERVISOR: exec_cmd: vm get_status Berlin 
Nov 26 20:03:06.579 HYPERVISOR: exec_cmd: vm slot_add_binding Berlin 1 0 PA-GE 
Nov 26 20:03:06.580 HYPERVISOR: exec_cmd: vm get_status Berlin 
Nov 26 20:03:06.581 HYPERVISOR: exec_cmd: vm slot_remove_binding Berlin 0 0 
Nov 26 20:03:06.583 HYPERVISOR: exec_cmd: vm get_status Berlin 
Nov 26 20:03:06.584 HYPERVISOR: exec_cmd: vm slot_add_binding Berlin 0 0 C7200-IO-GE-E 
Nov 26 20:03:06.585 HYPERVISOR: exec_cmd: vm get_status Berlin 
Nov 26 20:03:06.587 HYPERVISOR: exec_cmd: vm slot_add_binding Berlin 2 0 PA-GE 
Nov 26 20:03:06.588 HYPERVISOR: exec_cmd: c7200 set_mac_addr Berlin ca03.1121.0000 
Nov 26 20:03:06.590 HYPERVISOR: exec_cmd: vm set_config Berlin configs/i3_startup-config.cfg 
Nov 26 20:03:06.963 HYPERVISOR: exec_cmd: nio create_udp udp-af1701ee-0396-4820-a81e-5e780b032c14 15008 127.0.0.1 15004 
Nov 26 20:03:06.964 HYPERVISOR: exec_cmd: vm slot_add_nio_binding Berlin 0 0 udp-af1701ee-0396-4820-a81e-5e780b032c14 
Nov 26 20:03:06.968 HYPERVISOR: exec_cmd: vm get_status Berlin 
Nov 26 20:03:06.978 HYPERVISOR: exec_cmd: nio create_udp udp-53a4bbad-e735-4401-82cd-bc7ccab9f1f2 15005 127.0.0.1 15009 
Nov 26 20:03:06.982 HYPERVISOR: exec_cmd: vm slot_add_nio_binding Berlin 3 0 udp-53a4bbad-e735-4401-82cd-bc7ccab9f1f2 
Nov 26 20:03:06.983 HYPERVISOR: exec_cmd: vm get_status Berlin 
Nov 26 20:03:07.012 HYPERVISOR: exec_cmd: nio create_udp udp-746ba368-53a8-4ae4-8fde-05be7c19e315 15010 127.0.0.1 15011 
Nov 26 20:03:07.013 HYPERVISOR: exec_cmd: vm slot_add_nio_binding Berlin 2 0 udp-746ba368-53a8-4ae4-8fde-05be7c19e315 
Nov 26 20:03:07.014 HYPERVISOR: exec_cmd: vm get_status Berlin 
Nov 26 20:03:07.108 HYPERVISOR: exec_cmd: nio create_udp udp-e19deb2f-70b3-4536-971b-b990cb28b8bd 15020 127.0.0.1 15021 
Nov 26 20:03:07.109 HYPERVISOR: exec_cmd: vm slot_add_nio_binding Berlin 1 0 udp-e19deb2f-70b3-4536-971b-b990cb28b8bd 
Nov 26 20:03:07.109 HYPERVISOR: exec_cmd: vm get_status Berlin 
