Nov 26 20:03:19.372 HYPERVISOR: Release 0.2.17-amd64/Linux (tag 2017072410)
Nov 26 20:03:19.372 HYPERVISOR: Started on IP = 127.0.0.1, TCP port = 33857.
Nov 26 20:03:19.397 HYPERVISOR: exec_cmd: hypervisor version 
Nov 26 20:03:19.399 HYPERVISOR: exec_cmd: hypervisor working_dir /media/actionmystique/SAMSUNG5-VMs/Labs/GNS3/Confederations-linux/project-files/dynamips 
Nov 26 20:03:19.399 GENERAL: working_dir=/media/actionmystique/SAMSUNG5-VMs/Labs/GNS3/Confederations-linux/project-files/dynamips
Nov 26 20:03:19.401 HYPERVISOR: exec_cmd: vm create Amsterdam 2 c7200 
Nov 26 20:03:19.401 VM: VM Amsterdam created.
Nov 26 20:03:19.403 HYPERVISOR: exec_cmd: vm set_con_tcp_port Amsterdam 2102 
Nov 26 20:03:19.404 HYPERVISOR: exec_cmd: vm set_aux_tcp_port Amsterdam 2502 
Nov 26 20:03:19.405 HYPERVISOR: exec_cmd: c7200 get_mac_addr Amsterdam 
Nov 26 20:03:19.411 HYPERVISOR: exec_cmd: vm get_status Amsterdam 
Nov 26 20:03:19.425 HYPERVISOR: exec_cmd: vm slot_add_binding Amsterdam 0 0 C7200-IO-FE 
Nov 26 20:03:19.428 HYPERVISOR: exec_cmd: vm get_status Amsterdam 
Nov 26 20:03:19.430 HYPERVISOR: exec_cmd: vm set_idle_pc Amsterdam 0x6062d534 
Nov 26 20:03:19.432 HYPERVISOR: exec_cmd: vm get_status Amsterdam 
Nov 26 20:03:19.434 HYPERVISOR: exec_cmd: vm slot_add_binding Amsterdam 3 0 PA-GE 
Nov 26 20:03:19.436 HYPERVISOR: exec_cmd: vm set_ram Amsterdam 512 
Nov 26 20:03:19.439 HYPERVISOR: exec_cmd: vm set_ios Amsterdam /media/actionmystique/SAMSUNG5-VMs/Images/GNS3/IOS/c7200-adventerprisek9-mz.152-4.M2.image 
Nov 26 20:03:19.443 HYPERVISOR: exec_cmd: vm get_status Amsterdam 
Nov 26 20:03:19.445 HYPERVISOR: exec_cmd: vm slot_add_binding Amsterdam 1 0 PA-GE 
Nov 26 20:03:19.447 HYPERVISOR: exec_cmd: vm get_status Amsterdam 
Nov 26 20:03:19.449 HYPERVISOR: exec_cmd: vm slot_remove_binding Amsterdam 0 0 
Nov 26 20:03:19.451 HYPERVISOR: exec_cmd: vm get_status Amsterdam 
Nov 26 20:03:19.452 HYPERVISOR: exec_cmd: vm slot_add_binding Amsterdam 0 0 C7200-IO-GE-E 
Nov 26 20:03:19.454 HYPERVISOR: exec_cmd: vm get_status Amsterdam 
Nov 26 20:03:19.455 HYPERVISOR: exec_cmd: vm slot_add_binding Amsterdam 2 0 PA-GE 
Nov 26 20:03:19.457 HYPERVISOR: exec_cmd: c7200 set_mac_addr Amsterdam ca02.1113.0000 
Nov 26 20:03:19.458 HYPERVISOR: exec_cmd: vm set_config Amsterdam configs/i2_startup-config.cfg 
Nov 26 20:03:19.793 HYPERVISOR: exec_cmd: nio create_udp udp-033d4088-1b67-41ba-9c2b-fc63f511ae12 15004 127.0.0.1 15006 
Nov 26 20:03:19.793 HYPERVISOR: exec_cmd: vm slot_add_nio_binding Amsterdam 2 0 udp-033d4088-1b67-41ba-9c2b-fc63f511ae12 
Nov 26 20:03:19.794 HYPERVISOR: exec_cmd: vm get_status Amsterdam 
Nov 26 20:03:19.801 HYPERVISOR: exec_cmd: nio create_udp udp-ffc9d9da-980a-49bb-99c2-9eed25ebd71e 15005 127.0.0.1 15007 
Nov 26 20:03:19.804 HYPERVISOR: exec_cmd: vm slot_add_nio_binding Amsterdam 3 0 udp-ffc9d9da-980a-49bb-99c2-9eed25ebd71e 
Nov 26 20:03:19.804 HYPERVISOR: exec_cmd: vm get_status Amsterdam 
Nov 26 20:03:19.825 HYPERVISOR: exec_cmd: nio create_udp udp-0102fb69-314e-410b-844e-c441b30a8c88 15008 127.0.0.1 15010 
Nov 26 20:03:19.825 HYPERVISOR: exec_cmd: vm slot_add_nio_binding Amsterdam 1 0 udp-0102fb69-314e-410b-844e-c441b30a8c88 
Nov 26 20:03:19.826 HYPERVISOR: exec_cmd: vm get_status Amsterdam 
Nov 26 20:03:19.852 HYPERVISOR: exec_cmd: nio create_udp udp-57139e33-1d44-4c90-932a-cd7d9b2c70cf 15009 127.0.0.1 15011 
Nov 26 20:03:19.853 HYPERVISOR: exec_cmd: vm slot_add_nio_binding Amsterdam 0 0 udp-57139e33-1d44-4c90-932a-cd7d9b2c70cf 
Nov 26 20:03:19.854 HYPERVISOR: exec_cmd: vm get_status Amsterdam 
Nov 26 20:03:25.478 HYPERVISOR: exec_cmd: vm get_status Amsterdam 
Nov 26 20:03:25.480 HYPERVISOR: exec_cmd: vm extract_config Amsterdam 
Nov 26 20:03:25.484 HYPERVISOR: exec_cmd: vm delete Amsterdam 
Nov 26 20:03:25.485 VM: VM Amsterdam destroyed.
Nov 26 20:03:25.488 HYPERVISOR: exec_cmd: hypervisor stop 
Nov 26 20:03:25.897 HYPERVISOR: Stopped.
Nov 26 20:03:25.897 GENERAL: reset done.
