Nov 26 20:03:19.355 HYPERVISOR: Release 0.2.17-amd64/Linux (tag 2017072410)
Nov 26 20:03:19.355 HYPERVISOR: Started on IP = 127.0.0.1, TCP port = 56337.
Nov 26 20:03:19.395 HYPERVISOR: exec_cmd: hypervisor version 
Nov 26 20:03:19.398 HYPERVISOR: exec_cmd: hypervisor working_dir /media/actionmystique/SAMSUNG5-VMs/Labs/GNS3/Confederations-linux/project-files/dynamips 
Nov 26 20:03:19.398 GENERAL: working_dir=/media/actionmystique/SAMSUNG5-VMs/Labs/GNS3/Confederations-linux/project-files/dynamips
Nov 26 20:03:19.399 HYPERVISOR: exec_cmd: vm create London 4 c7200 
Nov 26 20:03:19.399 VM: VM London created.
Nov 26 20:03:19.401 HYPERVISOR: exec_cmd: vm set_con_tcp_port London 2105 
Nov 26 20:03:19.403 HYPERVISOR: exec_cmd: vm set_aux_tcp_port London 2505 
Nov 26 20:03:19.404 HYPERVISOR: exec_cmd: c7200 get_mac_addr London 
Nov 26 20:03:19.406 HYPERVISOR: exec_cmd: vm get_status London 
Nov 26 20:03:19.412 HYPERVISOR: exec_cmd: vm slot_add_binding London 0 0 C7200-IO-FE 
Nov 26 20:03:19.425 HYPERVISOR: exec_cmd: vm get_status London 
Nov 26 20:03:19.428 HYPERVISOR: exec_cmd: vm set_idle_pc London 0x6062d534 
Nov 26 20:03:19.430 HYPERVISOR: exec_cmd: vm get_status London 
Nov 26 20:03:19.432 HYPERVISOR: exec_cmd: vm slot_add_binding London 3 0 PA-GE 
Nov 26 20:03:19.434 HYPERVISOR: exec_cmd: vm set_ram London 512 
Nov 26 20:03:19.437 HYPERVISOR: exec_cmd: vm set_ios London /media/actionmystique/SAMSUNG5-VMs/Images/GNS3/IOS/c7200-adventerprisek9-mz.152-4.M2.image 
Nov 26 20:03:19.440 HYPERVISOR: exec_cmd: vm get_status London 
Nov 26 20:03:19.443 HYPERVISOR: exec_cmd: vm slot_add_binding London 1 0 PA-GE 
Nov 26 20:03:19.445 HYPERVISOR: exec_cmd: vm get_status London 
Nov 26 20:03:19.448 HYPERVISOR: exec_cmd: vm slot_remove_binding London 0 0 
Nov 26 20:03:19.449 HYPERVISOR: exec_cmd: vm get_status London 
Nov 26 20:03:19.451 HYPERVISOR: exec_cmd: vm slot_add_binding London 0 0 C7200-IO-GE-E 
Nov 26 20:03:19.452 HYPERVISOR: exec_cmd: vm get_status London 
Nov 26 20:03:19.454 HYPERVISOR: exec_cmd: vm slot_add_binding London 4 0 PA-GE 
Nov 26 20:03:19.455 HYPERVISOR: exec_cmd: vm get_status London 
Nov 26 20:03:19.457 HYPERVISOR: exec_cmd: vm slot_add_binding London 2 0 PA-GE 
Nov 26 20:03:19.459 HYPERVISOR: exec_cmd: c7200 set_mac_addr London ca04.113f.0000 
Nov 26 20:03:19.478 HYPERVISOR: exec_cmd: vm set_config London configs/i4_startup-config.cfg 
Nov 26 20:03:19.860 HYPERVISOR: exec_cmd: nio create_udp udp-576e0988-f7df-431b-9a02-86a275a62264 15011 127.0.0.1 15009 
Nov 26 20:03:19.861 HYPERVISOR: exec_cmd: vm slot_add_nio_binding London 0 0 udp-576e0988-f7df-431b-9a02-86a275a62264 
Nov 26 20:03:19.861 HYPERVISOR: exec_cmd: vm get_status London 
Nov 26 20:03:19.868 HYPERVISOR: exec_cmd: nio create_udp udp-5dac9a85-54e7-49f9-b2d0-323a4607eff3 15012 127.0.0.1 15013 
Nov 26 20:03:19.869 HYPERVISOR: exec_cmd: vm slot_add_nio_binding London 2 0 udp-5dac9a85-54e7-49f9-b2d0-323a4607eff3 
Nov 26 20:03:19.869 HYPERVISOR: exec_cmd: vm get_status London 
Nov 26 20:03:19.900 HYPERVISOR: exec_cmd: nio create_udp udp-e9425f85-eecb-4183-8fc0-7ba0e41dd9f8 15015 127.0.0.1 15014 
Nov 26 20:03:19.901 HYPERVISOR: exec_cmd: vm slot_add_nio_binding London 3 0 udp-e9425f85-eecb-4183-8fc0-7ba0e41dd9f8 
Nov 26 20:03:19.901 HYPERVISOR: exec_cmd: vm get_status London 
Nov 26 20:03:19.920 HYPERVISOR: exec_cmd: nio create_udp udp-76398bbf-7e94-476f-9980-b7eb1699e773 15017 127.0.0.1 15016 
Nov 26 20:03:19.921 HYPERVISOR: exec_cmd: vm slot_add_nio_binding London 1 0 udp-76398bbf-7e94-476f-9980-b7eb1699e773 
Nov 26 20:03:19.921 HYPERVISOR: exec_cmd: vm get_status London 
Nov 26 20:03:19.972 HYPERVISOR: exec_cmd: nio create_udp udp-67104f38-1dd8-4dc7-b943-7d3bdf87e13b 15023 127.0.0.1 15022 
Nov 26 20:03:19.973 HYPERVISOR: exec_cmd: vm slot_add_nio_binding London 4 0 udp-67104f38-1dd8-4dc7-b943-7d3bdf87e13b 
Nov 26 20:03:19.973 HYPERVISOR: exec_cmd: vm get_status London 
Nov 26 20:03:25.477 HYPERVISOR: exec_cmd: vm get_status London 
Nov 26 20:03:25.479 HYPERVISOR: exec_cmd: vm extract_config London 
Nov 26 20:03:25.482 HYPERVISOR: exec_cmd: vm delete London 
Nov 26 20:03:25.482 VM: VM London destroyed.
Nov 26 20:03:25.487 HYPERVISOR: exec_cmd: hypervisor stop 
Nov 26 20:03:25.897 HYPERVISOR: Stopped.
Nov 26 20:03:25.897 GENERAL: reset done.
