Nov 26 20:03:19.366 HYPERVISOR: Release 0.2.17-amd64/Linux (tag 2017072410)
Nov 26 20:03:19.366 HYPERVISOR: Started on IP = 127.0.0.1, TCP port = 60723.
Nov 26 20:03:19.396 HYPERVISOR: exec_cmd: hypervisor version 
Nov 26 20:03:19.398 HYPERVISOR: exec_cmd: hypervisor working_dir /media/actionmystique/SAMSUNG5-VMs/Labs/GNS3/Confederations-linux/project-files/dynamips 
Nov 26 20:03:19.398 GENERAL: working_dir=/media/actionmystique/SAMSUNG5-VMs/Labs/GNS3/Confederations-linux/project-files/dynamips
Nov 26 20:03:19.400 HYPERVISOR: exec_cmd: vm create Berlin 3 c7200 
Nov 26 20:03:19.400 VM: VM Berlin created.
Nov 26 20:03:19.402 HYPERVISOR: exec_cmd: vm set_con_tcp_port Berlin 2103 
Nov 26 20:03:19.403 HYPERVISOR: exec_cmd: vm set_aux_tcp_port Berlin 2503 
Nov 26 20:03:19.405 HYPERVISOR: exec_cmd: c7200 get_mac_addr Berlin 
Nov 26 20:03:19.406 HYPERVISOR: exec_cmd: vm get_status Berlin 
Nov 26 20:03:19.413 HYPERVISOR: exec_cmd: vm slot_add_binding Berlin 0 0 C7200-IO-FE 
Nov 26 20:03:19.427 HYPERVISOR: exec_cmd: vm get_status Berlin 
Nov 26 20:03:19.429 HYPERVISOR: exec_cmd: vm set_idle_pc Berlin 0x6062d534 
Nov 26 20:03:19.431 HYPERVISOR: exec_cmd: vm get_status Berlin 
Nov 26 20:03:19.433 HYPERVISOR: exec_cmd: vm slot_add_binding Berlin 3 0 PA-GE 
Nov 26 20:03:19.435 HYPERVISOR: exec_cmd: vm set_ram Berlin 512 
Nov 26 20:03:19.438 HYPERVISOR: exec_cmd: vm set_ios Berlin /media/actionmystique/SAMSUNG5-VMs/Images/GNS3/IOS/c7200-adventerprisek9-mz.152-4.M2.image 
Nov 26 20:03:19.442 HYPERVISOR: exec_cmd: vm get_status Berlin 
Nov 26 20:03:19.445 HYPERVISOR: exec_cmd: vm slot_add_binding Berlin 1 0 PA-GE 
Nov 26 20:03:19.447 HYPERVISOR: exec_cmd: vm get_status Berlin 
Nov 26 20:03:19.448 HYPERVISOR: exec_cmd: vm slot_remove_binding Berlin 0 0 
Nov 26 20:03:19.450 HYPERVISOR: exec_cmd: vm get_status Berlin 
Nov 26 20:03:19.452 HYPERVISOR: exec_cmd: vm slot_add_binding Berlin 0 0 C7200-IO-GE-E 
Nov 26 20:03:19.453 HYPERVISOR: exec_cmd: vm get_status Berlin 
Nov 26 20:03:19.455 HYPERVISOR: exec_cmd: vm slot_add_binding Berlin 2 0 PA-GE 
Nov 26 20:03:19.456 HYPERVISOR: exec_cmd: c7200 set_mac_addr Berlin ca03.1121.0000 
Nov 26 20:03:19.458 HYPERVISOR: exec_cmd: vm set_config Berlin configs/i3_startup-config.cfg 
Nov 26 20:03:19.760 HYPERVISOR: exec_cmd: nio create_udp udp-254041f6-f560-42fd-b090-a763b0031f88 15002 127.0.0.1 15003 
Nov 26 20:03:19.761 HYPERVISOR: exec_cmd: vm slot_add_nio_binding Berlin 3 0 udp-254041f6-f560-42fd-b090-a763b0031f88 
Nov 26 20:03:19.761 HYPERVISOR: exec_cmd: vm get_status Berlin 
Nov 26 20:03:19.841 HYPERVISOR: exec_cmd: nio create_udp udp-555f2f4d-7cdb-4290-bbfd-099be1ae4d37 15010 127.0.0.1 15008 
Nov 26 20:03:19.841 HYPERVISOR: exec_cmd: vm slot_add_nio_binding Berlin 0 0 udp-555f2f4d-7cdb-4290-bbfd-099be1ae4d37 
Nov 26 20:03:19.841 HYPERVISOR: exec_cmd: vm get_status Berlin 
Nov 26 20:03:19.908 HYPERVISOR: exec_cmd: nio create_udp udp-4ad5f4e8-a8dd-46a5-90ad-5b98d0c160da 15016 127.0.0.1 15017 
Nov 26 20:03:19.909 HYPERVISOR: exec_cmd: vm slot_add_nio_binding Berlin 1 0 udp-4ad5f4e8-a8dd-46a5-90ad-5b98d0c160da 
Nov 26 20:03:19.909 HYPERVISOR: exec_cmd: vm get_status Berlin 
Nov 26 20:03:19.928 HYPERVISOR: exec_cmd: nio create_udp udp-faf374eb-3111-40e8-ac30-e61cd0dbe079 15018 127.0.0.1 15019 
Nov 26 20:03:19.929 HYPERVISOR: exec_cmd: vm slot_add_nio_binding Berlin 2 0 udp-faf374eb-3111-40e8-ac30-e61cd0dbe079 
Nov 26 20:03:19.929 HYPERVISOR: exec_cmd: vm get_status Berlin 
Nov 26 20:03:25.477 HYPERVISOR: exec_cmd: vm get_status Berlin 
Nov 26 20:03:25.480 HYPERVISOR: exec_cmd: vm extract_config Berlin 
Nov 26 20:03:25.484 HYPERVISOR: exec_cmd: vm delete Berlin 
Nov 26 20:03:25.484 VM: VM Berlin destroyed.
Nov 26 20:03:25.488 HYPERVISOR: exec_cmd: hypervisor stop 
Nov 26 20:03:25.897 HYPERVISOR: Stopped.
Nov 26 20:03:25.897 GENERAL: reset done.
