Nov 27 16:24:46.934 HYPERVISOR: Release 0.2.17-amd64/Linux (tag 2017072410)
Nov 27 16:24:46.934 HYPERVISOR: Started on IP = 127.0.0.1, TCP port = 41585.
Nov 27 16:24:46.940 HYPERVISOR: exec_cmd: hypervisor version 
Nov 27 16:24:46.940 HYPERVISOR: exec_cmd: hypervisor working_dir /media/actionmystique/SAMSUNG5-VMs/Labs/GNS3/git-Public-Labs-Collection/CCNP/TBSHOOT/L3-Technologies/IPv4/IOS-Filtering-Tools/ACL/Jean-Christophe_Manciot/1+/TT 1-linux/project-files/dynamips 
Nov 27 16:24:46.940 GENERAL: working_dir=/media/actionmystique/SAMSUNG5-VMs/Labs/GNS3/git-Public-Labs-Collection/CCNP/TBSHOOT/L3-Technologies/IPv4/IOS-Filtering-Tools/ACL/Jean-Christophe_Manciot/1+/TT 1-linux/project-files/dynamips
Nov 27 16:24:46.940 HYPERVISOR: exec_cmd: vm create ESW2 2 c3725 
Nov 27 16:24:46.940 VM: VM ESW2 created.
Nov 27 16:24:46.941 HYPERVISOR: exec_cmd: vm set_con_tcp_port ESW2 2002 
Nov 27 16:24:46.941 HYPERVISOR: exec_cmd: vm set_aux_tcp_port ESW2 2502 
Nov 27 16:24:46.941 HYPERVISOR: exec_cmd: c3725 get_mac_addr ESW2 
Nov 27 16:24:46.942 HYPERVISOR: exec_cmd: vm set_nvram ESW2 256 
Nov 27 16:24:46.942 HYPERVISOR: exec_cmd: vm get_status ESW2 
Nov 27 16:24:46.942 HYPERVISOR: exec_cmd: vm set_idle_pc ESW2 0x6026b804 
Nov 27 16:24:46.943 HYPERVISOR: exec_cmd: c3725 set_mac_addr ESW2 c202.28c2.0000 
Nov 27 16:24:46.943 HYPERVISOR: exec_cmd: vm get_status ESW2 
Nov 27 16:24:46.943 HYPERVISOR: exec_cmd: vm slot_add_binding ESW2 1 0 NM-16ESW 
Nov 27 16:24:46.944 HYPERVISOR: exec_cmd: vm set_disk0 ESW2 1 
Nov 27 16:24:46.944 HYPERVISOR: exec_cmd: vm set_ios ESW2 /media/actionmystique/SAMSUNG5-VMs/Images/GNS3/IOS/c3725-adventerprisek9-mz.124-15.T10.image 
Nov 27 16:24:46.945 HYPERVISOR: exec_cmd: vm slot_add_binding ESW2 0 16 WIC-2T 
Nov 27 16:24:46.945 HYPERVISOR: exec_cmd: vm set_config ESW2 configs/i2_startup-config.cfg 
Nov 27 16:24:46.946 HYPERVISOR: exec_cmd: vm set_config ESW2 configs/i2_startup-config.cfg configs/i2_private-config.cfg 
Nov 27 16:24:47.053 HYPERVISOR: exec_cmd: nio create_udp udp-8046fc89-0d13-4f3e-b805-f1cb11a7253b 15003 127.0.0.1 15002 
Nov 27 16:24:47.059 HYPERVISOR: exec_cmd: vm slot_add_nio_binding ESW2 1 1 udp-8046fc89-0d13-4f3e-b805-f1cb11a7253b 
Nov 27 16:24:47.059 HYPERVISOR: exec_cmd: vm get_status ESW2 
Nov 27 16:24:55.243 HYPERVISOR: exec_cmd: nio create_tap tap-f20347ed-bf7f-44a3-9010-d20568a25ceb tap0 
Nov 27 16:24:55.243 HYPERVISOR: exec_cmd: vm slot_add_nio_binding ESW2 1 0 tap-f20347ed-bf7f-44a3-9010-d20568a25ceb 
Nov 27 16:24:55.244 HYPERVISOR: exec_cmd: vm get_status ESW2 
