Nov 27 16:11:36.019 HYPERVISOR: Release 0.2.17-amd64/Linux (tag 2017072410)
Nov 27 16:11:36.019 HYPERVISOR: Started on IP = 127.0.0.1, TCP port = 43789.
Nov 27 16:11:36.027 HYPERVISOR: exec_cmd: hypervisor version 
Nov 27 16:11:36.028 HYPERVISOR: exec_cmd: hypervisor working_dir /media/actionmystique/SAMSUNG5-VMs/Labs/GNS3/git-Public-Labs-Collection/CCNP/TBSHOOT/L2-Technologies/SPAN-RSPAN/Jean-Christophe_Manciot/1+/TT 1-linux/project-files/dynamips 
Nov 27 16:11:36.028 GENERAL: working_dir=/media/actionmystique/SAMSUNG5-VMs/Labs/GNS3/git-Public-Labs-Collection/CCNP/TBSHOOT/L2-Technologies/SPAN-RSPAN/Jean-Christophe_Manciot/1+/TT 1-linux/project-files/dynamips
Nov 27 16:11:36.028 HYPERVISOR: exec_cmd: vm create ESW3 3 c3725 
Nov 27 16:11:36.028 VM: VM ESW3 created.
Nov 27 16:11:36.029 HYPERVISOR: exec_cmd: vm set_con_tcp_port ESW3 2003 
Nov 27 16:11:36.030 HYPERVISOR: exec_cmd: c3725 get_mac_addr ESW3 
Nov 27 16:11:36.030 HYPERVISOR: exec_cmd: vm set_nvram ESW3 256 
Nov 27 16:11:36.031 HYPERVISOR: exec_cmd: vm get_status ESW3 
Nov 27 16:11:36.031 HYPERVISOR: exec_cmd: vm set_idle_pc ESW3 0x614ac27c 
Nov 27 16:11:36.032 HYPERVISOR: exec_cmd: c3725 set_mac_addr ESW3 c203.3b82.0000 
Nov 27 16:11:36.033 HYPERVISOR: exec_cmd: vm get_status ESW3 
Nov 27 16:11:36.033 HYPERVISOR: exec_cmd: vm slot_add_binding ESW3 1 0 NM-16ESW 
Nov 27 16:11:36.034 HYPERVISOR: exec_cmd: vm set_ios ESW3 /media/actionmystique/SAMSUNG5-VMs/Images/GNS3/IOS/c3725-adventerprisek9-mz.124-15.T10.image 
Nov 27 16:11:36.035 HYPERVISOR: exec_cmd: vm slot_add_binding ESW3 0 16 WIC-2T 
Nov 27 16:11:36.036 HYPERVISOR: exec_cmd: vm set_disk0 ESW3 1 
Nov 27 16:11:36.037 HYPERVISOR: exec_cmd: vm set_config ESW3 configs/i3_startup-config.cfg 
Nov 27 16:11:36.038 HYPERVISOR: exec_cmd: vm set_config ESW3 configs/i3_startup-config.cfg configs/i3_private-config.cfg 
Nov 27 16:11:36.225 HYPERVISOR: exec_cmd: nio create_udp udp-0c3df460-37c9-446c-bbce-a83b87c57352 15002 127.0.0.1 15005 
Nov 27 16:11:36.228 HYPERVISOR: exec_cmd: vm slot_add_nio_binding ESW3 1 2 udp-0c3df460-37c9-446c-bbce-a83b87c57352 
Nov 27 16:11:36.229 HYPERVISOR: exec_cmd: vm get_status ESW3 
Nov 27 16:11:36.253 HYPERVISOR: exec_cmd: nio create_udp udp-3d4249bc-07b4-4384-8113-6f732a2df0ed 15006 127.0.0.1 15007 
Nov 27 16:11:36.256 HYPERVISOR: exec_cmd: vm slot_add_nio_binding ESW3 1 1 udp-3d4249bc-07b4-4384-8113-6f732a2df0ed 
Nov 27 16:11:36.257 HYPERVISOR: exec_cmd: vm get_status ESW3 
