Nov 27 16:11:59.743 HYPERVISOR: Release 0.2.17-amd64/Linux (tag 2017072410)
Nov 27 16:11:59.743 HYPERVISOR: Started on IP = 127.0.0.1, TCP port = 33037.
Nov 27 16:11:59.768 HYPERVISOR: exec_cmd: hypervisor version 
Nov 27 16:11:59.769 HYPERVISOR: exec_cmd: hypervisor working_dir /media/actionmystique/SAMSUNG5-VMs/Labs/GNS3/TT 1-linux-/project-files/dynamips 
Nov 27 16:11:59.769 GENERAL: working_dir=/media/actionmystique/SAMSUNG5-VMs/Labs/GNS3/TT 1-linux-/project-files/dynamips
Nov 27 16:11:59.770 HYPERVISOR: exec_cmd: vm create ESW2 2 c3725 
Nov 27 16:11:59.770 VM: VM ESW2 created.
Nov 27 16:11:59.771 HYPERVISOR: exec_cmd: vm set_con_tcp_port ESW2 2002 
Nov 27 16:11:59.771 HYPERVISOR: exec_cmd: c3725 get_mac_addr ESW2 
Nov 27 16:11:59.772 HYPERVISOR: exec_cmd: vm set_nvram ESW2 256 
Nov 27 16:11:59.773 HYPERVISOR: exec_cmd: vm get_status ESW2 
Nov 27 16:11:59.774 HYPERVISOR: exec_cmd: vm set_idle_pc ESW2 0x614ac27c 
Nov 27 16:11:59.775 HYPERVISOR: exec_cmd: c3725 set_mac_addr ESW2 c202.3b70.0000 
Nov 27 16:11:59.776 HYPERVISOR: exec_cmd: vm get_status ESW2 
Nov 27 16:11:59.777 HYPERVISOR: exec_cmd: vm slot_add_binding ESW2 1 0 NM-16ESW 
Nov 27 16:11:59.778 HYPERVISOR: exec_cmd: vm set_disk0 ESW2 1 
Nov 27 16:11:59.779 HYPERVISOR: exec_cmd: vm set_ios ESW2 /media/actionmystique/SAMSUNG5-VMs/Images/GNS3/IOS/c3725-adventerprisek9-mz.124-15.T10.image 
Nov 27 16:11:59.780 HYPERVISOR: exec_cmd: vm slot_add_binding ESW2 0 16 WIC-2T 
Nov 27 16:11:59.781 HYPERVISOR: exec_cmd: vm set_config ESW2 configs/i2_startup-config.cfg 
Nov 27 16:11:59.782 HYPERVISOR: exec_cmd: vm set_config ESW2 configs/i2_startup-config.cfg configs/i2_private-config.cfg 
Nov 27 16:11:59.925 HYPERVISOR: exec_cmd: nio create_udp udp-13b740c9-faf1-403b-996c-bc7b61bf0e09 15002 127.0.0.1 15001 
Nov 27 16:11:59.929 HYPERVISOR: exec_cmd: vm slot_add_nio_binding ESW2 1 2 udp-13b740c9-faf1-403b-996c-bc7b61bf0e09 
Nov 27 16:11:59.929 HYPERVISOR: exec_cmd: vm get_status ESW2 
Nov 27 16:11:59.962 HYPERVISOR: exec_cmd: nio create_udp udp-216cd3b9-8a09-4874-a2e0-d1b68655e12a 15004 127.0.0.1 15000 
Nov 27 16:11:59.963 HYPERVISOR: exec_cmd: vm slot_add_nio_binding ESW2 1 1 udp-216cd3b9-8a09-4874-a2e0-d1b68655e12a 
Nov 27 16:11:59.963 HYPERVISOR: exec_cmd: vm get_status ESW2 
Nov 27 16:11:59.977 HYPERVISOR: exec_cmd: nio create_udp udp-d85bc900-d2db-4c7c-93d4-27298d41d49f 15005 127.0.0.1 15003 
Nov 27 16:11:59.977 HYPERVISOR: exec_cmd: vm slot_add_nio_binding ESW2 1 0 udp-d85bc900-d2db-4c7c-93d4-27298d41d49f 
Nov 27 16:11:59.978 HYPERVISOR: exec_cmd: vm get_status ESW2 
Nov 27 16:12:14.556 HYPERVISOR: exec_cmd: vm get_status ESW2 
Nov 27 16:12:14.557 HYPERVISOR: exec_cmd: vm extract_config ESW2 
Nov 27 16:12:14.560 HYPERVISOR: exec_cmd: vm delete ESW2 
Nov 27 16:12:14.560 VM: VM ESW2 destroyed.
Nov 27 16:12:14.561 HYPERVISOR: exec_cmd: hypervisor stop 
Nov 27 16:12:14.781 HYPERVISOR: Stopped.
Nov 27 16:12:14.781 GENERAL: reset done.
