Nov 29 19:00:35.824 HYPERVISOR: Release 0.2.17-amd64/Linux (tag 2017072410)
Nov 29 19:00:35.824 HYPERVISOR: Started on IP = 127.0.0.1, TCP port = 43599.
Nov 29 19:00:35.833 HYPERVISOR: exec_cmd: hypervisor version 
Nov 29 19:00:35.834 HYPERVISOR: exec_cmd: hypervisor working_dir /media/actionmystique/SAMSUNG5-VMs/Labs/GNS3/git-Public-Labs-Collection/CCNP/TBSHOOT/L3-Technologies/IPv6/IOS-Filtering-Tools/ACL/Jean-Christophe_Manciot/1+/TT 1-solutions-linux/project-files/dynamips 
Nov 29 19:00:35.834 GENERAL: working_dir=/media/actionmystique/SAMSUNG5-VMs/Labs/GNS3/git-Public-Labs-Collection/CCNP/TBSHOOT/L3-Technologies/IPv6/IOS-Filtering-Tools/ACL/Jean-Christophe_Manciot/1+/TT 1-solutions-linux/project-files/dynamips
Nov 29 19:00:35.834 HYPERVISOR: exec_cmd: vm create ESW2 2 c3725 
Nov 29 19:00:35.834 VM: VM ESW2 created.
Nov 29 19:00:35.834 HYPERVISOR: exec_cmd: vm set_con_tcp_port ESW2 2002 
Nov 29 19:00:35.835 HYPERVISOR: exec_cmd: vm set_aux_tcp_port ESW2 2502 
Nov 29 19:00:35.835 HYPERVISOR: exec_cmd: c3725 get_mac_addr ESW2 
Nov 29 19:00:35.835 HYPERVISOR: exec_cmd: vm slot_add_binding ESW2 0 16 WIC-2T 
Nov 29 19:00:35.836 HYPERVISOR: exec_cmd: vm set_ios ESW2 /media/actionmystique/SAMSUNG5-VMs/Images/GNS3/IOS/c3725-adventerprisek9-mz.124-15.T10.image 
Nov 29 19:00:35.836 HYPERVISOR: exec_cmd: vm get_status ESW2 
Nov 29 19:00:35.836 HYPERVISOR: exec_cmd: vm set_idle_pc ESW2 0x60c06d20 
Nov 29 19:00:35.837 HYPERVISOR: exec_cmd: vm get_status ESW2 
Nov 29 19:00:35.837 HYPERVISOR: exec_cmd: vm slot_add_binding ESW2 1 0 NM-16ESW 
Nov 29 19:00:35.837 HYPERVISOR: exec_cmd: c3725 set_mac_addr ESW2 c202.28c2.0000 
Nov 29 19:00:35.838 HYPERVISOR: exec_cmd: vm set_disk0 ESW2 1 
Nov 29 19:00:35.838 HYPERVISOR: exec_cmd: vm set_nvram ESW2 256 
Nov 29 19:00:35.838 HYPERVISOR: exec_cmd: vm set_config ESW2 configs/i2_startup-config.cfg 
Nov 29 19:00:35.839 HYPERVISOR: exec_cmd: vm set_config ESW2 configs/i2_startup-config.cfg configs/i2_private-config.cfg 
Nov 29 19:00:35.921 HYPERVISOR: exec_cmd: nio create_tap tap-738da51e-d687-438a-b82e-67e2883b00b6 tap2 
Nov 29 19:00:35.922 HYPERVISOR: exec_cmd: vm slot_add_nio_binding ESW2 1 0 tap-738da51e-d687-438a-b82e-67e2883b00b6 
Nov 29 19:00:35.922 HYPERVISOR: exec_cmd: vm get_status ESW2 
Nov 29 19:00:36.015 HYPERVISOR: exec_cmd: nio create_udp udp-1372f007-fd0e-4ee1-b534-54264b97098d 15009 127.0.0.1 15010 
Nov 29 19:00:36.018 HYPERVISOR: exec_cmd: vm slot_add_nio_binding ESW2 1 2 udp-1372f007-fd0e-4ee1-b534-54264b97098d 
Nov 29 19:00:36.023 HYPERVISOR: exec_cmd: vm get_status ESW2 
