Nov 26 20:49:03.611 HYPERVISOR: Release 0.2.17-amd64/Linux (tag 2017072410)
Nov 26 20:49:03.611 HYPERVISOR: Started on IP = 127.0.0.1, TCP port = 36411.
Nov 26 20:49:03.637 HYPERVISOR: exec_cmd: hypervisor version 
Nov 26 20:49:03.637 HYPERVISOR: exec_cmd: hypervisor working_dir /media/actionmystique/SAMSUNG5-VMs/Labs/GNS3/Virtual Links/project-files/dynamips 
Nov 26 20:49:03.638 GENERAL: working_dir=/media/actionmystique/SAMSUNG5-VMs/Labs/GNS3/Virtual Links/project-files/dynamips
Nov 26 20:49:03.639 HYPERVISOR: exec_cmd: vm create ABR1 2 c7200 
Nov 26 20:49:03.639 VM: VM ABR1 created.
Nov 26 20:49:03.640 HYPERVISOR: exec_cmd: vm set_con_tcp_port ABR1 2003 
Nov 26 20:49:03.640 HYPERVISOR: exec_cmd: vm set_aux_tcp_port ABR1 2111 
Nov 26 20:49:03.641 HYPERVISOR: exec_cmd: c7200 get_mac_addr ABR1 
Nov 26 20:49:03.643 HYPERVISOR: exec_cmd: vm get_status ABR1 
Nov 26 20:49:03.644 HYPERVISOR: exec_cmd: vm slot_add_binding ABR1 0 0 C7200-IO-FE 
Nov 26 20:49:03.646 HYPERVISOR: exec_cmd: vm get_status ABR1 
Nov 26 20:49:03.647 HYPERVISOR: exec_cmd: vm slot_remove_binding ABR1 0 0 
Nov 26 20:49:03.649 HYPERVISOR: exec_cmd: vm get_status ABR1 
Nov 26 20:49:03.651 HYPERVISOR: exec_cmd: vm slot_add_binding ABR1 0 0 C7200-IO-GE-E 
Nov 26 20:49:03.652 HYPERVISOR: exec_cmd: vm get_status ABR1 
Nov 26 20:49:03.654 HYPERVISOR: exec_cmd: vm slot_add_binding ABR1 2 0 PA-2FE-TX 
Nov 26 20:49:03.655 HYPERVISOR: exec_cmd: vm set_ram ABR1 512 
Nov 26 20:49:03.657 HYPERVISOR: exec_cmd: vm get_status ABR1 
Nov 26 20:49:03.658 HYPERVISOR: exec_cmd: vm set_idle_pc ABR1 0x62a29de4 
Nov 26 20:49:03.659 HYPERVISOR: exec_cmd: vm get_status ABR1 
Nov 26 20:49:03.660 HYPERVISOR: exec_cmd: vm slot_add_binding ABR1 1 0 PA-8T 
Nov 26 20:49:03.661 HYPERVISOR: exec_cmd: vm get_status ABR1 
Nov 26 20:49:03.663 HYPERVISOR: exec_cmd: vm slot_add_binding ABR1 3 0 PA-2FE-TX 
Nov 26 20:49:03.672 HYPERVISOR: exec_cmd: vm set_con_tcp_port ABR1 2003 
Nov 26 20:49:03.683 HYPERVISOR: exec_cmd: vm set_ios ABR1 /media/actionmystique/SAMSUNG5-VMs/Images/GNS3/IOS/c7200-adventerprisek9-mz.152-4.M2.image 
Nov 26 20:49:03.695 HYPERVISOR: exec_cmd: vm set_config ABR1 configs/i2_startup-config.cfg 
Nov 26 20:49:04.799 HYPERVISOR: exec_cmd: vm extract_config ABR1 
Nov 26 20:49:04.848 HYPERVISOR: exec_cmd: nio create_udp udp-77aabef0-f463-4e6e-b999-43378bdd0758 15001 127.0.0.1 15006 
Nov 26 20:49:04.849 HYPERVISOR: exec_cmd: vm slot_add_nio_binding ABR1 0 0 udp-77aabef0-f463-4e6e-b999-43378bdd0758 
Nov 26 20:49:04.849 HYPERVISOR: exec_cmd: vm get_status ABR1 
Nov 26 20:49:04.880 HYPERVISOR: exec_cmd: nio create_udp udp-a54ebc3a-e7d0-40a7-963d-c24cebfaf8f7 15002 127.0.0.1 15007 
Nov 26 20:49:04.881 HYPERVISOR: exec_cmd: vm slot_add_nio_binding ABR1 1 0 udp-a54ebc3a-e7d0-40a7-963d-c24cebfaf8f7 
Nov 26 20:49:04.881 HYPERVISOR: exec_cmd: vm get_status ABR1 
Nov 26 20:49:04.981 HYPERVISOR: exec_cmd: nio create_udp udp-53f05e94-e41c-4364-ba29-cd6086b2c318 15015 127.0.0.1 15014 
Nov 26 20:49:04.981 HYPERVISOR: exec_cmd: vm slot_add_nio_binding ABR1 3 0 udp-53f05e94-e41c-4364-ba29-cd6086b2c318 
Nov 26 20:49:04.982 HYPERVISOR: exec_cmd: vm get_status ABR1 
Nov 26 20:49:04.987 HYPERVISOR: exec_cmd: nio create_udp udp-7fd838ab-5a96-4172-a93d-d1406e2e73e4 15017 127.0.0.1 15016 
Nov 26 20:49:04.989 HYPERVISOR: exec_cmd: vm slot_add_nio_binding ABR1 2 0 udp-7fd838ab-5a96-4172-a93d-d1406e2e73e4 
Nov 26 20:49:04.989 HYPERVISOR: exec_cmd: vm get_status ABR1 
Nov 26 20:49:05.056 HYPERVISOR: exec_cmd: nio create_udp udp-5e9a2ed8-de29-40bd-9f94-44f49b243e16 15021 127.0.0.1 15023 
Nov 26 20:49:05.058 HYPERVISOR: exec_cmd: vm slot_add_nio_binding ABR1 2 1 udp-5e9a2ed8-de29-40bd-9f94-44f49b243e16 
Nov 26 20:49:05.062 HYPERVISOR: exec_cmd: vm get_status ABR1 
Nov 26 20:50:03.769 HYPERVISOR: exec_cmd: vm get_status ABR1 
Nov 26 20:50:03.776 HYPERVISOR: exec_cmd: vm extract_config ABR1 
Nov 26 20:50:03.780 HYPERVISOR: exec_cmd: vm delete ABR1 
Nov 26 20:50:03.780 VM: VM ABR1 destroyed.
Nov 26 20:50:03.787 HYPERVISOR: exec_cmd: hypervisor stop 
Nov 26 20:50:04.194 HYPERVISOR: Stopped.
Nov 26 20:50:04.194 GENERAL: reset done.
