Nov 26 20:21:25.350 HYPERVISOR: Release 0.2.17-amd64/Linux (tag 2017072410)
Nov 26 20:21:25.350 HYPERVISOR: Started on IP = 127.0.0.1, TCP port = 51833.
Nov 26 20:21:25.356 HYPERVISOR: exec_cmd: hypervisor version 
Nov 26 20:21:25.357 HYPERVISOR: exec_cmd: hypervisor working_dir /media/actionmystique/SAMSUNG5-VMs/Labs/GNS3/git-Public-Labs-Collection/CCNP/ROUTE/EIGRP/Jean-Christophe_Manciot/1+/K2 Load Metric Weight with IOSv-linux/project-files/dynamips 
Nov 26 20:21:25.357 GENERAL: working_dir=/media/actionmystique/SAMSUNG5-VMs/Labs/GNS3/git-Public-Labs-Collection/CCNP/ROUTE/EIGRP/Jean-Christophe_Manciot/1+/K2 Load Metric Weight with IOSv-linux/project-files/dynamips
Nov 26 20:21:25.358 HYPERVISOR: exec_cmd: vm create SW1_Management 2 c3725 
Nov 26 20:21:25.358 VM: VM SW1_Management created.
Nov 26 20:21:25.358 HYPERVISOR: exec_cmd: vm set_con_tcp_port SW1_Management 2001 
Nov 26 20:21:25.359 HYPERVISOR: exec_cmd: vm set_aux_tcp_port SW1_Management 2102 
Nov 26 20:21:25.360 HYPERVISOR: exec_cmd: c3725 get_mac_addr SW1_Management 
Nov 26 20:21:25.360 HYPERVISOR: exec_cmd: vm set_ios SW1_Management /media/actionmystique/SAMSUNG5-VMs/Images/GNS3/IOS/c3725-adventerprisek9-mz.124-15.T10.image 
Nov 26 20:21:25.361 HYPERVISOR: exec_cmd: vm get_status SW1_Management 
Nov 26 20:21:25.362 HYPERVISOR: exec_cmd: vm slot_add_binding SW1_Management 1 0 NM-16ESW 
Nov 26 20:21:25.363 HYPERVISOR: exec_cmd: vm get_status SW1_Management 
Nov 26 20:21:25.363 HYPERVISOR: exec_cmd: vm set_idle_pc SW1_Management 0x6026b804 
Nov 26 20:21:25.364 HYPERVISOR: exec_cmd: c3725 set_mac_addr SW1_Management c202.2115.0000 
Nov 26 20:21:25.364 HYPERVISOR: exec_cmd: vm set_ram SW1_Management 256 
Nov 26 20:21:25.365 HYPERVISOR: exec_cmd: vm set_config SW1_Management configs/i2_startup-config.cfg 
Nov 26 20:21:25.580 HYPERVISOR: exec_cmd: nio create_udp udp-5ceacf7e-57d1-4637-a2b7-03117eda369d 15018 127.0.0.1 15017 
Nov 26 20:21:25.581 HYPERVISOR: exec_cmd: vm slot_add_nio_binding SW1_Management 1 2 udp-5ceacf7e-57d1-4637-a2b7-03117eda369d 
Nov 26 20:21:25.581 HYPERVISOR: exec_cmd: vm get_status SW1_Management 
Nov 26 20:21:25.593 HYPERVISOR: exec_cmd: nio create_udp udp-2322aa82-3579-4147-a173-bed1b83db7ab 15019 127.0.0.1 15016 
Nov 26 20:21:25.594 HYPERVISOR: exec_cmd: vm slot_add_nio_binding SW1_Management 1 0 udp-2322aa82-3579-4147-a173-bed1b83db7ab 
Nov 26 20:21:25.594 HYPERVISOR: exec_cmd: vm get_status SW1_Management 
Nov 26 20:21:46.621 HYPERVISOR: exec_cmd: vm get_status SW1_Management 
Nov 26 20:21:46.621 HYPERVISOR: exec_cmd: vm extract_config SW1_Management 
Nov 26 20:21:46.629 HYPERVISOR: exec_cmd: vm delete SW1_Management 
Nov 26 20:21:46.629 VM: VM SW1_Management destroyed.
Nov 26 20:21:46.630 HYPERVISOR: exec_cmd: hypervisor stop 
Nov 26 20:21:46.875 HYPERVISOR: Stopped.
Nov 26 20:21:46.875 GENERAL: reset done.
