Nov 26 21:54:03.050 HYPERVISOR: Release 0.2.17-amd64/Linux (tag 2017072410)
Nov 26 21:54:03.050 HYPERVISOR: Started on IP = 127.0.0.1, TCP port = 42611.
Nov 26 21:54:03.067 HYPERVISOR: exec_cmd: hypervisor version 
Nov 26 21:54:03.068 HYPERVISOR: exec_cmd: hypervisor working_dir /media/actionmystique/SAMSUNG5-VMs/Labs/GNS3/git-Public-Labs-Collection/CCNP/TBSHOOT/Exam-Topology/Jean-Christophe_Manciot/1+/v1-linux/project-files/dynamips 
Nov 26 21:54:03.068 GENERAL: working_dir=/media/actionmystique/SAMSUNG5-VMs/Labs/GNS3/git-Public-Labs-Collection/CCNP/TBSHOOT/Exam-Topology/Jean-Christophe_Manciot/1+/v1-linux/project-files/dynamips
Nov 26 21:54:03.069 HYPERVISOR: exec_cmd: vm create POP 10 c3725 
Nov 26 21:54:03.069 VM: VM POP created.
Nov 26 21:54:03.070 HYPERVISOR: exec_cmd: vm set_con_tcp_port POP 2017 
Nov 26 21:54:03.070 HYPERVISOR: exec_cmd: c3725 get_mac_addr POP 
Nov 26 21:54:03.075 HYPERVISOR: exec_cmd: vm slot_add_binding POP 0 16 WIC-2T 
Nov 26 21:54:03.076 HYPERVISOR: exec_cmd: vm get_status POP 
Nov 26 21:54:03.076 HYPERVISOR: exec_cmd: vm set_idle_pc POP 0x6026b804 
Nov 26 21:54:03.076 HYPERVISOR: exec_cmd: vm get_status POP 
Nov 26 21:54:03.077 HYPERVISOR: exec_cmd: vm slot_add_binding POP 1 0 NM-16ESW 
Nov 26 21:54:03.077 HYPERVISOR: exec_cmd: vm set_nvram POP 256 
Nov 26 21:54:03.077 HYPERVISOR: exec_cmd: vm set_ios POP /media/actionmystique/SAMSUNG5-VMs/Images/GNS3/IOS/c3725-adventerprisek9-mz.124-15.T10.image 
Nov 26 21:54:03.078 HYPERVISOR: exec_cmd: vm set_disk0 POP 1 
Nov 26 21:54:03.078 HYPERVISOR: exec_cmd: c3725 set_mac_addr POP c20a.12bf.0000 
Nov 26 21:54:03.079 HYPERVISOR: exec_cmd: vm set_config POP configs/i10_startup-config.cfg 
Nov 26 21:54:03.079 HYPERVISOR: exec_cmd: vm set_config POP configs/i10_startup-config.cfg configs/i10_private-config.cfg 
Nov 26 21:54:04.244 HYPERVISOR: exec_cmd: nio create_udp udp-2d375536-c7ae-48d0-b1ae-fdc4c3783782 15054 127.0.0.1 15056 
Nov 26 21:54:04.245 HYPERVISOR: exec_cmd: vm slot_add_nio_binding POP 1 4 udp-2d375536-c7ae-48d0-b1ae-fdc4c3783782 
Nov 26 21:54:04.245 HYPERVISOR: exec_cmd: vm get_status POP 
Nov 26 21:54:04.258 HYPERVISOR: exec_cmd: nio create_udp udp-20138f71-0e3e-49fd-b8b7-f936e8250212 15055 127.0.0.1 15057 
Nov 26 21:54:04.259 HYPERVISOR: exec_cmd: vm slot_add_nio_binding POP 1 3 udp-20138f71-0e3e-49fd-b8b7-f936e8250212 
Nov 26 21:54:04.260 HYPERVISOR: exec_cmd: vm get_status POP 
Nov 26 21:54:04.292 HYPERVISOR: exec_cmd: nio create_udp udp-45cc4ca9-e0c6-4730-9be1-ff25157fa2f5 15059 127.0.0.1 15058 
Nov 26 21:54:04.293 HYPERVISOR: exec_cmd: vm slot_add_nio_binding POP 1 2 udp-45cc4ca9-e0c6-4730-9be1-ff25157fa2f5 
Nov 26 21:54:04.293 HYPERVISOR: exec_cmd: vm get_status POP 
Nov 26 21:54:04.309 HYPERVISOR: exec_cmd: nio create_udp udp-6fe51461-e2c9-4de6-b732-e5a4cfa8687c 15060 127.0.0.1 15061 
Nov 26 21:54:04.309 HYPERVISOR: exec_cmd: vm slot_add_nio_binding POP 1 1 udp-6fe51461-e2c9-4de6-b732-e5a4cfa8687c 
Nov 26 21:54:04.309 HYPERVISOR: exec_cmd: vm get_status POP 
Nov 26 21:55:05.546 HYPERVISOR: exec_cmd: vm extract_config POP 
