Nov 26 21:54:02.788 HYPERVISOR: Release 0.2.17-amd64/Linux (tag 2017072410)
Nov 26 21:54:02.789 HYPERVISOR: Started on IP = 127.0.0.1, TCP port = 44909.
Nov 26 21:54:02.836 HYPERVISOR: exec_cmd: hypervisor version 
Nov 26 21:54:02.838 HYPERVISOR: exec_cmd: hypervisor working_dir /media/actionmystique/SAMSUNG5-VMs/Labs/GNS3/git-Public-Labs-Collection/CCNP/TBSHOOT/Exam-Topology/Jean-Christophe_Manciot/1+/v1-linux/project-files/dynamips 
Nov 26 21:54:02.838 GENERAL: working_dir=/media/actionmystique/SAMSUNG5-VMs/Labs/GNS3/git-Public-Labs-Collection/CCNP/TBSHOOT/Exam-Topology/Jean-Christophe_Manciot/1+/v1-linux/project-files/dynamips
Nov 26 21:54:02.839 HYPERVISOR: exec_cmd: vm create R3 7 c7200 
Nov 26 21:54:02.839 VM: VM R3 created.
Nov 26 21:54:02.844 HYPERVISOR: exec_cmd: vm set_con_tcp_port R3 2002 
Nov 26 21:54:02.859 HYPERVISOR: exec_cmd: c7200 get_mac_addr R3 
Nov 26 21:54:02.863 HYPERVISOR: exec_cmd: vm get_status R3 
Nov 26 21:54:02.866 HYPERVISOR: exec_cmd: vm slot_add_binding R3 0 0 C7200-IO-FE 
Nov 26 21:54:02.869 HYPERVISOR: exec_cmd: vm get_status R3 
Nov 26 21:54:02.871 HYPERVISOR: exec_cmd: vm slot_add_binding R3 2 0 PA-GE 
Nov 26 21:54:02.873 HYPERVISOR: exec_cmd: vm get_status R3 
Nov 26 21:54:02.874 HYPERVISOR: exec_cmd: vm set_idle_pc R3 0x6062f0e0 
Nov 26 21:54:02.876 HYPERVISOR: exec_cmd: vm get_status R3 
Nov 26 21:54:02.878 HYPERVISOR: exec_cmd: vm slot_add_binding R3 1 0 PA-GE 
Nov 26 21:54:02.879 HYPERVISOR: exec_cmd: vm set_nvram R3 256 
Nov 26 21:54:02.881 HYPERVISOR: exec_cmd: vm get_status R3 
Nov 26 21:54:02.882 HYPERVISOR: exec_cmd: vm slot_add_binding R3 3 0 PA-GE 
Nov 26 21:54:02.884 HYPERVISOR: exec_cmd: vm get_status R3 
Nov 26 21:54:02.886 HYPERVISOR: exec_cmd: vm slot_remove_binding R3 0 0 
Nov 26 21:54:02.888 HYPERVISOR: exec_cmd: vm get_status R3 
Nov 26 21:54:02.889 HYPERVISOR: exec_cmd: vm slot_add_binding R3 0 0 C7200-IO-GE-E 
Nov 26 21:54:02.891 HYPERVISOR: exec_cmd: vm set_disk0 R3 1 
Nov 26 21:54:02.892 HYPERVISOR: exec_cmd: vm get_status R3 
Nov 26 21:54:02.894 HYPERVISOR: exec_cmd: vm slot_add_binding R3 4 0 PA-4T+ 
Nov 26 21:54:02.895 HYPERVISOR: exec_cmd: vm set_ram R3 512 
Nov 26 21:54:02.901 HYPERVISOR: exec_cmd: vm get_status R3 
Nov 26 21:54:02.910 HYPERVISOR: exec_cmd: vm slot_add_binding R3 6 0 PA-POS-OC3 
Nov 26 21:54:02.913 HYPERVISOR: exec_cmd: vm get_status R3 
Nov 26 21:54:02.915 HYPERVISOR: exec_cmd: vm slot_add_binding R3 5 0 PA-POS-OC3 
Nov 26 21:54:02.918 HYPERVISOR: exec_cmd: c7200 set_mac_addr R3 ca07.2e65.0000 
Nov 26 21:54:02.920 HYPERVISOR: exec_cmd: vm set_ios R3 /media/actionmystique/SAMSUNG5-VMs/Images/GNS3/IOS/c7200-adventerprisek9-mz.152-4.M2.image 
Nov 26 21:54:02.922 HYPERVISOR: exec_cmd: vm set_config R3 configs/i7_startup-config.cfg 
Nov 26 21:54:02.925 HYPERVISOR: exec_cmd: vm set_config R3 configs/i7_startup-config.cfg configs/i7_private-config.cfg 
Nov 26 21:54:03.901 HYPERVISOR: exec_cmd: nio create_udp udp-5f03efb2-64c8-4959-928d-bad678e7a383 15021 127.0.0.1 15023 
Nov 26 21:54:03.902 HYPERVISOR: exec_cmd: vm slot_add_nio_binding R3 4 0 udp-5f03efb2-64c8-4959-928d-bad678e7a383 
Nov 26 21:54:03.903 HYPERVISOR: exec_cmd: vm get_status R3 
Nov 26 21:54:18.545 HYPERVISOR: exec_cmd: nio create_tap tap-b6f0d45e-c87c-4bb8-8b9b-1f245602b904 tap0 
Nov 26 21:54:18.546 HYPERVISOR: exec_cmd: vm slot_add_nio_binding R3 0 0 tap-b6f0d45e-c87c-4bb8-8b9b-1f245602b904 
Nov 26 21:54:18.546 HYPERVISOR: exec_cmd: vm get_status R3 
Nov 26 21:55:05.527 HYPERVISOR: exec_cmd: vm extract_config R3 
