Nov 26 21:55:43.266 HYPERVISOR: Release 0.2.17-amd64/Linux (tag 2017072410)
Nov 26 21:55:43.266 HYPERVISOR: Started on IP = 127.0.0.1, TCP port = 47219.
Nov 26 21:55:43.301 HYPERVISOR: exec_cmd: hypervisor version 
Nov 26 21:55:43.301 HYPERVISOR: exec_cmd: hypervisor working_dir /media/actionmystique/SAMSUNG5-VMs/Labs/GNS3/v1-linux-/project-files/dynamips 
Nov 26 21:55:43.301 GENERAL: working_dir=/media/actionmystique/SAMSUNG5-VMs/Labs/GNS3/v1-linux-/project-files/dynamips
Nov 26 21:55:43.301 HYPERVISOR: exec_cmd: vm create R5 9 c7200 
Nov 26 21:55:43.301 VM: VM R5 created.
Nov 26 21:55:43.302 HYPERVISOR: exec_cmd: vm set_con_tcp_port R5 2015 
Nov 26 21:55:43.302 HYPERVISOR: exec_cmd: c7200 get_mac_addr R5 
Nov 26 21:55:43.303 HYPERVISOR: exec_cmd: vm get_status R5 
Nov 26 21:55:43.303 HYPERVISOR: exec_cmd: vm slot_add_binding R5 0 0 C7200-IO-FE 
Nov 26 21:55:43.303 HYPERVISOR: exec_cmd: vm get_status R5 
Nov 26 21:55:43.304 HYPERVISOR: exec_cmd: vm set_idle_pc R5 0x6062f0e0 
Nov 26 21:55:43.304 HYPERVISOR: exec_cmd: vm get_status R5 
Nov 26 21:55:43.304 HYPERVISOR: exec_cmd: vm slot_add_binding R5 1 0 PA-GE 
Nov 26 21:55:43.305 HYPERVISOR: exec_cmd: vm set_nvram R5 256 
Nov 26 21:55:43.305 HYPERVISOR: exec_cmd: vm get_status R5 
Nov 26 21:55:43.306 HYPERVISOR: exec_cmd: vm slot_add_binding R5 3 0 PA-GE 
Nov 26 21:55:43.319 HYPERVISOR: exec_cmd: vm get_status R5 
Nov 26 21:55:43.321 HYPERVISOR: exec_cmd: vm slot_remove_binding R5 0 0 
Nov 26 21:55:43.322 HYPERVISOR: exec_cmd: vm get_status R5 
Nov 26 21:55:43.323 HYPERVISOR: exec_cmd: vm slot_add_binding R5 0 0 C7200-IO-GE-E 
Nov 26 21:55:43.325 HYPERVISOR: exec_cmd: vm get_status R5 
Nov 26 21:55:43.326 HYPERVISOR: exec_cmd: vm slot_add_binding R5 4 0 PA-4T+ 
Nov 26 21:55:43.327 HYPERVISOR: exec_cmd: vm get_status R5 
Nov 26 21:55:43.331 HYPERVISOR: exec_cmd: vm slot_add_binding R5 2 0 PA-GE 
Nov 26 21:55:43.333 HYPERVISOR: exec_cmd: vm set_ram R5 512 
Nov 26 21:55:43.334 HYPERVISOR: exec_cmd: vm get_status R5 
Nov 26 21:55:43.335 HYPERVISOR: exec_cmd: vm slot_add_binding R5 6 0 PA-POS-OC3 
Nov 26 21:55:43.336 HYPERVISOR: exec_cmd: c7200 set_mac_addr R5 ca09.71f1.0000 
Nov 26 21:55:43.337 HYPERVISOR: exec_cmd: vm set_disk0 R5 1 
Nov 26 21:55:43.338 HYPERVISOR: exec_cmd: vm set_ios R5 /media/actionmystique/SAMSUNG5-VMs/Images/GNS3/IOS/c7200-adventerprisek9-mz.152-4.M2.image 
Nov 26 21:55:43.339 HYPERVISOR: exec_cmd: vm get_status R5 
Nov 26 21:55:43.340 HYPERVISOR: exec_cmd: vm slot_add_binding R5 5 0 PA-POS-OC3 
Nov 26 21:55:43.342 HYPERVISOR: exec_cmd: vm set_config R5 configs/i9_startup-config.cfg 
Nov 26 21:55:43.345 HYPERVISOR: exec_cmd: vm set_config R5 configs/i9_startup-config.cfg configs/i9_private-config.cfg 
Nov 26 21:55:44.416 HYPERVISOR: exec_cmd: nio create_udp udp-3553b32a-c5a6-4492-9215-08667bc516c2 15046 127.0.0.1 15048 
Nov 26 21:55:44.420 HYPERVISOR: exec_cmd: vm slot_add_nio_binding R5 4 0 udp-3553b32a-c5a6-4492-9215-08667bc516c2 
Nov 26 21:55:44.424 HYPERVISOR: exec_cmd: vm get_status R5 
Nov 26 21:55:44.430 HYPERVISOR: exec_cmd: nio create_udp udp-751af508-a096-45b4-a207-70ccbd704df7 15047 127.0.0.1 15049 
Nov 26 21:55:44.430 HYPERVISOR: exec_cmd: vm slot_add_nio_binding R5 1 0 udp-751af508-a096-45b4-a207-70ccbd704df7 
Nov 26 21:55:44.431 HYPERVISOR: exec_cmd: vm get_status R5 
Nov 26 21:55:44.472 HYPERVISOR: exec_cmd: nio create_udp udp-bed4a484-e94f-4443-86e2-8614a2d9091c 15052 127.0.0.1 15050 
Nov 26 21:55:44.473 HYPERVISOR: exec_cmd: vm slot_add_nio_binding R5 3 0 udp-bed4a484-e94f-4443-86e2-8614a2d9091c 
Nov 26 21:55:44.473 HYPERVISOR: exec_cmd: vm get_status R5 
Nov 26 21:55:44.501 HYPERVISOR: exec_cmd: nio create_udp udp-803dfa08-b4dc-48b0-a1a5-1f7ff86a88d1 15053 127.0.0.1 15051 
Nov 26 21:55:44.501 HYPERVISOR: exec_cmd: vm slot_add_nio_binding R5 2 0 udp-803dfa08-b4dc-48b0-a1a5-1f7ff86a88d1 
Nov 26 21:55:44.501 HYPERVISOR: exec_cmd: vm get_status R5 
Nov 26 21:56:01.268 HYPERVISOR: exec_cmd: vm get_status R5 
Nov 26 21:56:01.270 HYPERVISOR: exec_cmd: vm extract_config R5 
Nov 26 21:56:01.279 HYPERVISOR: exec_cmd: vm delete R5 
Nov 26 21:56:01.279 VM: VM R5 destroyed.
Nov 26 21:56:01.282 HYPERVISOR: exec_cmd: hypervisor stop 
Nov 26 21:56:01.318 HYPERVISOR: Stopped.
Nov 26 21:56:01.318 GENERAL: reset done.
