Nov 26 21:54:02.963 HYPERVISOR: Release 0.2.17-amd64/Linux (tag 2017072410)
Nov 26 21:54:02.963 HYPERVISOR: Started on IP = 127.0.0.1, TCP port = 54693.
Nov 26 21:54:02.988 HYPERVISOR: exec_cmd: hypervisor version 
Nov 26 21:54:02.989 HYPERVISOR: exec_cmd: hypervisor working_dir /media/actionmystique/SAMSUNG5-VMs/Labs/GNS3/git-Public-Labs-Collection/CCNP/TBSHOOT/Exam-Topology/Jean-Christophe_Manciot/1+/v1-linux/project-files/dynamips 
Nov 26 21:54:02.989 GENERAL: working_dir=/media/actionmystique/SAMSUNG5-VMs/Labs/GNS3/git-Public-Labs-Collection/CCNP/TBSHOOT/Exam-Topology/Jean-Christophe_Manciot/1+/v1-linux/project-files/dynamips
Nov 26 21:54:02.990 HYPERVISOR: exec_cmd: frsw create FR 
Nov 26 21:54:03.913 HYPERVISOR: exec_cmd: nio create_udp udp-9d178170-9a4e-4dbd-97fe-428a8dccf2ea 15023 127.0.0.1 15021 
Nov 26 21:54:03.937 HYPERVISOR: exec_cmd: nio create_udp udp-99678289-be35-49d6-8974-5ececa79c20e 15025 127.0.0.1 15026 
Nov 26 21:54:03.952 HYPERVISOR: exec_cmd: nio create_udp udp-9670022c-e0a0-43a5-8009-19d2824fb8b1 15027 127.0.0.1 15024 
Nov 26 21:54:03.953 HYPERVISOR: exec_cmd: frsw create_vc FR udp-9670022c-e0a0-43a5-8009-19d2824fb8b1 403 udp-9d178170-9a4e-4dbd-97fe-428a8dccf2ea 304 
Nov 26 21:54:03.967 HYPERVISOR: exec_cmd: frsw create_vc FR udp-9d178170-9a4e-4dbd-97fe-428a8dccf2ea 304 udp-9670022c-e0a0-43a5-8009-19d2824fb8b1 403 
Nov 26 21:54:03.994 HYPERVISOR: exec_cmd: nio create_udp udp-bce2366a-99a7-4485-9999-dac0cba495ba 15029 127.0.0.1 15028 
Nov 26 21:54:04.004 HYPERVISOR: exec_cmd: frsw create_vc FR udp-bce2366a-99a7-4485-9999-dac0cba495ba 201 udp-99678289-be35-49d6-8974-5ececa79c20e 102 
Nov 26 21:54:04.011 HYPERVISOR: exec_cmd: frsw create_vc FR udp-99678289-be35-49d6-8974-5ececa79c20e 102 udp-bce2366a-99a7-4485-9999-dac0cba495ba 201 
Nov 26 21:54:04.027 HYPERVISOR: exec_cmd: frsw create_vc FR udp-bce2366a-99a7-4485-9999-dac0cba495ba 203 udp-9d178170-9a4e-4dbd-97fe-428a8dccf2ea 302 
Nov 26 21:54:04.050 HYPERVISOR: exec_cmd: frsw create_vc FR udp-9d178170-9a4e-4dbd-97fe-428a8dccf2ea 302 udp-bce2366a-99a7-4485-9999-dac0cba495ba 203 
Nov 26 21:54:04.173 HYPERVISOR: exec_cmd: nio create_udp udp-e3d61e86-953d-49b9-962b-9133e368268e 15047 127.0.0.1 15045 
Nov 26 21:54:04.176 HYPERVISOR: exec_cmd: frsw create_vc FR udp-e3d61e86-953d-49b9-962b-9133e368268e 502 udp-bce2366a-99a7-4485-9999-dac0cba495ba 205 
Nov 26 21:54:04.194 HYPERVISOR: exec_cmd: frsw create_vc FR udp-bce2366a-99a7-4485-9999-dac0cba495ba 205 udp-e3d61e86-953d-49b9-962b-9133e368268e 502 
