Nov 26 21:56:43.891 HYPERVISOR: Release 0.2.17-amd64/Linux (tag 2017072410)
Nov 26 21:56:43.891 HYPERVISOR: Started on IP = 127.0.0.1, TCP port = 39187.
Nov 26 21:56:43.918 HYPERVISOR: exec_cmd: hypervisor version 
Nov 26 21:56:43.919 HYPERVISOR: exec_cmd: hypervisor working_dir /media/actionmystique/SAMSUNG5-VMs/Labs/GNS3/git-Public-Labs-Collection/CCNP/TBSHOOT/Exam-Topology/Jean-Christophe_Manciot/1+/v2-linux/project-files/dynamips 
Nov 26 21:56:43.919 GENERAL: working_dir=/media/actionmystique/SAMSUNG5-VMs/Labs/GNS3/git-Public-Labs-Collection/CCNP/TBSHOOT/Exam-Topology/Jean-Christophe_Manciot/1+/v2-linux/project-files/dynamips
Nov 26 21:56:43.921 HYPERVISOR: exec_cmd: vm create POP 10 c3725 
Nov 26 21:56:43.921 VM: VM POP created.
Nov 26 21:56:43.923 HYPERVISOR: exec_cmd: vm set_con_tcp_port POP 2017 
Nov 26 21:56:43.929 HYPERVISOR: exec_cmd: c3725 get_mac_addr POP 
Nov 26 21:56:43.932 HYPERVISOR: exec_cmd: vm slot_add_binding POP 0 16 WIC-2T 
Nov 26 21:56:43.937 HYPERVISOR: exec_cmd: vm get_status POP 
Nov 26 21:56:43.938 HYPERVISOR: exec_cmd: vm set_idle_pc POP 0x6026b804 
Nov 26 21:56:43.939 HYPERVISOR: exec_cmd: vm set_nvram POP 256 
Nov 26 21:56:43.940 HYPERVISOR: exec_cmd: vm get_status POP 
Nov 26 21:56:43.941 HYPERVISOR: exec_cmd: vm slot_add_binding POP 1 0 NM-16ESW 
Nov 26 21:56:43.942 HYPERVISOR: exec_cmd: vm set_ios POP /media/actionmystique/SAMSUNG5-VMs/Images/GNS3/IOS/c3725-adventerprisek9-mz.124-15.T10.image 
Nov 26 21:56:43.943 HYPERVISOR: exec_cmd: vm set_disk0 POP 1 
Nov 26 21:56:43.944 HYPERVISOR: exec_cmd: c3725 set_mac_addr POP c20a.12bf.0000 
Nov 26 21:56:43.945 HYPERVISOR: exec_cmd: vm set_config POP configs/i10_startup-config.cfg 
Nov 26 21:56:43.947 HYPERVISOR: exec_cmd: vm set_config POP configs/i10_startup-config.cfg configs/i10_private-config.cfg 
Nov 26 21:56:45.021 HYPERVISOR: exec_cmd: nio create_udp udp-eb6c2562-ff51-4cd6-947d-c60985db7925 15050 127.0.0.1 15051 
Nov 26 21:56:45.021 HYPERVISOR: exec_cmd: vm slot_add_nio_binding POP 1 4 udp-eb6c2562-ff51-4cd6-947d-c60985db7925 
Nov 26 21:56:45.022 HYPERVISOR: exec_cmd: vm get_status POP 
Nov 26 21:56:45.045 HYPERVISOR: exec_cmd: nio create_udp udp-d2781b28-cede-46d3-ae58-bc12895be9b3 15053 127.0.0.1 15052 
Nov 26 21:56:45.045 HYPERVISOR: exec_cmd: vm slot_add_nio_binding POP 1 2 udp-d2781b28-cede-46d3-ae58-bc12895be9b3 
Nov 26 21:56:45.045 HYPERVISOR: exec_cmd: vm get_status POP 
Nov 26 21:56:45.059 HYPERVISOR: exec_cmd: nio create_udp udp-940e5ce4-88c8-4060-9697-0f84fa6124bd 15055 127.0.0.1 15054 
Nov 26 21:56:45.060 HYPERVISOR: exec_cmd: vm slot_add_nio_binding POP 1 1 udp-940e5ce4-88c8-4060-9697-0f84fa6124bd 
Nov 26 21:56:45.060 HYPERVISOR: exec_cmd: vm get_status POP 
Nov 26 21:56:45.068 HYPERVISOR: exec_cmd: nio create_udp udp-652bd47e-a6ac-47b3-902a-f93028e196c0 15056 127.0.0.1 15057 
Nov 26 21:56:45.069 HYPERVISOR: exec_cmd: vm slot_add_nio_binding POP 1 3 udp-652bd47e-a6ac-47b3-902a-f93028e196c0 
Nov 26 21:56:45.069 HYPERVISOR: exec_cmd: vm get_status POP 
