Nov 29 19:07:54.973 HYPERVISOR: Release 0.2.17-amd64/Linux (tag 2017072410)
Nov 29 19:07:54.973 HYPERVISOR: Started on IP = 127.0.0.1, TCP port = 50175.
Nov 29 19:07:54.986 HYPERVISOR: exec_cmd: hypervisor version 
Nov 29 19:07:54.986 HYPERVISOR: exec_cmd: hypervisor working_dir /media/actionmystique/SAMSUNG5-VMs/Labs/GNS3/TT 1-solutions-linux-/project-files/dynamips 
Nov 29 19:07:54.986 GENERAL: working_dir=/media/actionmystique/SAMSUNG5-VMs/Labs/GNS3/TT 1-solutions-linux-/project-files/dynamips
Nov 29 19:07:54.986 HYPERVISOR: exec_cmd: vm create Internet 2 c3725 
Nov 29 19:07:54.987 VM: VM Internet created.
Nov 29 19:07:54.987 HYPERVISOR: exec_cmd: vm set_con_tcp_port Internet 2005 
Nov 29 19:07:54.987 HYPERVISOR: exec_cmd: c3725 get_mac_addr Internet 
Nov 29 19:07:54.987 HYPERVISOR: exec_cmd: vm set_disk0 Internet 1 
Nov 29 19:07:54.988 HYPERVISOR: exec_cmd: vm get_status Internet 
Nov 29 19:07:54.988 HYPERVISOR: exec_cmd: vm set_idle_pc Internet 0x60c06d20 
Nov 29 19:07:54.989 HYPERVISOR: exec_cmd: c3725 set_mac_addr Internet c202.1bd4.0000 
Nov 29 19:07:54.989 HYPERVISOR: exec_cmd: vm set_nvram Internet 256 
Nov 29 19:07:54.989 HYPERVISOR: exec_cmd: vm get_status Internet 
Nov 29 19:07:54.990 HYPERVISOR: exec_cmd: vm slot_add_binding Internet 1 0 NM-16ESW 
Nov 29 19:07:54.990 HYPERVISOR: exec_cmd: vm set_ios Internet /media/actionmystique/SAMSUNG5-VMs/Images/GNS3/IOS/c3725-adventerprisek9-mz.124-15.T10.image 
Nov 29 19:07:54.991 HYPERVISOR: exec_cmd: vm slot_add_binding Internet 0 16 WIC-2T 
Nov 29 19:07:54.991 HYPERVISOR: exec_cmd: vm set_config Internet configs/ios_base_startup-config.txt 
Nov 29 19:07:54.992 HYPERVISOR: exec_cmd: vm set_config Internet configs/ios_base_startup-config.txt configs/ios_base_private-config.txt 
Nov 29 19:07:55.350 HYPERVISOR: exec_cmd: nio create_udp udp-84b61162-c2e5-48f6-9791-4c675e896d33 15005 127.0.0.1 15000 
Nov 29 19:07:55.356 HYPERVISOR: exec_cmd: vm slot_add_nio_binding Internet 1 0 udp-84b61162-c2e5-48f6-9791-4c675e896d33 
Nov 29 19:07:55.358 HYPERVISOR: exec_cmd: vm get_status Internet 
Nov 29 19:08:07.310 HYPERVISOR: exec_cmd: vm get_status Internet 
Nov 29 19:08:07.313 HYPERVISOR: exec_cmd: vm extract_config Internet 
Nov 29 19:08:07.315 HYPERVISOR: exec_cmd: vm delete Internet 
Nov 29 19:08:07.315 VM: VM Internet destroyed.
Nov 29 19:08:07.317 HYPERVISOR: exec_cmd: hypervisor stop 
Nov 29 19:08:07.498 HYPERVISOR: Stopped.
Nov 29 19:08:07.498 GENERAL: reset done.
