Nov 26 20:44:10.160 HYPERVISOR: Release 0.2.17-amd64/Linux (tag 2017072410)
Nov 26 20:44:10.160 HYPERVISOR: Started on IP = 127.0.0.1, TCP port = 38305.
Nov 26 20:44:10.181 HYPERVISOR: exec_cmd: hypervisor version 
Nov 26 20:44:10.182 HYPERVISOR: exec_cmd: hypervisor working_dir /media/actionmystique/SAMSUNG5-VMs/Labs/GNS3/Redistribution/project-files/dynamips 
Nov 26 20:44:10.182 GENERAL: working_dir=/media/actionmystique/SAMSUNG5-VMs/Labs/GNS3/Redistribution/project-files/dynamips
Nov 26 20:44:10.182 HYPERVISOR: exec_cmd: ethsw create SW1 
Nov 26 20:44:11.035 HYPERVISOR: exec_cmd: nio create_udp udp-a518e007-d58c-40d9-adda-22708245b295 15001 127.0.0.1 15000 
Nov 26 20:44:11.036 HYPERVISOR: exec_cmd: ethsw add_nio SW1 udp-a518e007-d58c-40d9-adda-22708245b295 
Nov 26 20:44:11.041 HYPERVISOR: exec_cmd: ethsw set_access_port SW1 udp-a518e007-d58c-40d9-adda-22708245b295 1 
Nov 26 20:44:11.177 HYPERVISOR: exec_cmd: nio create_udp udp-c9fb0eae-8b65-413d-bc1a-81f272d1c0a3 15003 127.0.0.1 15002 
Nov 26 20:44:11.178 HYPERVISOR: exec_cmd: ethsw add_nio SW1 udp-c9fb0eae-8b65-413d-bc1a-81f272d1c0a3 
Nov 26 20:44:11.182 HYPERVISOR: exec_cmd: ethsw set_access_port SW1 udp-c9fb0eae-8b65-413d-bc1a-81f272d1c0a3 1 
Nov 26 20:44:11.308 HYPERVISOR: exec_cmd: nio create_udp udp-e726d9fb-58c7-4216-8c02-6e9cc2ba16d6 15014 127.0.0.1 15015 
Nov 26 20:44:11.309 HYPERVISOR: exec_cmd: ethsw add_nio SW1 udp-e726d9fb-58c7-4216-8c02-6e9cc2ba16d6 
Nov 26 20:44:11.321 HYPERVISOR: exec_cmd: ethsw set_access_port SW1 udp-e726d9fb-58c7-4216-8c02-6e9cc2ba16d6 1 
Nov 26 20:44:11.572 HYPERVISOR: exec_cmd: nio create_udp udp-6b2e2eec-6819-4bce-bb41-20b1b7fb3001 15039 127.0.0.1 15038 
Nov 26 20:44:11.573 HYPERVISOR: exec_cmd: ethsw add_nio SW1 udp-6b2e2eec-6819-4bce-bb41-20b1b7fb3001 
Nov 26 20:44:11.581 HYPERVISOR: exec_cmd: ethsw set_access_port SW1 udp-6b2e2eec-6819-4bce-bb41-20b1b7fb3001 1 
Nov 26 20:45:10.387 HYPERVISOR: exec_cmd: ethsw delete SW1 
Nov 26 20:45:10.459 HYPERVISOR: exec_cmd: hypervisor stop 
Nov 26 20:45:10.738 HYPERVISOR: Stopped.
Nov 26 20:45:10.738 GENERAL: reset done.
