Nov 26 21:04:08.215 HYPERVISOR: Release 0.2.17-amd64/Linux (tag 2017072410)
Nov 26 21:04:08.215 HYPERVISOR: Started on IP = 127.0.0.1, TCP port = 45229.
Nov 26 21:04:08.262 HYPERVISOR: exec_cmd: hypervisor version 
Nov 26 21:04:08.264 HYPERVISOR: exec_cmd: hypervisor working_dir /media/actionmystique/SAMSUNG5-VMs/Labs/GNS3/PVST+ GLBP/project-files/dynamips 
Nov 26 21:04:08.264 GENERAL: working_dir=/media/actionmystique/SAMSUNG5-VMs/Labs/GNS3/PVST+ GLBP/project-files/dynamips
Nov 26 21:04:08.266 HYPERVISOR: exec_cmd: vm create Server_3152 12 c2691 
Nov 26 21:04:08.266 VM: VM Server_3152 created.
Nov 26 21:04:08.267 HYPERVISOR: exec_cmd: vm set_con_tcp_port Server_3152 2056 
Nov 26 21:04:08.268 HYPERVISOR: exec_cmd: vm set_aux_tcp_port Server_3152 2556 
Nov 26 21:04:08.270 HYPERVISOR: exec_cmd: c2691 get_mac_addr Server_3152 
Nov 26 21:04:08.277 HYPERVISOR: exec_cmd: vm set_ios Server_3152 /media/actionmystique/SAMSUNG5-VMs/Images/GNS3/IOS/c2691-adventerprisek9-mz.124-15.T7.bin 
Nov 26 21:04:08.290 HYPERVISOR: exec_cmd: vm set_ram Server_3152 192 
Nov 26 21:04:08.293 HYPERVISOR: exec_cmd: vm get_status Server_3152 
Nov 26 21:04:08.295 HYPERVISOR: exec_cmd: vm set_idle_pc Server_3152 0x60264748 
Nov 26 21:04:08.297 HYPERVISOR: exec_cmd: vm get_status Server_3152 
Nov 26 21:04:08.298 HYPERVISOR: exec_cmd: vm slot_add_binding Server_3152 1 0 NM-1FE-TX 
Nov 26 21:04:08.304 HYPERVISOR: exec_cmd: vm set_config Server_3152 configs/i12_startup-config.cfg 
Nov 26 21:04:09.605 HYPERVISOR: exec_cmd: vm extract_config Server_3152 
Nov 26 21:04:10.076 HYPERVISOR: exec_cmd: nio create_udp udp-cdc16619-b07e-4b9c-88ad-b8be5fc4622f 15047 127.0.0.1 15046 
Nov 26 21:04:10.076 HYPERVISOR: exec_cmd: vm slot_add_nio_binding Server_3152 1 0 udp-cdc16619-b07e-4b9c-88ad-b8be5fc4622f 
Nov 26 21:04:10.077 HYPERVISOR: exec_cmd: vm get_status Server_3152 
Nov 26 21:04:36.143 HYPERVISOR: exec_cmd: vm get_status Server_3152 
Nov 26 21:04:36.149 HYPERVISOR: exec_cmd: vm extract_config Server_3152 
Nov 26 21:04:36.155 HYPERVISOR: exec_cmd: vm delete Server_3152 
Nov 26 21:04:36.155 VM: VM Server_3152 destroyed.
Nov 26 21:04:36.161 HYPERVISOR: exec_cmd: hypervisor stop 
Nov 26 21:04:36.269 HYPERVISOR: Stopped.
Nov 26 21:04:36.269 GENERAL: reset done.
