Nov 26 21:04:08.040 HYPERVISOR: Release 0.2.17-amd64/Linux (tag 2017072410)
Nov 26 21:04:08.040 HYPERVISOR: Started on IP = 127.0.0.1, TCP port = 41141.
Nov 26 21:04:08.064 HYPERVISOR: exec_cmd: hypervisor version 
Nov 26 21:04:08.066 HYPERVISOR: exec_cmd: hypervisor working_dir /media/actionmystique/SAMSUNG5-VMs/Labs/GNS3/PVST+ GLBP/project-files/dynamips 
Nov 26 21:04:08.066 GENERAL: working_dir=/media/actionmystique/SAMSUNG5-VMs/Labs/GNS3/PVST+ GLBP/project-files/dynamips
Nov 26 21:04:08.066 HYPERVISOR: exec_cmd: vm create SW4 4 c3725 
Nov 26 21:04:08.066 VM: VM SW4 created.
Nov 26 21:04:08.068 HYPERVISOR: exec_cmd: vm set_con_tcp_port SW4 2004 
Nov 26 21:04:08.069 HYPERVISOR: exec_cmd: vm set_aux_tcp_port SW4 2504 
Nov 26 21:04:08.070 HYPERVISOR: exec_cmd: c3725 get_mac_addr SW4 
Nov 26 21:04:08.071 HYPERVISOR: exec_cmd: vm set_ios SW4 /media/actionmystique/SAMSUNG5-VMs/Images/GNS3/IOS/c3725-adventerprisek9-mz.124-15.T10.image 
Nov 26 21:04:08.073 HYPERVISOR: exec_cmd: vm set_ram SW4 256 
Nov 26 21:04:08.074 HYPERVISOR: exec_cmd: vm get_status SW4 
Nov 26 21:04:08.076 HYPERVISOR: exec_cmd: vm set_idle_pc SW4 0x6026b804 
Nov 26 21:04:08.078 HYPERVISOR: exec_cmd: vm get_status SW4 
Nov 26 21:04:08.080 HYPERVISOR: exec_cmd: vm slot_add_binding SW4 1 0 NM-16ESW 
Nov 26 21:04:08.082 HYPERVISOR: exec_cmd: vm set_config SW4 configs/i4_startup-config.cfg 
Nov 26 21:04:09.473 HYPERVISOR: exec_cmd: nio create_udp udp-bc0b6a8f-69d7-4dae-91f9-a28e8dab5a5b 15001 127.0.0.1 15000 
Nov 26 21:04:09.474 HYPERVISOR: exec_cmd: vm slot_add_nio_binding SW4 1 3 udp-bc0b6a8f-69d7-4dae-91f9-a28e8dab5a5b 
Nov 26 21:04:09.475 HYPERVISOR: exec_cmd: vm get_status SW4 
Nov 26 21:04:09.608 HYPERVISOR: exec_cmd: vm extract_config SW4 
Nov 26 21:04:09.633 HYPERVISOR: exec_cmd: nio create_udp udp-81e88a2e-f212-4a81-b931-1f3a5e0969da 15005 127.0.0.1 15002 
Nov 26 21:04:09.633 HYPERVISOR: exec_cmd: vm slot_add_nio_binding SW4 1 12 udp-81e88a2e-f212-4a81-b931-1f3a5e0969da 
Nov 26 21:04:09.633 HYPERVISOR: exec_cmd: vm get_status SW4 
Nov 26 21:04:09.690 HYPERVISOR: exec_cmd: nio create_udp udp-d1fb9218-45e6-4a14-ba99-8cd8871657c8 15009 127.0.0.1 15008 
Nov 26 21:04:09.691 HYPERVISOR: exec_cmd: vm slot_add_nio_binding SW4 1 4 udp-d1fb9218-45e6-4a14-ba99-8cd8871657c8 
Nov 26 21:04:09.691 HYPERVISOR: exec_cmd: vm get_status SW4 
Nov 26 21:04:09.733 HYPERVISOR: exec_cmd: nio create_udp udp-c55d4d89-34f0-4783-a352-57bb7b56eaac 15012 127.0.0.1 15013 
Nov 26 21:04:09.733 HYPERVISOR: exec_cmd: vm slot_add_nio_binding SW4 1 13 udp-c55d4d89-34f0-4783-a352-57bb7b56eaac 
Nov 26 21:04:09.733 HYPERVISOR: exec_cmd: vm get_status SW4 
Nov 26 21:04:09.788 HYPERVISOR: exec_cmd: nio create_udp udp-0c5caf97-7a05-4b1c-a6ed-a5e41d9fb98d 15019 127.0.0.1 15018 
Nov 26 21:04:09.792 HYPERVISOR: exec_cmd: vm slot_add_nio_binding SW4 1 2 udp-0c5caf97-7a05-4b1c-a6ed-a5e41d9fb98d 
Nov 26 21:04:09.792 HYPERVISOR: exec_cmd: vm get_status SW4 
Nov 26 21:04:09.900 HYPERVISOR: exec_cmd: nio create_udp udp-32d85581-19cf-429d-b1d7-45047095c9ce 15030 127.0.0.1 15032 
Nov 26 21:04:09.904 HYPERVISOR: exec_cmd: vm slot_add_nio_binding SW4 1 5 udp-32d85581-19cf-429d-b1d7-45047095c9ce 
Nov 26 21:04:09.904 HYPERVISOR: exec_cmd: vm get_status SW4 
Nov 26 21:04:09.972 HYPERVISOR: exec_cmd: nio create_udp udp-bba807ae-efad-48b2-bafc-fe3e67723e5b 15036 127.0.0.1 15037 
Nov 26 21:04:09.972 HYPERVISOR: exec_cmd: vm slot_add_nio_binding SW4 1 14 udp-bba807ae-efad-48b2-bafc-fe3e67723e5b 
Nov 26 21:04:09.973 HYPERVISOR: exec_cmd: vm get_status SW4 
Nov 26 21:04:10.305 HYPERVISOR: exec_cmd: nio create_udp udp-e8643c9f-a9f8-4f5a-a109-d1182ef4d6a0 15068 127.0.0.1 15069 
Nov 26 21:04:10.305 HYPERVISOR: exec_cmd: vm slot_add_nio_binding SW4 0 0 udp-e8643c9f-a9f8-4f5a-a109-d1182ef4d6a0 
Nov 26 21:04:10.305 HYPERVISOR: exec_cmd: vm get_status SW4 
Nov 26 21:04:10.436 HYPERVISOR: exec_cmd: nio create_udp udp-7b014cc0-6270-476d-8ede-63b7598ffb7f 15082 127.0.0.1 15083 
Nov 26 21:04:10.437 HYPERVISOR: exec_cmd: vm slot_add_nio_binding SW4 0 1 udp-7b014cc0-6270-476d-8ede-63b7598ffb7f 
Nov 26 21:04:10.437 HYPERVISOR: exec_cmd: vm get_status SW4 
Nov 26 21:04:36.146 HYPERVISOR: exec_cmd: vm get_status SW4 
Nov 26 21:04:36.151 HYPERVISOR: exec_cmd: vm extract_config SW4 
Nov 26 21:04:36.201 HYPERVISOR: exec_cmd: vm delete SW4 
Nov 26 21:04:36.201 VM: VM SW4 destroyed.
Nov 26 21:04:36.205 HYPERVISOR: exec_cmd: hypervisor stop 
Nov 26 21:04:36.585 HYPERVISOR: Stopped.
Nov 26 21:04:36.585 GENERAL: reset done.
