Nov 29 15:36:07.995 HYPERVISOR: Release 0.2.17-amd64/Linux (tag 2017072410)
Nov 29 15:36:07.995 HYPERVISOR: Started on IP = 127.0.0.1, TCP port = 43097.
Nov 29 15:36:08.012 HYPERVISOR: exec_cmd: hypervisor version 
Nov 29 15:36:08.013 HYPERVISOR: exec_cmd: hypervisor working_dir /media/actionmystique/SAMSUNG5-VMs/Labs/GNS3/Leaf & Spine DC-2-solutions-linux-/project-files/dynamips 
Nov 29 15:36:08.013 GENERAL: working_dir=/media/actionmystique/SAMSUNG5-VMs/Labs/GNS3/Leaf & Spine DC-2-solutions-linux-/project-files/dynamips
Nov 29 15:36:08.013 HYPERVISOR: exec_cmd: vm create Mgt 1 c3725 
Nov 29 15:36:08.013 VM: VM Mgt created.
Nov 29 15:36:08.020 HYPERVISOR: exec_cmd: vm set_con_tcp_port Mgt 2017 
Nov 29 15:36:08.021 HYPERVISOR: exec_cmd: c3725 get_mac_addr Mgt 
Nov 29 15:36:08.029 HYPERVISOR: exec_cmd: vm set_nvram Mgt 256 
Nov 29 15:36:08.030 HYPERVISOR: exec_cmd: vm slot_add_binding Mgt 0 16 WIC-2T 
Nov 29 15:36:08.030 HYPERVISOR: exec_cmd: c3725 set_mac_addr Mgt c201.1066.0000 
Nov 29 15:36:08.031 HYPERVISOR: exec_cmd: vm set_disk0 Mgt 1 
Nov 29 15:36:08.031 HYPERVISOR: exec_cmd: vm set_ios Mgt /media/actionmystique/SAMSUNG5-VMs/Images/GNS3/IOS/c3725-adventerprisek9-mz.124-15.T10.image 
Nov 29 15:36:08.032 HYPERVISOR: exec_cmd: vm get_status Mgt 
Nov 29 15:36:08.032 HYPERVISOR: exec_cmd: vm set_idle_pc Mgt 0x6026b804 
Nov 29 15:36:08.032 HYPERVISOR: exec_cmd: vm get_status Mgt 
Nov 29 15:36:08.033 HYPERVISOR: exec_cmd: vm slot_add_binding Mgt 1 0 NM-16ESW 
Nov 29 15:36:08.033 HYPERVISOR: exec_cmd: vm set_config Mgt configs/i1_startup-config.cfg 
Nov 29 15:36:08.034 HYPERVISOR: exec_cmd: vm set_config Mgt configs/i1_startup-config.cfg configs/i1_private-config.cfg 
Nov 29 15:36:08.691 HYPERVISOR: exec_cmd: nio create_tap tap-bc100e18-0275-4812-8ae7-1c453ab8ff8c tap1 
Nov 29 15:36:08.692 HYPERVISOR: exec_cmd: vm slot_add_nio_binding Mgt 1 0 tap-bc100e18-0275-4812-8ae7-1c453ab8ff8c 
Nov 29 15:36:08.692 HYPERVISOR: exec_cmd: vm get_status Mgt 
Nov 29 15:36:09.260 HYPERVISOR: exec_cmd: nio create_udp udp-0f6c362f-76b0-4678-8ce2-3faa25610834 15046 127.0.0.1 15048 
Nov 29 15:36:09.261 HYPERVISOR: exec_cmd: vm slot_add_nio_binding Mgt 1 5 udp-0f6c362f-76b0-4678-8ce2-3faa25610834 
Nov 29 15:36:09.261 HYPERVISOR: exec_cmd: vm get_status Mgt 
Nov 29 15:36:09.276 HYPERVISOR: exec_cmd: nio create_udp udp-ea8751ce-8472-4dbc-a657-0f9e8425e2f8 15047 127.0.0.1 15049 
Nov 29 15:36:09.276 HYPERVISOR: exec_cmd: vm slot_add_nio_binding Mgt 1 6 udp-ea8751ce-8472-4dbc-a657-0f9e8425e2f8 
Nov 29 15:36:09.277 HYPERVISOR: exec_cmd: vm get_status Mgt 
Nov 29 15:36:09.296 HYPERVISOR: exec_cmd: nio create_udp udp-11c99ecd-e512-41cb-a75a-5134bd6f15f1 15051 127.0.0.1 15050 
Nov 29 15:36:09.297 HYPERVISOR: exec_cmd: vm slot_add_nio_binding Mgt 1 1 udp-11c99ecd-e512-41cb-a75a-5134bd6f15f1 
Nov 29 15:36:09.297 HYPERVISOR: exec_cmd: vm get_status Mgt 
Nov 29 15:36:09.316 HYPERVISOR: exec_cmd: nio create_udp udp-b5fe9efc-c546-4617-9a50-6f96d9f3bfb9 15052 127.0.0.1 15053 
Nov 29 15:36:09.316 HYPERVISOR: exec_cmd: vm slot_add_nio_binding Mgt 1 2 udp-b5fe9efc-c546-4617-9a50-6f96d9f3bfb9 
Nov 29 15:36:09.317 HYPERVISOR: exec_cmd: vm get_status Mgt 
Nov 29 15:36:09.336 HYPERVISOR: exec_cmd: nio create_udp udp-074d6585-8151-4a33-8f69-ff793ebf0787 15054 127.0.0.1 15056 
Nov 29 15:36:09.336 HYPERVISOR: exec_cmd: vm slot_add_nio_binding Mgt 1 3 udp-074d6585-8151-4a33-8f69-ff793ebf0787 
Nov 29 15:36:09.337 HYPERVISOR: exec_cmd: vm get_status Mgt 
Nov 29 15:36:09.356 HYPERVISOR: exec_cmd: nio create_udp udp-c273dbe9-8c69-4f6a-b7bd-2bbbf38be8df 15055 127.0.0.1 15057 
Nov 29 15:36:09.357 HYPERVISOR: exec_cmd: vm slot_add_nio_binding Mgt 1 4 udp-c273dbe9-8c69-4f6a-b7bd-2bbbf38be8df 
Nov 29 15:36:09.357 HYPERVISOR: exec_cmd: vm get_status Mgt 
Nov 29 15:36:09.374 HYPERVISOR: exec_cmd: nio create_udp udp-7e462250-8526-487a-b504-744596b4d2d7 15058 127.0.0.1 15059 
Nov 29 15:36:09.375 HYPERVISOR: exec_cmd: vm slot_add_nio_binding Mgt 1 11 udp-7e462250-8526-487a-b504-744596b4d2d7 
Nov 29 15:36:09.375 HYPERVISOR: exec_cmd: vm get_status Mgt 
Nov 29 15:36:09.392 HYPERVISOR: exec_cmd: nio create_udp udp-090ebce9-f4d6-4bfb-a3af-ed9637a70ae9 15061 127.0.0.1 15060 
Nov 29 15:36:09.392 HYPERVISOR: exec_cmd: vm slot_add_nio_binding Mgt 1 12 udp-090ebce9-f4d6-4bfb-a3af-ed9637a70ae9 
Nov 29 15:36:09.393 HYPERVISOR: exec_cmd: vm get_status Mgt 
Nov 29 15:36:23.109 HYPERVISOR: exec_cmd: vm get_status Mgt 
Nov 29 15:36:23.111 HYPERVISOR: exec_cmd: vm extract_config Mgt 
Nov 29 15:36:23.111 HYPERVISOR: exec_cmd: vm delete Mgt 
Nov 29 15:36:23.111 VM: VM Mgt destroyed.
Nov 29 15:36:23.112 HYPERVISOR: exec_cmd: hypervisor stop 
Nov 29 15:36:23.528 HYPERVISOR: Stopped.
Nov 29 15:36:23.529 GENERAL: reset done.
