Nov 27 16:15:21.953 HYPERVISOR: Release 0.2.17-amd64/Linux (tag 2017072410)
Nov 27 16:15:21.953 HYPERVISOR: Started on IP = 127.0.0.1, TCP port = 38465.
Nov 27 16:15:21.967 HYPERVISOR: exec_cmd: hypervisor version 
Nov 27 16:15:21.968 HYPERVISOR: exec_cmd: hypervisor working_dir /media/actionmystique/SAMSUNG5-VMs/Labs/GNS3/git-Public-Labs-Collection/CCNP/TBSHOOT/L2-Technologies/STP/Jean-Christophe_Manciot/1+/TT 3-linux/project-files/dynamips 
Nov 27 16:15:21.968 GENERAL: working_dir=/media/actionmystique/SAMSUNG5-VMs/Labs/GNS3/git-Public-Labs-Collection/CCNP/TBSHOOT/L2-Technologies/STP/Jean-Christophe_Manciot/1+/TT 3-linux/project-files/dynamips
Nov 27 16:15:21.969 HYPERVISOR: exec_cmd: vm create SW2 2 c3725 
Nov 27 16:15:21.969 VM: VM SW2 created.
Nov 27 16:15:21.972 HYPERVISOR: exec_cmd: vm set_con_tcp_port SW2 2002 
Nov 27 16:15:21.975 HYPERVISOR: exec_cmd: c3725 get_mac_addr SW2 
Nov 27 16:15:21.977 HYPERVISOR: exec_cmd: vm get_status SW2 
Nov 27 16:15:21.978 HYPERVISOR: exec_cmd: vm slot_add_binding SW2 1 0 NM-16ESW 
Nov 27 16:15:21.979 HYPERVISOR: exec_cmd: vm set_nvram SW2 256 
Nov 27 16:15:21.980 HYPERVISOR: exec_cmd: vm get_status SW2 
Nov 27 16:15:21.981 HYPERVISOR: exec_cmd: vm set_idle_pc SW2 0x614ac2c4 
Nov 27 16:15:21.981 HYPERVISOR: exec_cmd: c3725 set_mac_addr SW2 eeee.eeee.eeee 
Nov 27 16:15:21.982 HYPERVISOR: exec_cmd: vm set_ios SW2 /media/actionmystique/SAMSUNG5-VMs/Images/GNS3/IOS/c3725-adventerprisek9-mz.124-15.T10.image 
Nov 27 16:15:21.983 HYPERVISOR: exec_cmd: vm set_exec_area SW2 16 
Nov 27 16:15:21.984 HYPERVISOR: exec_cmd: vm slot_add_binding SW2 0 16 WIC-2T 
Nov 27 16:15:21.984 HYPERVISOR: exec_cmd: vm set_disk0 SW2 1 
Nov 27 16:15:21.985 HYPERVISOR: exec_cmd: vm set_config SW2 configs/i2_startup-config.cfg 
Nov 27 16:15:21.986 HYPERVISOR: exec_cmd: vm set_config SW2 configs/i2_startup-config.cfg configs/i2_private-config.cfg 
Nov 27 16:15:22.142 HYPERVISOR: exec_cmd: nio create_udp udp-58ce59f0-892a-4352-8a62-11182bfaa237 15001 127.0.0.1 15000 
Nov 27 16:15:22.143 HYPERVISOR: exec_cmd: vm slot_add_nio_binding SW2 1 2 udp-58ce59f0-892a-4352-8a62-11182bfaa237 
Nov 27 16:15:22.146 HYPERVISOR: exec_cmd: vm get_status SW2 
Nov 27 16:15:22.152 HYPERVISOR: exec_cmd: nio create_udp udp-637b0af5-df55-4190-9608-41c21e1f0f13 15003 127.0.0.1 15002 
Nov 27 16:15:22.153 HYPERVISOR: exec_cmd: vm slot_add_nio_binding SW2 1 0 udp-637b0af5-df55-4190-9608-41c21e1f0f13 
Nov 27 16:15:22.154 HYPERVISOR: exec_cmd: vm get_status SW2 
Nov 27 16:15:22.193 HYPERVISOR: exec_cmd: nio create_udp udp-683b97a4-b2ad-430b-b325-72360f320fe4 15004 127.0.0.1 15005 
Nov 27 16:15:22.193 HYPERVISOR: exec_cmd: vm slot_add_nio_binding SW2 1 1 udp-683b97a4-b2ad-430b-b325-72360f320fe4 
Nov 27 16:15:22.194 HYPERVISOR: exec_cmd: vm get_status SW2 
