Jan 11 11:10:12.265 HYPERVISOR: Release 0.2.14-x86/Windows (tag 2014092320)
Jan 11 11:10:12.265 HYPERVISOR: Started on IP = 127.0.0.1, TCP port = 7202.
Jan 11 11:10:12.853 HYPERVISOR: exec_cmd: hypervisor version 
Jan 11 11:10:12.853 HYPERVISOR: exec_cmd: hypervisor uuid 
Jan 11 11:10:12.853 HYPERVISOR: exec_cmd: hypervisor working_dir C:/Users/ActionMystique/GNS3/projects/CCNP-Security/FIREWALL/Jean-Christophe/1+/Data Center ASA - ASDM - AAA - VMs/Data Center ASA - ASDM - AAA - VMs-files\dynamips 
Jan 11 11:10:12.853 GENERAL: working_dir=C:/Users/ActionMystique/GNS3/projects/CCNP-Security/FIREWALL/Jean-Christophe/1+/Data Center ASA - ASDM - AAA - VMs/Data Center ASA - ASDM - AAA - VMs-files\dynamips
Jan 11 11:10:12.853 HYPERVISOR: exec_cmd: vm create SW3 3 c3725 
Jan 11 11:10:12.853 VM: VM SW3 created.
Jan 11 11:10:12.853 HYPERVISOR: exec_cmd: vm set_con_tcp_port SW3 2003 
Jan 11 11:10:12.853 HYPERVISOR: exec_cmd: vm set_aux_tcp_port SW3 2503 
Jan 11 11:10:12.853 HYPERVISOR: exec_cmd: c3725 get_mac_addr SW3 
Jan 11 11:10:12.853 HYPERVISOR: exec_cmd: vm set_ios SW3 C:\Users\ActionMystique\GNS3\images\IOS\c3725-adventerprisek9-mz.124-15.T10.image 
Jan 11 11:10:12.853 HYPERVISOR: exec_cmd: vm set_sparse_mem SW3 1 
Jan 11 11:10:12.853 HYPERVISOR: exec_cmd: vm set_ram_mmap SW3 1 
Jan 11 11:10:12.853 HYPERVISOR: exec_cmd: c3725 set_mac_addr SW3 c203.1040.0000 
Jan 11 11:10:12.853 HYPERVISOR: exec_cmd: vm set_ghost_status SW3 2 
Jan 11 11:10:12.853 HYPERVISOR: exec_cmd: vm set_ghost_file SW3 c3725-adventerprisek9-mz.124-15.T10.image-128.ghost 
Jan 11 11:10:28.442 HYPERVISOR: exec_cmd: vm set_config SW3 configs\i3_startup-config.cfg 
Jan 11 11:10:28.442 HYPERVISOR: exec_cmd: vm get_status SW3 
Jan 11 11:10:28.442 HYPERVISOR: exec_cmd: vm set_idle_pc SW3 0x6148b5dc 
Jan 11 11:10:28.442 HYPERVISOR: exec_cmd: vm get_status SW3 
Jan 11 11:10:28.442 HYPERVISOR: exec_cmd: vm slot_add_binding SW3 1 0 NM-16ESW 
Jan 11 11:10:28.442 HYPERVISOR: exec_cmd: vm get_status SW3 
Jan 11 11:10:28.677 HYPERVISOR: exec_cmd: nio create_udp_auto nio_udp_auto13 127.0.0.1 10001 20000 
Jan 11 11:10:28.677 HYPERVISOR: exec_cmd: nio create_udp_auto nio_udp_auto15 127.0.0.1 10001 20000 
Jan 11 11:10:28.735 HYPERVISOR: exec_cmd: nio create_udp_auto nio_udp_auto28 127.0.0.1 10001 20000 
Jan 11 11:10:28.735 HYPERVISOR: exec_cmd: nio create_udp_auto nio_udp_auto30 127.0.0.1 10001 20000 
Jan 11 11:10:28.814 HYPERVISOR: exec_cmd: nio create_udp_auto nio_udp_auto34 127.0.0.1 10001 20000 
Jan 11 11:10:30.713 HYPERVISOR: exec_cmd: nio connect_udp_auto nio_udp_auto13 127.0.0.1 10013 
Jan 11 11:10:30.713 HYPERVISOR: exec_cmd: vm slot_add_nio_binding SW3 1 1 nio_udp_auto13 
Jan 11 11:10:30.713 HYPERVISOR: exec_cmd: vm get_status SW3 
Jan 11 11:10:30.732 HYPERVISOR: exec_cmd: nio connect_udp_auto nio_udp_auto15 127.0.0.1 10015 
Jan 11 11:10:30.732 HYPERVISOR: exec_cmd: vm slot_add_nio_binding SW3 1 11 nio_udp_auto15 
Jan 11 11:10:30.732 HYPERVISOR: exec_cmd: vm get_status SW3 
Jan 11 11:10:30.889 HYPERVISOR: exec_cmd: nio connect_udp_auto nio_udp_auto28 127.0.0.1 10030 
Jan 11 11:10:30.889 HYPERVISOR: exec_cmd: vm slot_add_nio_binding SW3 1 4 nio_udp_auto28 
Jan 11 11:10:30.889 HYPERVISOR: exec_cmd: vm get_status SW3 
Jan 11 11:10:30.928 HYPERVISOR: exec_cmd: nio connect_udp_auto nio_udp_auto30 127.0.0.1 10032 
Jan 11 11:10:30.928 HYPERVISOR: exec_cmd: vm slot_add_nio_binding SW3 1 2 nio_udp_auto30 
Jan 11 11:10:30.928 HYPERVISOR: exec_cmd: vm get_status SW3 
Jan 11 11:10:30.967 HYPERVISOR: exec_cmd: nio connect_udp_auto nio_udp_auto34 127.0.0.1 10036 
Jan 11 11:10:30.967 HYPERVISOR: exec_cmd: vm slot_add_nio_binding SW3 1 3 nio_udp_auto34 
Jan 11 11:10:30.967 HYPERVISOR: exec_cmd: vm get_status SW3 
Jan 11 11:11:54.223 HYPERVISOR: exec_cmd: vm extract_config SW3 
Jan 11 11:22:55.890 HYPERVISOR: exec_cmd: vm extract_config SW3 
Jan 11 11:22:58.405 HYPERVISOR: Stopped.
Jan 11 11:22:58.405 VM: VM SW3 destroyed.
Jan 11 11:22:58.421 GENERAL: reset done.
