Jan 11 11:10:18.317 HYPERVISOR: Release 0.2.14-x86/Windows (tag 2014092320)
Jan 11 11:10:18.317 HYPERVISOR: Started on IP = 127.0.0.1, TCP port = 7212.
Jan 11 11:10:18.887 HYPERVISOR: exec_cmd: hypervisor version 
Jan 11 11:10:18.887 HYPERVISOR: exec_cmd: hypervisor uuid 
Jan 11 11:10:18.887 HYPERVISOR: exec_cmd: hypervisor working_dir C:/Users/ActionMystique/GNS3/projects/CCNP-Security/FIREWALL/Jean-Christophe/1+/Data Center ASA - ASDM - AAA - VMs/Data Center ASA - ASDM - AAA - VMs-files\dynamips 
Jan 11 11:10:18.887 GENERAL: working_dir=C:/Users/ActionMystique/GNS3/projects/CCNP-Security/FIREWALL/Jean-Christophe/1+/Data Center ASA - ASDM - AAA - VMs/Data Center ASA - ASDM - AAA - VMs-files\dynamips
Jan 11 11:10:18.887 HYPERVISOR: exec_cmd: vm create SW0_VirtualBox 13 c3725 
Jan 11 11:10:18.887 VM: VM SW0_VirtualBox created.
Jan 11 11:10:18.887 HYPERVISOR: exec_cmd: vm set_con_tcp_port SW0_VirtualBox 2008 
Jan 11 11:10:18.887 HYPERVISOR: exec_cmd: vm set_aux_tcp_port SW0_VirtualBox 2508 
Jan 11 11:10:18.887 HYPERVISOR: exec_cmd: c3725 get_mac_addr SW0_VirtualBox 
Jan 11 11:10:18.887 HYPERVISOR: exec_cmd: vm set_ios SW0_VirtualBox C:\Users\ActionMystique\GNS3\images\IOS\c3725-adventerprisek9-mz.124-15.T10.image 
Jan 11 11:10:18.887 HYPERVISOR: exec_cmd: vm set_sparse_mem SW0_VirtualBox 1 
Jan 11 11:10:18.887 HYPERVISOR: exec_cmd: vm set_ram_mmap SW0_VirtualBox 1 
Jan 11 11:10:18.887 HYPERVISOR: exec_cmd: vm set_con_tcp_port SW0_VirtualBox 2114 
Jan 11 11:10:18.887 HYPERVISOR: exec_cmd: vm set_aux_tcp_port SW0_VirtualBox 2514 
Jan 11 11:10:18.887 HYPERVISOR: exec_cmd: c3725 set_mac_addr SW0_VirtualBox c20d.09c0.0000 
Jan 11 11:10:18.887 HYPERVISOR: exec_cmd: vm set_ghost_status SW0_VirtualBox 2 
Jan 11 11:10:18.887 HYPERVISOR: exec_cmd: vm set_ghost_file SW0_VirtualBox c3725-adventerprisek9-mz.124-15.T10.image-128.ghost 
Jan 11 11:10:28.637 HYPERVISOR: exec_cmd: vm set_config SW0_VirtualBox configs\i13_startup-config.cfg 
Jan 11 11:10:28.637 HYPERVISOR: exec_cmd: vm get_status SW0_VirtualBox 
Jan 11 11:10:28.637 HYPERVISOR: exec_cmd: vm set_idle_pc SW0_VirtualBox 0x602649b4 
Jan 11 11:10:28.637 HYPERVISOR: exec_cmd: vm get_status SW0_VirtualBox 
Jan 11 11:10:28.637 HYPERVISOR: exec_cmd: vm slot_add_binding SW0_VirtualBox 1 0 NM-16ESW 
Jan 11 11:10:28.637 HYPERVISOR: exec_cmd: vm get_status SW0_VirtualBox 
Jan 11 11:10:30.517 HYPERVISOR: exec_cmd: nio create_udp_auto nio_udp_auto68 127.0.0.1 10001 20000 
Jan 11 11:10:31.398 HYPERVISOR: exec_cmd: nio connect_udp_auto nio_udp_auto68 127.0.0.1 40011 
Jan 11 11:10:31.398 HYPERVISOR: exec_cmd: vm slot_add_nio_binding SW0_VirtualBox 1 0 nio_udp_auto68 
Jan 11 11:10:31.398 HYPERVISOR: exec_cmd: vm get_status SW0_VirtualBox 
Jan 11 11:11:54.262 HYPERVISOR: exec_cmd: vm extract_config SW0_VirtualBox 
Jan 11 11:22:55.905 HYPERVISOR: exec_cmd: vm extract_config SW0_VirtualBox 
Jan 11 11:22:58.405 HYPERVISOR: Stopped.
Jan 11 11:22:58.405 VM: VM SW0_VirtualBox destroyed.
Jan 11 11:22:58.421 GENERAL: reset done.
