Nov 26 22:06:41.452 HYPERVISOR: Release 0.2.17-amd64/Linux (tag 2017072410)
Nov 26 22:06:41.452 HYPERVISOR: Started on IP = 127.0.0.1, TCP port = 55711.
Nov 26 22:06:41.474 HYPERVISOR: exec_cmd: hypervisor version 
Nov 26 22:06:41.475 HYPERVISOR: exec_cmd: hypervisor working_dir /media/actionmystique/SAMSUNG5-VMs/Labs/GNS3/TT 1-linux-/project-files/dynamips 
Nov 26 22:06:41.475 GENERAL: working_dir=/media/actionmystique/SAMSUNG5-VMs/Labs/GNS3/TT 1-linux-/project-files/dynamips
Nov 26 22:06:41.475 HYPERVISOR: exec_cmd: vm create ESW1 1 c3725 
Nov 26 22:06:41.475 VM: VM ESW1 created.
Nov 26 22:06:41.475 HYPERVISOR: exec_cmd: vm set_con_tcp_port ESW1 2001 
Nov 26 22:06:41.476 HYPERVISOR: exec_cmd: vm set_aux_tcp_port ESW1 2501 
Nov 26 22:06:41.476 HYPERVISOR: exec_cmd: c3725 get_mac_addr ESW1 
Nov 26 22:06:41.476 HYPERVISOR: exec_cmd: vm slot_add_binding ESW1 0 16 WIC-2T 
Nov 26 22:06:41.477 HYPERVISOR: exec_cmd: vm get_status ESW1 
Nov 26 22:06:41.477 HYPERVISOR: exec_cmd: vm set_idle_pc ESW1 0x614ac27c 
Nov 26 22:06:41.478 HYPERVISOR: exec_cmd: vm set_nvram ESW1 256 
Nov 26 22:06:41.486 HYPERVISOR: exec_cmd: vm get_status ESW1 
Nov 26 22:06:41.486 HYPERVISOR: exec_cmd: vm slot_add_binding ESW1 1 0 NM-16ESW 
Nov 26 22:06:41.487 HYPERVISOR: exec_cmd: vm set_ios ESW1 /media/actionmystique/SAMSUNG5-VMs/Images/GNS3/IOS/c3725-adventerprisek9-mz.124-15.T10.image 
Nov 26 22:06:41.487 HYPERVISOR: exec_cmd: vm set_disk0 ESW1 1 
Nov 26 22:06:41.488 HYPERVISOR: exec_cmd: c3725 set_mac_addr ESW1 c201.281a.0000 
Nov 26 22:06:41.488 HYPERVISOR: exec_cmd: vm set_config ESW1 configs/i1_startup-config.cfg 
Nov 26 22:06:41.489 HYPERVISOR: exec_cmd: vm set_config ESW1 configs/i1_startup-config.cfg configs/i1_private-config.cfg 
Nov 26 22:06:41.661 HYPERVISOR: exec_cmd: nio create_udp udp-0b8f2b9a-a77c-46e8-99c5-0fdaa562278a 15003 127.0.0.1 15004 
Nov 26 22:06:41.667 HYPERVISOR: exec_cmd: vm slot_add_nio_binding ESW1 1 1 udp-0b8f2b9a-a77c-46e8-99c5-0fdaa562278a 
Nov 26 22:06:41.667 HYPERVISOR: exec_cmd: vm get_status ESW1 
Nov 26 22:06:41.674 HYPERVISOR: exec_cmd: nio create_udp udp-20fc4b78-17cb-4100-af2a-6a8d8127e8a1 15000 127.0.0.1 15005 
Nov 26 22:06:41.675 HYPERVISOR: exec_cmd: vm slot_add_nio_binding ESW1 1 2 udp-20fc4b78-17cb-4100-af2a-6a8d8127e8a1 
Nov 26 22:06:41.675 HYPERVISOR: exec_cmd: vm get_status ESW1 
Nov 26 22:06:41.700 HYPERVISOR: exec_cmd: nio create_udp udp-df2f496a-20a8-443c-a650-69c37cc39acf 15007 127.0.0.1 15006 
Nov 26 22:06:41.701 HYPERVISOR: exec_cmd: vm slot_add_nio_binding ESW1 1 0 udp-df2f496a-20a8-443c-a650-69c37cc39acf 
Nov 26 22:06:41.701 HYPERVISOR: exec_cmd: vm get_status ESW1 
Nov 26 22:07:09.446 HYPERVISOR: exec_cmd: vm get_status ESW1 
Nov 26 22:07:09.447 HYPERVISOR: exec_cmd: vm extract_config ESW1 
Nov 26 22:07:09.448 HYPERVISOR: exec_cmd: vm delete ESW1 
Nov 26 22:07:09.448 VM: VM ESW1 destroyed.
Nov 26 22:07:09.449 HYPERVISOR: exec_cmd: hypervisor stop 
Nov 26 22:07:09.494 HYPERVISOR: Stopped.
Nov 26 22:07:09.494 GENERAL: reset done.
