Nov 29 18:58:50.710 HYPERVISOR: Release 0.2.17-amd64/Linux (tag 2017072410)
Nov 29 18:58:50.710 HYPERVISOR: Started on IP = 127.0.0.1, TCP port = 35579.
Nov 29 18:58:50.723 HYPERVISOR: exec_cmd: hypervisor version 
Nov 29 18:58:50.724 HYPERVISOR: exec_cmd: hypervisor working_dir /media/actionmystique/SAMSUNG5-VMs/Labs/GNS3/TT 2-linux-/project-files/dynamips 
Nov 29 18:58:50.724 GENERAL: working_dir=/media/actionmystique/SAMSUNG5-VMs/Labs/GNS3/TT 2-linux-/project-files/dynamips
Nov 29 18:58:50.724 HYPERVISOR: exec_cmd: vm create ESW2 2 c3725 
Nov 29 18:58:50.724 VM: VM ESW2 created.
Nov 29 18:58:50.724 HYPERVISOR: exec_cmd: vm set_con_tcp_port ESW2 2002 
Nov 29 18:58:50.725 HYPERVISOR: exec_cmd: vm set_aux_tcp_port ESW2 2502 
Nov 29 18:58:50.725 HYPERVISOR: exec_cmd: c3725 get_mac_addr ESW2 
Nov 29 18:58:50.726 HYPERVISOR: exec_cmd: vm slot_add_binding ESW2 0 16 WIC-2T 
Nov 29 18:58:50.728 HYPERVISOR: exec_cmd: vm set_ios ESW2 /media/actionmystique/SAMSUNG5-VMs/Images/GNS3/IOS/c3725-adventerprisek9-mz.124-15.T10.image 
Nov 29 18:58:50.728 HYPERVISOR: exec_cmd: vm get_status ESW2 
Nov 29 18:58:50.729 HYPERVISOR: exec_cmd: vm set_idle_pc ESW2 0x6026b804 
Nov 29 18:58:50.729 HYPERVISOR: exec_cmd: vm get_status ESW2 
Nov 29 18:58:50.729 HYPERVISOR: exec_cmd: vm slot_add_binding ESW2 1 0 NM-16ESW 
Nov 29 18:58:50.730 HYPERVISOR: exec_cmd: c3725 set_mac_addr ESW2 c202.28c2.0000 
Nov 29 18:58:50.730 HYPERVISOR: exec_cmd: vm set_nvram ESW2 256 
Nov 29 18:58:50.731 HYPERVISOR: exec_cmd: vm set_disk0 ESW2 1 
Nov 29 18:58:50.731 HYPERVISOR: exec_cmd: vm set_config ESW2 configs/i2_startup-config.cfg 
Nov 29 18:58:50.732 HYPERVISOR: exec_cmd: vm set_config ESW2 configs/i2_startup-config.cfg configs/i2_private-config.cfg 
Nov 29 18:58:50.873 HYPERVISOR: exec_cmd: nio create_tap tap-0aaef11d-0066-432f-bd6b-d53733f6d51a tap2 
Nov 29 18:58:50.874 HYPERVISOR: exec_cmd: vm slot_add_nio_binding ESW2 1 0 tap-0aaef11d-0066-432f-bd6b-d53733f6d51a 
Nov 29 18:58:50.879 HYPERVISOR: exec_cmd: vm get_status ESW2 
Nov 29 18:58:50.972 HYPERVISOR: exec_cmd: nio create_udp udp-9d87a9ad-0d29-4091-a65a-c3f06a458a51 15011 127.0.0.1 15010 
Nov 29 18:58:50.973 HYPERVISOR: exec_cmd: vm slot_add_nio_binding ESW2 1 2 udp-9d87a9ad-0d29-4091-a65a-c3f06a458a51 
Nov 29 18:58:50.973 HYPERVISOR: exec_cmd: vm get_status ESW2 
Nov 29 18:59:14.981 HYPERVISOR: exec_cmd: vm get_status ESW2 
Nov 29 18:59:14.982 HYPERVISOR: exec_cmd: vm extract_config ESW2 
Nov 29 18:59:14.983 HYPERVISOR: exec_cmd: vm delete ESW2 
Nov 29 18:59:14.983 VM: VM ESW2 destroyed.
Nov 29 18:59:14.984 HYPERVISOR: exec_cmd: hypervisor stop 
Nov 29 18:59:15.248 HYPERVISOR: Stopped.
Nov 29 18:59:15.248 GENERAL: reset done.
