Nov 26 21:03:46.122 HYPERVISOR: Release 0.2.17-amd64/Linux (tag 2017072410)
Nov 26 21:03:46.122 HYPERVISOR: Started on IP = 127.0.0.1, TCP port = 56875.
Nov 26 21:03:46.148 HYPERVISOR: exec_cmd: hypervisor version 
Nov 26 21:03:46.149 HYPERVISOR: exec_cmd: hypervisor working_dir /media/actionmystique/SAMSUNG5-VMs/Labs/GNS3/PVST+ EtherChannel HSRP with Dual L2-L3 Links/project-files/dynamips 
Nov 26 21:03:46.149 GENERAL: working_dir=/media/actionmystique/SAMSUNG5-VMs/Labs/GNS3/PVST+ EtherChannel HSRP with Dual L2-L3 Links/project-files/dynamips
Nov 26 21:03:46.150 HYPERVISOR: exec_cmd: vm create SW2 2 c3725 
Nov 26 21:03:46.150 VM: VM SW2 created.
Nov 26 21:03:46.151 HYPERVISOR: exec_cmd: vm set_con_tcp_port SW2 2002 
Nov 26 21:03:46.152 HYPERVISOR: exec_cmd: vm set_aux_tcp_port SW2 2502 
Nov 26 21:03:46.153 HYPERVISOR: exec_cmd: c3725 get_mac_addr SW2 
Nov 26 21:03:46.155 HYPERVISOR: exec_cmd: vm set_ios SW2 /media/actionmystique/SAMSUNG5-VMs/Images/GNS3/IOS/c3725-adventerprisek9-mz.124-15.T10.image 
Nov 26 21:03:46.157 HYPERVISOR: exec_cmd: vm set_ram SW2 256 
Nov 26 21:03:46.159 HYPERVISOR: exec_cmd: vm get_status SW2 
Nov 26 21:03:46.161 HYPERVISOR: exec_cmd: vm set_idle_pc SW2 0x6026b804 
Nov 26 21:03:46.162 HYPERVISOR: exec_cmd: vm get_status SW2 
Nov 26 21:03:46.164 HYPERVISOR: exec_cmd: vm slot_add_binding SW2 1 0 NM-16ESW 
Nov 26 21:03:46.165 HYPERVISOR: exec_cmd: vm set_config SW2 configs/i2_startup-config.cfg 
Nov 26 21:03:47.136 HYPERVISOR: exec_cmd: vm extract_config SW2 
Nov 26 21:03:47.236 HYPERVISOR: exec_cmd: nio create_udp udp-5cf5a10e-337b-4f6c-b2ee-d471f86a4a74 15007 127.0.0.1 15006 
Nov 26 21:03:47.240 HYPERVISOR: exec_cmd: vm slot_add_nio_binding SW2 1 0 udp-5cf5a10e-337b-4f6c-b2ee-d471f86a4a74 
Nov 26 21:03:47.240 HYPERVISOR: exec_cmd: vm get_status SW2 
Nov 26 21:03:47.251 HYPERVISOR: exec_cmd: nio create_udp udp-061d98aa-5bc0-43c2-8330-b85e087170f5 15010 127.0.0.1 15008 
Nov 26 21:03:47.252 HYPERVISOR: exec_cmd: vm slot_add_nio_binding SW2 1 4 udp-061d98aa-5bc0-43c2-8330-b85e087170f5 
Nov 26 21:03:47.252 HYPERVISOR: exec_cmd: vm get_status SW2 
Nov 26 21:03:47.259 HYPERVISOR: exec_cmd: nio create_udp udp-3c29f224-2c6d-4f7b-849f-09f421627b7a 15009 127.0.0.1 15012 
Nov 26 21:03:47.260 HYPERVISOR: exec_cmd: vm slot_add_nio_binding SW2 1 3 udp-3c29f224-2c6d-4f7b-849f-09f421627b7a 
Nov 26 21:03:47.261 HYPERVISOR: exec_cmd: vm get_status SW2 
Nov 26 21:03:47.288 HYPERVISOR: exec_cmd: nio create_udp udp-bf4cf4e9-f1e1-44d0-9b26-1d23a6642b4b 15011 127.0.0.1 15013 
Nov 26 21:03:47.289 HYPERVISOR: exec_cmd: vm slot_add_nio_binding SW2 1 7 udp-bf4cf4e9-f1e1-44d0-9b26-1d23a6642b4b 
Nov 26 21:03:47.289 HYPERVISOR: exec_cmd: vm get_status SW2 
Nov 26 21:03:47.305 HYPERVISOR: exec_cmd: nio create_udp udp-7d28a264-5290-4a91-9965-9c4f311f58ec 15015 127.0.0.1 15014 
Nov 26 21:03:47.306 HYPERVISOR: exec_cmd: vm slot_add_nio_binding SW2 1 8 udp-7d28a264-5290-4a91-9965-9c4f311f58ec 
Nov 26 21:03:47.309 HYPERVISOR: exec_cmd: vm get_status SW2 
Nov 26 21:03:47.328 HYPERVISOR: exec_cmd: nio create_udp udp-1d24b84b-06a1-45bf-abf0-93fcc9225952 15017 127.0.0.1 15016 
Nov 26 21:03:47.329 HYPERVISOR: exec_cmd: vm slot_add_nio_binding SW2 1 9 udp-1d24b84b-06a1-45bf-abf0-93fcc9225952 
Nov 26 21:03:47.329 HYPERVISOR: exec_cmd: vm get_status SW2 
Nov 26 21:03:47.523 HYPERVISOR: exec_cmd: nio create_udp udp-f013fa0e-526b-4d97-8ca2-6313e22d5942 15038 127.0.0.1 15037 
Nov 26 21:03:47.524 HYPERVISOR: exec_cmd: vm slot_add_nio_binding SW2 1 1 udp-f013fa0e-526b-4d97-8ca2-6313e22d5942 
Nov 26 21:03:47.524 HYPERVISOR: exec_cmd: vm get_status SW2 
Nov 26 21:03:47.567 HYPERVISOR: exec_cmd: nio create_udp udp-34abd184-6260-493b-9164-eee2d03a43d6 15040 127.0.0.1 15041 
Nov 26 21:03:47.568 HYPERVISOR: exec_cmd: vm slot_add_nio_binding SW2 1 10 udp-34abd184-6260-493b-9164-eee2d03a43d6 
Nov 26 21:03:47.569 HYPERVISOR: exec_cmd: vm get_status SW2 
Nov 26 21:03:47.582 HYPERVISOR: exec_cmd: nio create_udp udp-a1dce0ae-baea-4eb0-a855-4711a88d6c16 15044 127.0.0.1 15043 
Nov 26 21:03:47.583 HYPERVISOR: exec_cmd: vm slot_add_nio_binding SW2 1 11 udp-a1dce0ae-baea-4eb0-a855-4711a88d6c16 
Nov 26 21:03:47.584 HYPERVISOR: exec_cmd: vm get_status SW2 
Nov 26 21:03:47.617 HYPERVISOR: exec_cmd: nio create_udp udp-39e9fcc8-a32a-49b3-926f-09ad59e32d46 15042 127.0.0.1 15045 
Nov 26 21:03:47.617 HYPERVISOR: exec_cmd: vm slot_add_nio_binding SW2 1 2 udp-39e9fcc8-a32a-49b3-926f-09ad59e32d46 
Nov 26 21:03:47.617 HYPERVISOR: exec_cmd: vm get_status SW2 
Nov 26 21:03:47.768 HYPERVISOR: exec_cmd: nio create_udp udp-b388a6c4-c58f-4593-9bb4-4665c1d267d2 15060 127.0.0.1 15061 
Nov 26 21:03:47.769 HYPERVISOR: exec_cmd: vm slot_add_nio_binding SW2 0 0 udp-b388a6c4-c58f-4593-9bb4-4665c1d267d2 
Nov 26 21:03:47.769 HYPERVISOR: exec_cmd: vm get_status SW2 
Nov 26 21:04:03.939 HYPERVISOR: exec_cmd: vm get_status SW2 
Nov 26 21:04:03.943 HYPERVISOR: exec_cmd: vm extract_config SW2 
Nov 26 21:04:03.992 HYPERVISOR: exec_cmd: vm delete SW2 
Nov 26 21:04:03.992 VM: VM SW2 destroyed.
Nov 26 21:04:03.995 HYPERVISOR: exec_cmd: hypervisor stop 
Nov 26 21:04:04.163 HYPERVISOR: Stopped.
Nov 26 21:04:04.163 GENERAL: reset done.
