Nov 26 21:03:46.263 HYPERVISOR: Release 0.2.17-amd64/Linux (tag 2017072410)
Nov 26 21:03:46.263 HYPERVISOR: Started on IP = 127.0.0.1, TCP port = 60427.
Nov 26 21:03:46.296 HYPERVISOR: exec_cmd: hypervisor version 
Nov 26 21:03:46.307 HYPERVISOR: exec_cmd: hypervisor working_dir /media/actionmystique/SAMSUNG5-VMs/Labs/GNS3/PVST+ EtherChannel HSRP with Dual L2-L3 Links/project-files/dynamips 
Nov 26 21:03:46.307 GENERAL: working_dir=/media/actionmystique/SAMSUNG5-VMs/Labs/GNS3/PVST+ EtherChannel HSRP with Dual L2-L3 Links/project-files/dynamips
Nov 26 21:03:46.313 HYPERVISOR: exec_cmd: vm create GooglISP 11 c7200 
Nov 26 21:03:46.313 VM: VM GooglISP created.
Nov 26 21:03:46.315 HYPERVISOR: exec_cmd: vm set_con_tcp_port GooglISP 2012 
Nov 26 21:03:46.316 HYPERVISOR: exec_cmd: vm set_aux_tcp_port GooglISP 2512 
Nov 26 21:03:46.323 HYPERVISOR: exec_cmd: c7200 get_mac_addr GooglISP 
Nov 26 21:03:46.325 HYPERVISOR: exec_cmd: vm get_status GooglISP 
Nov 26 21:03:46.329 HYPERVISOR: exec_cmd: vm slot_add_binding GooglISP 0 0 C7200-IO-FE 
Nov 26 21:03:46.331 HYPERVISOR: exec_cmd: vm set_ram GooglISP 512 
Nov 26 21:03:46.336 HYPERVISOR: exec_cmd: vm get_status GooglISP 
Nov 26 21:03:46.343 HYPERVISOR: exec_cmd: vm set_idle_pc GooglISP 0x60188e14 
Nov 26 21:03:46.345 HYPERVISOR: exec_cmd: vm get_status GooglISP 
Nov 26 21:03:46.345 HYPERVISOR: exec_cmd: vm slot_add_binding GooglISP 1 0 PA-POS-OC3 
Nov 26 21:03:46.346 HYPERVISOR: exec_cmd: vm set_ios GooglISP /media/actionmystique/SAMSUNG5-VMs/Images/GNS3/IOS/c7200-adventerprisek9-mz.152-4.M2.image 
Nov 26 21:03:46.347 HYPERVISOR: exec_cmd: vm set_config GooglISP configs/i11_startup-config.cfg 
Nov 26 21:03:47.141 HYPERVISOR: exec_cmd: vm extract_config GooglISP 
Nov 26 21:03:47.732 HYPERVISOR: exec_cmd: nio create_udp udp-aaaf4378-18f1-48d3-898e-a24c1a89477a 15057 127.0.0.1 15056 
Nov 26 21:03:47.733 HYPERVISOR: exec_cmd: vm slot_add_nio_binding GooglISP 0 0 udp-aaaf4378-18f1-48d3-898e-a24c1a89477a 
Nov 26 21:03:47.733 HYPERVISOR: exec_cmd: vm get_status GooglISP 
Nov 26 21:03:47.748 HYPERVISOR: exec_cmd: nio create_udp udp-c2ff7e48-1310-4dca-ab0c-65757d402eec 15058 127.0.0.1 15059 
Nov 26 21:03:47.751 HYPERVISOR: exec_cmd: vm slot_add_nio_binding GooglISP 1 0 udp-c2ff7e48-1310-4dca-ab0c-65757d402eec 
Nov 26 21:03:47.752 HYPERVISOR: exec_cmd: vm get_status GooglISP 
Nov 26 21:04:03.940 HYPERVISOR: exec_cmd: vm get_status GooglISP 
Nov 26 21:04:03.944 HYPERVISOR: exec_cmd: vm extract_config GooglISP 
Nov 26 21:04:03.947 HYPERVISOR: exec_cmd: vm delete GooglISP 
Nov 26 21:04:03.947 VM: VM GooglISP destroyed.
Nov 26 21:04:03.948 HYPERVISOR: exec_cmd: hypervisor stop 
Nov 26 21:04:04.310 HYPERVISOR: Stopped.
Nov 26 21:04:04.310 GENERAL: reset done.
