Nov 27 16:25:55.578 HYPERVISOR: Release 0.2.17-amd64/Linux (tag 2017072410)
Nov 27 16:25:55.579 HYPERVISOR: Started on IP = 127.0.0.1, TCP port = 33687.
Nov 27 16:25:55.615 HYPERVISOR: exec_cmd: hypervisor version 
Nov 27 16:25:55.616 HYPERVISOR: exec_cmd: hypervisor working_dir /media/actionmystique/SAMSUNG5-VMs/Labs/GNS3/TT 1-solutions-linux-/project-files/dynamips 
Nov 27 16:25:55.616 GENERAL: working_dir=/media/actionmystique/SAMSUNG5-VMs/Labs/GNS3/TT 1-solutions-linux-/project-files/dynamips
Nov 27 16:25:55.616 HYPERVISOR: exec_cmd: vm create ESW2 2 c3725 
Nov 27 16:25:55.616 VM: VM ESW2 created.
Nov 27 16:25:55.617 HYPERVISOR: exec_cmd: vm set_con_tcp_port ESW2 2002 
Nov 27 16:25:55.618 HYPERVISOR: exec_cmd: vm set_aux_tcp_port ESW2 2502 
Nov 27 16:25:55.618 HYPERVISOR: exec_cmd: c3725 get_mac_addr ESW2 
Nov 27 16:25:55.619 HYPERVISOR: exec_cmd: vm set_nvram ESW2 256 
Nov 27 16:25:55.619 HYPERVISOR: exec_cmd: vm get_status ESW2 
Nov 27 16:25:55.620 HYPERVISOR: exec_cmd: vm set_idle_pc ESW2 0x6026b804 
Nov 27 16:25:55.621 HYPERVISOR: exec_cmd: c3725 set_mac_addr ESW2 c202.28c2.0000 
Nov 27 16:25:55.622 HYPERVISOR: exec_cmd: vm get_status ESW2 
Nov 27 16:25:55.624 HYPERVISOR: exec_cmd: vm slot_add_binding ESW2 1 0 NM-16ESW 
Nov 27 16:25:55.624 HYPERVISOR: exec_cmd: vm set_disk0 ESW2 1 
Nov 27 16:25:55.625 HYPERVISOR: exec_cmd: vm set_ios ESW2 /media/actionmystique/SAMSUNG5-VMs/Images/GNS3/IOS/c3725-adventerprisek9-mz.124-15.T10.image 
Nov 27 16:25:55.626 HYPERVISOR: exec_cmd: vm slot_add_binding ESW2 0 16 WIC-2T 
Nov 27 16:25:55.627 HYPERVISOR: exec_cmd: vm set_config ESW2 configs/i2_startup-config.cfg 
Nov 27 16:25:55.628 HYPERVISOR: exec_cmd: vm set_config ESW2 configs/i2_startup-config.cfg configs/i2_private-config.cfg 
Nov 27 16:25:55.710 HYPERVISOR: exec_cmd: nio create_tap tap-cdfbaf78-7896-4b53-8d5c-6899b1c5da57 tap0 
Nov 27 16:25:55.713 HYPERVISOR: exec_cmd: vm slot_add_nio_binding ESW2 1 0 tap-cdfbaf78-7896-4b53-8d5c-6899b1c5da57 
Nov 27 16:25:55.715 HYPERVISOR: exec_cmd: vm get_status ESW2 
Nov 27 16:25:55.809 HYPERVISOR: exec_cmd: nio create_udp udp-5ba11829-88a1-4b7f-873e-1b1bb1e4dd3d 15004 127.0.0.1 15005 
Nov 27 16:25:55.810 HYPERVISOR: exec_cmd: vm slot_add_nio_binding ESW2 1 1 udp-5ba11829-88a1-4b7f-873e-1b1bb1e4dd3d 
Nov 27 16:25:55.815 HYPERVISOR: exec_cmd: vm get_status ESW2 
Nov 27 16:26:09.549 HYPERVISOR: exec_cmd: vm get_status ESW2 
Nov 27 16:26:09.550 HYPERVISOR: exec_cmd: vm extract_config ESW2 
Nov 27 16:26:09.551 HYPERVISOR: exec_cmd: vm delete ESW2 
Nov 27 16:26:09.551 VM: VM ESW2 destroyed.
Nov 27 16:26:09.552 HYPERVISOR: exec_cmd: hypervisor stop 
Nov 27 16:26:09.628 HYPERVISOR: Stopped.
Nov 27 16:26:09.628 GENERAL: reset done.
