autostart = False
version = 0.8.3
[127.0.0.1:7200]
    workingdir = C:\Users\ActionMystique\Documents\Missions\GNS3\Temp
    udp = 10200
    [[3640]]
        image = C:\Users\ActionMystique\Documents\Missions\IOS\Binaries\c3640-jk9o3s-mz.124-16a.bin
        idlepc = 0x604d1c74
        sparsemem = True
        ghostios = True
        chassis = 3640
    [[ROUTER Mitchell]]
        model = 3640
        console = 2002
        aux = 2100
        cnfg = configs\Mitchell.cfg
        slot0 = NM-1FE-TX
        f0/0 = Foxx f1/0
        slot1 = NM-1FE-TX
        f1/0 = Green f0/0
        x = -263.516810667
        y = -119.580735804
        z = 1.0
        hx = 1.41421356237
        hy = -20.7573593129
    [[ROUTER Green]]
        model = 3640
        console = 2003
        aux = 2103
        cnfg = configs\Green.cfg
        slot0 = NM-1FE-TX
        f0/0 = Mitchell f1/0
        slot1 = NM-1FE-TX
        f1/0 = Rollins f0/0
        x = -119.267027305
        y = 9.11269837221
        z = 1.0
        hx = 38.1837661841
        hy = -20.7573593129
    [[ROUTER Rollins]]
        model = 3640
        console = 2004
        aux = 2101
        cnfg = configs\Rollins.cfg
        slot0 = NM-1FE-TX
        f0/0 = Green f1/0
        x = -119.974134086
        y = 206.395490323
        z = 1.0
        hx = 5.70710678119
        hy = 40.0538238692
    [[ROUTER Baldwin]]
        model = 3640
        console = 2000
        aux = 2104
        cnfg = configs\Baldwin.cfg
        slot0 = NM-1FE-TX
        f0/0 = Foxx f0/0
        x = -404.514718626
        y = 203.85638508
        z = 1.0
        hx = 0.707106781187
        hy = 40.0538238692
    [[ROUTER Foxx]]
        model = 3640
        console = 2001
        aux = 2102
        cnfg = configs\Foxx.cfg
        slot0 = NM-1FE-TX
        f0/0 = Baldwin f0/0
        slot1 = NM-1FE-TX
        f1/0 = Mitchell f0/0
        x = -402.109739779
        y = 14.7695526217
        z = 1.0
        hx = -13.2487373415
        hy = -20.7573593129
[GNS3-DATA]
    configs = configs
    m11 = 0.999999999998
    m22 = 0.999999999998
    [[NOTE 1]]
        text = ".2"
        x = -391.737156777
        y = 52.6518036156
        color = "#0000ff"
    [[NOTE 2]]
        text = "192.168.45.0 /24"
        x = -166.170093579
        y = 124.57568517
        color = "#0000ff"
    [[NOTE 3]]
        text = "BGP AS 2"
        x = -111.015764646
        y = -144.429978209
        color = "#323232"
    [[NOTE 4]]
        text = "192.168.23.0 /24"
        x = -384.666088965
        y = -46.8492424049
        color = "#0000ff"
    [[NOTE 5]]
        text = "192.168.34.0 /24"
        x = -205.768073325
        y = -48.4644660941
        color = "#0000ff"
    [[NOTE 6]]
        text = "192.168.12.0 /24"
        x = -413.657466994
        y = 123.057395207
        color = "#0000ff"
    [[NOTE 7]]
        text = "BGP AS 1"
        x = -320.319371878
        y = 242.558441227
        color = "#323232"
    [[NOTE 8]]
        text = "BGP AS 3"
        x = -207.182286888
        y = 242.863527755
        color = "#323232"
    [[NOTE 9]]
        text = ".5"
        x = -111.015764646
        y = 184.381817718
        color = "#0000ff"
    [[NOTE 10]]
        text = ".4"
        x = -111.015764646
        y = 48.1112190758
        color = "#0000ff"
    [[NOTE 11]]
        text = ".4"
        x = -141.421356237
        y = -4.72077938642
        color = "#0000ff"
    [[NOTE 12]]
        text = ".3"
        x = -226.981276761
        y = -81.594408409
        color = "#0000ff"
    [[NOTE 13]]
        text = ".1"
        x = -395.979797464
        y = 181.546247918
        color = "#0000ff"
    [[NOTE 14]]
        text = ".3"
        x = -258.093975133
        y = -81.3933982822
        color = "#0000ff"
    [[NOTE 15]]
        text = ".2"
        x = -338.704148188
        y = 0.124891681028
        color = "#0000ff"
    [[SHAPE 1]]
        type = rectangle
        x = -209.504617358
        y = 86.7731239592
        width = 176.977705423
        height = 184.048773235
        fill_color = "#aaffff"
        z = -2.0
    [[SHAPE 2]]
        type = rectangle
        x = -414.364573775
        y = 86.9741340859
        width = 171.119841047
        height = 183.847763109
        fill_color = "#ffaa7f"
        z = -2.0
    [[SHAPE 3]]
        type = rectangle
        x = -414.364573775
        y = -144.956890143
        width = 382.544768622
        height = 230.516810667
        fill_color = "#aaff7f"
        z = -2.0
