Nov 26 20:45:13.651 HYPERVISOR: Release 0.2.17-amd64/Linux (tag 2017072410)
Nov 26 20:45:13.651 HYPERVISOR: Started on IP = 127.0.0.1, TCP port = 32961.
Nov 26 20:45:13.713 HYPERVISOR: exec_cmd: hypervisor version 
Nov 26 20:45:13.716 HYPERVISOR: exec_cmd: hypervisor working_dir /media/actionmystique/SAMSUNG5-VMs/Labs/GNS3/MCT and GRE Tunnels/project-files/dynamips 
Nov 26 20:45:13.716 GENERAL: working_dir=/media/actionmystique/SAMSUNG5-VMs/Labs/GNS3/MCT and GRE Tunnels/project-files/dynamips
Nov 26 20:45:13.718 HYPERVISOR: exec_cmd: vm create RD5 8 c7200 
Nov 26 20:45:13.718 VM: VM RD5 created.
Nov 26 20:45:13.720 HYPERVISOR: exec_cmd: vm set_con_tcp_port RD5 2006 
Nov 26 20:45:13.721 HYPERVISOR: exec_cmd: vm set_aux_tcp_port RD5 2106 
Nov 26 20:45:13.722 HYPERVISOR: exec_cmd: c7200 get_mac_addr RD5 
Nov 26 20:45:13.724 HYPERVISOR: exec_cmd: vm get_status RD5 
Nov 26 20:45:13.725 HYPERVISOR: exec_cmd: vm slot_add_binding RD5 0 0 C7200-IO-FE 
Nov 26 20:45:13.728 HYPERVISOR: exec_cmd: vm get_status RD5 
Nov 26 20:45:13.735 HYPERVISOR: exec_cmd: vm slot_remove_binding RD5 0 0 
Nov 26 20:45:13.748 HYPERVISOR: exec_cmd: vm get_status RD5 
Nov 26 20:45:13.749 HYPERVISOR: exec_cmd: vm slot_add_binding RD5 0 0 C7200-IO-GE-E 
Nov 26 20:45:13.751 HYPERVISOR: exec_cmd: vm set_ram RD5 512 
Nov 26 20:45:13.752 HYPERVISOR: exec_cmd: vm get_status RD5 
Nov 26 20:45:13.754 HYPERVISOR: exec_cmd: vm set_idle_pc RD5 0x606dd06c 
Nov 26 20:45:13.755 HYPERVISOR: exec_cmd: vm get_status RD5 
Nov 26 20:45:13.756 HYPERVISOR: exec_cmd: vm slot_add_binding RD5 1 0 PA-8T 
Nov 26 20:45:13.758 HYPERVISOR: exec_cmd: vm set_ios RD5 /media/actionmystique/SAMSUNG5-VMs/Images/GNS3/IOS/c7200-adventerprisek9-mz.152-4.M2.image 
Nov 26 20:45:13.759 HYPERVISOR: exec_cmd: vm set_config RD5 configs/i8_startup-config.cfg 
Nov 26 20:45:14.364 HYPERVISOR: exec_cmd: vm extract_config RD5 
Nov 26 20:45:14.504 HYPERVISOR: exec_cmd: nio create_udp udp-3c3d7d48-86b5-46c4-9e6d-6b623c60f4a3 15016 127.0.0.1 15014 
Nov 26 20:45:14.504 HYPERVISOR: exec_cmd: vm slot_add_nio_binding RD5 1 0 udp-3c3d7d48-86b5-46c4-9e6d-6b623c60f4a3 
Nov 26 20:45:14.505 HYPERVISOR: exec_cmd: vm get_status RD5 
Nov 26 20:45:14.525 HYPERVISOR: exec_cmd: nio create_udp udp-940dc73b-6caf-4436-82c4-3995c3fbc3b3 15018 127.0.0.1 15015 
Nov 26 20:45:14.525 HYPERVISOR: exec_cmd: vm slot_add_nio_binding RD5 1 1 udp-940dc73b-6caf-4436-82c4-3995c3fbc3b3 
Nov 26 20:45:14.526 HYPERVISOR: exec_cmd: vm get_status RD5 
Nov 26 20:45:14.544 HYPERVISOR: exec_cmd: nio create_udp udp-df633a12-ae94-40f6-8749-5069a8916f35 15019 127.0.0.1 15017 
Nov 26 20:45:14.545 HYPERVISOR: exec_cmd: vm slot_add_nio_binding RD5 1 2 udp-df633a12-ae94-40f6-8749-5069a8916f35 
Nov 26 20:45:14.545 HYPERVISOR: exec_cmd: vm get_status RD5 
Nov 26 20:45:21.940 HYPERVISOR: exec_cmd: vm extract_config RD5 
Nov 26 20:45:42.059 HYPERVISOR: exec_cmd: vm get_status RD5 
Nov 26 20:45:42.063 HYPERVISOR: exec_cmd: vm extract_config RD5 
Nov 26 20:45:42.067 HYPERVISOR: exec_cmd: vm delete RD5 
Nov 26 20:45:42.067 VM: VM RD5 destroyed.
Nov 26 20:45:42.071 HYPERVISOR: exec_cmd: hypervisor stop 
Nov 26 20:45:42.212 HYPERVISOR: Stopped.
Nov 26 20:45:42.212 GENERAL: reset done.
