Nov 26 20:45:13.782 HYPERVISOR: Release 0.2.17-amd64/Linux (tag 2017072410)
Nov 26 20:45:13.782 HYPERVISOR: Started on IP = 127.0.0.1, TCP port = 56781.
Nov 26 20:45:13.819 HYPERVISOR: exec_cmd: hypervisor version 
Nov 26 20:45:13.821 HYPERVISOR: exec_cmd: hypervisor working_dir /media/actionmystique/SAMSUNG5-VMs/Labs/GNS3/MCT and GRE Tunnels/project-files/dynamips 
Nov 26 20:45:13.821 GENERAL: working_dir=/media/actionmystique/SAMSUNG5-VMs/Labs/GNS3/MCT and GRE Tunnels/project-files/dynamips
Nov 26 20:45:13.822 HYPERVISOR: exec_cmd: vm create R12 13 c7200 
Nov 26 20:45:13.822 VM: VM R12 created.
Nov 26 20:45:13.829 HYPERVISOR: exec_cmd: vm set_con_tcp_port R12 2013 
Nov 26 20:45:13.832 HYPERVISOR: exec_cmd: vm set_aux_tcp_port R12 2113 
Nov 26 20:45:13.834 HYPERVISOR: exec_cmd: c7200 get_mac_addr R12 
Nov 26 20:45:13.836 HYPERVISOR: exec_cmd: vm get_status R12 
Nov 26 20:45:13.837 HYPERVISOR: exec_cmd: vm slot_add_binding R12 0 0 C7200-IO-FE 
Nov 26 20:45:13.839 HYPERVISOR: exec_cmd: vm set_ios R12 /media/actionmystique/SAMSUNG5-VMs/Images/GNS3/IOS/c7200-adventerprisek9-mz.152-4.M2.image 
Nov 26 20:45:13.840 HYPERVISOR: exec_cmd: vm get_status R12 
Nov 26 20:45:13.841 HYPERVISOR: exec_cmd: vm slot_remove_binding R12 0 0 
Nov 26 20:45:13.843 HYPERVISOR: exec_cmd: vm get_status R12 
Nov 26 20:45:13.845 HYPERVISOR: exec_cmd: vm slot_add_binding R12 0 0 C7200-IO-2FE 
Nov 26 20:45:13.847 HYPERVISOR: exec_cmd: vm get_status R12 
Nov 26 20:45:13.851 HYPERVISOR: exec_cmd: vm set_idle_pc R12 0x606dd06c 
Nov 26 20:45:13.854 HYPERVISOR: exec_cmd: vm set_ram R12 512 
Nov 26 20:45:13.856 HYPERVISOR: exec_cmd: vm set_config R12 configs/i13_startup-config.cfg 
Nov 26 20:45:14.365 HYPERVISOR: exec_cmd: vm extract_config R12 
Nov 26 20:45:14.695 HYPERVISOR: exec_cmd: nio create_udp udp-54299537-3666-4e78-ae9e-f4e8ea9fdf4f 15034 127.0.0.1 15036 
Nov 26 20:45:14.696 HYPERVISOR: exec_cmd: vm slot_add_nio_binding R12 0 0 udp-54299537-3666-4e78-ae9e-f4e8ea9fdf4f 
Nov 26 20:45:14.697 HYPERVISOR: exec_cmd: vm get_status R12 
Nov 26 20:45:21.940 HYPERVISOR: exec_cmd: vm extract_config R12 
Nov 26 20:45:42.061 HYPERVISOR: exec_cmd: vm get_status R12 
Nov 26 20:45:42.065 HYPERVISOR: exec_cmd: vm extract_config R12 
Nov 26 20:45:42.069 HYPERVISOR: exec_cmd: vm delete R12 
Nov 26 20:45:42.069 VM: VM R12 destroyed.
Nov 26 20:45:42.074 HYPERVISOR: exec_cmd: hypervisor stop 
Nov 26 20:45:42.333 HYPERVISOR: Stopped.
Nov 26 20:45:42.333 GENERAL: reset done.
