Nov 29 19:03:28.357 HYPERVISOR: Release 0.2.17-amd64/Linux (tag 2017072410)
Nov 29 19:03:28.357 HYPERVISOR: Started on IP = 127.0.0.1, TCP port = 48481.
Nov 29 19:03:28.369 HYPERVISOR: exec_cmd: hypervisor version 
Nov 29 19:03:28.370 HYPERVISOR: exec_cmd: hypervisor working_dir /media/actionmystique/SAMSUNG5-VMs/Labs/GNS3/TT 1-linux-/project-files/dynamips 
Nov 29 19:03:28.370 GENERAL: working_dir=/media/actionmystique/SAMSUNG5-VMs/Labs/GNS3/TT 1-linux-/project-files/dynamips
Nov 29 19:03:28.370 HYPERVISOR: exec_cmd: vm create ESW2 2 c3725 
Nov 29 19:03:28.370 VM: VM ESW2 created.
Nov 29 19:03:28.370 HYPERVISOR: exec_cmd: vm set_con_tcp_port ESW2 2005 
Nov 29 19:03:28.371 HYPERVISOR: exec_cmd: c3725 get_mac_addr ESW2 
Nov 29 19:03:28.371 HYPERVISOR: exec_cmd: vm slot_add_binding ESW2 0 16 WIC-2T 
Nov 29 19:03:28.371 HYPERVISOR: exec_cmd: vm set_ios ESW2 /media/actionmystique/SAMSUNG5-VMs/Images/GNS3/IOS/c3725-adventerprisek9-mz.124-15.T10.image 
Nov 29 19:03:28.372 HYPERVISOR: exec_cmd: vm get_status ESW2 
Nov 29 19:03:28.372 HYPERVISOR: exec_cmd: vm set_idle_pc ESW2 0x614ac27c 
Nov 29 19:03:28.372 HYPERVISOR: exec_cmd: vm get_status ESW2 
Nov 29 19:03:28.373 HYPERVISOR: exec_cmd: vm slot_add_binding ESW2 1 0 NM-16ESW 
Nov 29 19:03:28.373 HYPERVISOR: exec_cmd: c3725 set_mac_addr ESW2 c202.1bd4.0000 
Nov 29 19:03:28.374 HYPERVISOR: exec_cmd: vm set_nvram ESW2 256 
Nov 29 19:03:28.374 HYPERVISOR: exec_cmd: vm set_disk0 ESW2 1 
Nov 29 19:03:28.374 HYPERVISOR: exec_cmd: vm set_config ESW2 configs/ios_base_startup-config.txt 
Nov 29 19:03:28.375 HYPERVISOR: exec_cmd: vm set_config ESW2 configs/ios_base_startup-config.txt configs/ios_base_private-config.txt 
Nov 29 19:03:28.720 HYPERVISOR: exec_cmd: nio create_udp udp-f9c4c0d1-e55c-4469-92e4-257a99e6cd92 15005 127.0.0.1 15000 
Nov 29 19:03:28.721 HYPERVISOR: exec_cmd: vm slot_add_nio_binding ESW2 1 0 udp-f9c4c0d1-e55c-4469-92e4-257a99e6cd92 
Nov 29 19:03:28.721 HYPERVISOR: exec_cmd: vm get_status ESW2 
Nov 29 19:03:51.973 HYPERVISOR: exec_cmd: vm get_status ESW2 
Nov 29 19:03:51.974 HYPERVISOR: exec_cmd: vm extract_config ESW2 
Nov 29 19:03:51.976 HYPERVISOR: exec_cmd: vm delete ESW2 
Nov 29 19:03:51.976 VM: VM ESW2 destroyed.
Nov 29 19:03:51.978 HYPERVISOR: exec_cmd: hypervisor stop 
Nov 29 19:03:52.393 HYPERVISOR: Stopped.
Nov 29 19:03:52.393 GENERAL: reset done.
