autostart = False
version = 0.8.6
[127.0.0.1:7202]
    workingdir = C:\Users\BBURDE~1\AppData\Local\Temp
    udp = 10201
    [[3725]]
        image = C:\Users\BBurdette\Documents\GNS3\Images\c3725-adventerprisek9_ivs-mz.124-15.T13.image
        ram = 128
        idlepc = 0x62bc385c
        sparsemem = True
        ghostios = True
    [[ROUTER R10]]
        model = 3725
        console = 2110
        aux = 2510
        cnfg = configs\R10.cfg
        wic0/0 = WIC-2T
        s0/0 = R7 s0/1
        s0/1 = R9 s0/1
        x = 261.0
        y = 202.0
        z = 1.0
        hx = 14.5
        hy = 19.0
    [[ROUTER R9]]
        model = 3725
        console = 2109
        aux = 2509
        cnfg = configs\R9.cfg
        wic0/0 = WIC-2T
        s0/0 = FR1 3
        s0/1 = R10 s0/1
        x = 361.0
        y = 79.0
        z = 1.0
        hx = 20.5
        hy = 17.0
[127.0.0.1:7200]
    workingdir = C:\Users\BBURDE~1\AppData\Local\Temp
    udp = 10001
    [[3725]]
        image = C:\Users\BBurdette\Documents\GNS3\Images\c3725-adventerprisek9_ivs-mz.124-15.T13.image
        ram = 128
        idlepc = 0x62bc385c
        sparsemem = True
        ghostios = True
    [[ROUTER R4]]
        model = 3725
        console = 2104
        aux = 2504
        cnfg = configs\R4.cfg
        wic0/0 = WIC-1T
        s0/0 = R2 s0/2
        x = 206.0
        y = -217.0
        z = 1.0
        hx = 19.5
        hy = 15.0
    [[ROUTER R2]]
        model = 3725
        console = 2102
        aux = 2502
        cnfg = configs\R2.cfg
        wic0/0 = WIC-2T
        wic0/1 = WIC-1T
        s0/0 = FR1 1
        s0/1 = R8 s0/1
        s0/2 = R4 s0/0
        f0/0 = SW1 2
        x = 42.0
        y = -59.0
        z = 1.0
        hx = 21.5
        hy = 18.0
    [[ROUTER R3]]
        model = 3725
        console = 2103
        aux = 2503
        cnfg = configs\R3.cfg
        f0/0 = SW1 3
        x = -60.0
        y = 199.0
        z = 1.0
        hx = 19.5
        hy = 19.0
    [[FRSW FR1]]
        1:207 = 2:702
        1:209 = 3:902
        2:702 = 1:207
        2:709 = 3:907
        3:902 = 1:209
        3:907 = 2:709
        1 = R2 s0/0
        2 = R7 s0/0
        3 = R9 s0/0
        x = 260.5
        y = -61.5
        z = 1.0
    [[ETHSW SW1]]
        1 = access 1 R1 f0/0
        2 = access 1 R2 f0/0
        3 = access 1 R3 f0/0
        x = -65.5
        y = 74.0
        z = 1.0
        hx = 12.0
        hy = 11.0
    [[ROUTER R1]]
        model = 3725
        console = 2101
        aux = 2501
        cnfg = configs\R1.cfg
        wic0/0 = WIC-2T
        s0/0 = R8 s0/0
        s0/1 = R5 s0/0
        f0/0 = SW1 1
        x = -178.0
        y = -52.0
        z = 1.0
        hx = 21.5
        hy = 20.0
[127.0.0.1:7201]
    workingdir = C:\Users\BBURDE~1\AppData\Local\Temp
    udp = 10101
    [[3725]]
        image = C:\Users\BBurdette\Documents\GNS3\Images\c3725-adventerprisek9_ivs-mz.124-15.T13.image
        ram = 128
        idlepc = 0x62bc385c
        sparsemem = True
        ghostios = True
    [[ROUTER R5]]
        model = 3725
        console = 2105
        aux = 2505
        cnfg = configs\R5.cfg
        wic0/0 = WIC-1T
        s0/0 = R1 s0/1
        f0/0 = R6 f0/0
        x = -378.0
        y = -52.0
        z = 1.0
        hx = 20.5
        hy = 19.0
    [[ROUTER R6]]
        model = 3725
        console = 2106
        aux = 2506
        cnfg = configs\R6.cfg
        f0/0 = R5 f0/0
        x = -380.0
        y = -216.0
        z = 1.0
        hx = 21.5
        hy = 19.0
    [[ROUTER R7]]
        model = 3725
        console = 2107
        aux = 2507
        cnfg = configs\R7.cfg
        wic0/0 = WIC-2T
        s0/0 = FR1 2
        s0/1 = R10 s0/0
        x = 151.0
        y = 80.0
        z = 1.0
        hx = 21.5
        hy = 19.0
    [[ROUTER R8]]
        model = 3725
        console = 2108
        aux = 2508
        cnfg = configs\R8.cfg
        wic0/0 = WIC-2T
        s0/0 = R1 s0/0
        s0/1 = R2 s0/1
        x = -70.0
        y = -218.0
        z = 1.0
        hx = 20.5
        hy = 19.0
[GNS3-DATA]
    configs = configs
