Apr 10 15:30:19.065 HYPERVISOR: Release 0.2.14-amd64/Linux (tag 2014092320)
Apr 10 15:30:19.065 HYPERVISOR: Started on IP = 127.0.0.1, TCP port = 7210.
Apr 10 15:30:19.073 HYPERVISOR: exec_cmd: hypervisor version 
Apr 10 15:30:19.073 HYPERVISOR: exec_cmd: hypervisor uuid 
Apr 10 15:30:19.073 HYPERVISOR: exec_cmd: hypervisor working_dir /home/actionmystique/Google Drive/Missions/Certifications/Cisco/Labs/GNS3/CCNP-Security/FIREWALL/Jean-Christophe/1+/Data Center ASA - ASDM - AAA - VMs-linux/Data Center ASA - ASDM - AAA - VMs-linux-files/dynamips 
Apr 10 15:30:19.073 GENERAL: working_dir=/home/actionmystique/Google Drive/Missions/Certifications/Cisco/Labs/GNS3/CCNP-Security/FIREWALL/Jean-Christophe/1+/Data Center ASA - ASDM - AAA - VMs-linux/Data Center ASA - ASDM - AAA - VMs-linux-files/dynamips
Apr 10 15:30:19.073 HYPERVISOR: exec_cmd: vm create SW0_Internet 11 c3725 
Apr 10 15:30:19.074 VM: VM SW0_Internet created.
Apr 10 15:30:19.074 HYPERVISOR: exec_cmd: vm set_con_tcp_port SW0_Internet 2008 
Apr 10 15:30:19.074 HYPERVISOR: exec_cmd: vm set_aux_tcp_port SW0_Internet 2508 
Apr 10 15:30:19.074 HYPERVISOR: exec_cmd: c3725 get_mac_addr SW0_Internet 
Apr 10 15:30:19.074 HYPERVISOR: exec_cmd: vm set_ios SW0_Internet /media/actionmystique/SAMSUNG-Ext4/Images/GNS3/IOS/c3725-adventerprisek9-mz.124-15.T10.image 
Apr 10 15:30:19.074 HYPERVISOR: exec_cmd: vm set_sparse_mem SW0_Internet 1 
Apr 10 15:30:19.074 HYPERVISOR: exec_cmd: vm set_ram_mmap SW0_Internet 1 
Apr 10 15:30:19.075 HYPERVISOR: exec_cmd: vm set_con_tcp_port SW0_Internet 2113 
Apr 10 15:30:19.075 HYPERVISOR: exec_cmd: vm set_aux_tcp_port SW0_Internet 2513 
Apr 10 15:30:19.075 HYPERVISOR: exec_cmd: c3725 set_mac_addr SW0_Internet c20b.0758.0000 
Apr 10 15:30:19.075 HYPERVISOR: exec_cmd: vm set_ghost_status SW0_Internet 2 
Apr 10 15:30:19.075 HYPERVISOR: exec_cmd: vm set_ghost_file SW0_Internet c3725-adventerprisek9-mz.124-15.T10.image-128.ghost 
