Apr 10 15:30:18.958 HYPERVISOR: Release 0.2.14-amd64/Linux (tag 2014092320)
Apr 10 15:30:18.959 HYPERVISOR: Started on IP = 127.0.0.1, TCP port = 7204.
Apr 10 15:30:18.965 HYPERVISOR: exec_cmd: hypervisor version 
Apr 10 15:30:18.965 HYPERVISOR: exec_cmd: hypervisor uuid 
Apr 10 15:30:18.965 HYPERVISOR: exec_cmd: hypervisor working_dir /home/actionmystique/Google Drive/Missions/Certifications/Cisco/Labs/GNS3/CCNP-Security/FIREWALL/Jean-Christophe/1+/Data Center ASA - ASDM - AAA - VMs-linux/Data Center ASA - ASDM - AAA - VMs-linux-files/dynamips 
Apr 10 15:30:18.965 GENERAL: working_dir=/home/actionmystique/Google Drive/Missions/Certifications/Cisco/Labs/GNS3/CCNP-Security/FIREWALL/Jean-Christophe/1+/Data Center ASA - ASDM - AAA - VMs-linux/Data Center ASA - ASDM - AAA - VMs-linux-files/dynamips
Apr 10 15:30:18.966 HYPERVISOR: exec_cmd: vm create SW5 5 c3725 
Apr 10 15:30:18.966 VM: VM SW5 created.
Apr 10 15:30:18.966 HYPERVISOR: exec_cmd: vm set_con_tcp_port SW5 2005 
Apr 10 15:30:18.966 HYPERVISOR: exec_cmd: vm set_aux_tcp_port SW5 2505 
Apr 10 15:30:18.966 HYPERVISOR: exec_cmd: c3725 get_mac_addr SW5 
Apr 10 15:30:18.966 HYPERVISOR: exec_cmd: vm set_ios SW5 /media/actionmystique/SAMSUNG-Ext4/Images/GNS3/IOS/c3725-adventerprisek9-mz.124-15.T10.image 
Apr 10 15:30:18.966 HYPERVISOR: exec_cmd: vm set_sparse_mem SW5 1 
Apr 10 15:30:18.967 HYPERVISOR: exec_cmd: vm set_ram_mmap SW5 1 
Apr 10 15:30:18.967 HYPERVISOR: exec_cmd: c3725 set_mac_addr SW5 c205.1354.0000 
Apr 10 15:30:18.967 HYPERVISOR: exec_cmd: vm set_ghost_status SW5 2 
Apr 10 15:30:18.967 HYPERVISOR: exec_cmd: vm set_ghost_file SW5 c3725-adventerprisek9-mz.124-15.T10.image-128.ghost 
