Dec 04 11:18:52.994 HYPERVISOR: Release 0.2.17-amd64/Linux (tag 2017072410)
Dec 04 11:18:52.994 HYPERVISOR: Started on IP = 127.0.0.1, TCP port = 47913.
Dec 04 11:18:53.034 HYPERVISOR: exec_cmd: hypervisor version 
Dec 04 11:18:53.036 HYPERVISOR: exec_cmd: hypervisor working_dir /media/actionmystique/SAMSUNG5-VMs/Labs/GNS3/git-Public-Labs-Collection/CCNP-Security/FIREWALL/Jean-Christophe_Manciot/1+/Data Center ASA - ASDM - AAA - VMs-linux/project-files/dynamips 
Dec 04 11:18:53.036 GENERAL: working_dir=/media/actionmystique/SAMSUNG5-VMs/Labs/GNS3/git-Public-Labs-Collection/CCNP-Security/FIREWALL/Jean-Christophe_Manciot/1+/Data Center ASA - ASDM - AAA - VMs-linux/project-files/dynamips
Dec 04 11:18:53.038 HYPERVISOR: exec_cmd: vm create SW0_Internet 11 c3725 
Dec 04 11:18:53.038 VM: VM SW0_Internet created.
Dec 04 11:18:53.040 HYPERVISOR: exec_cmd: vm set_con_tcp_port SW0_Internet 2113 
Dec 04 11:18:53.042 HYPERVISOR: exec_cmd: vm set_aux_tcp_port SW0_Internet 2513 
Dec 04 11:18:53.047 HYPERVISOR: exec_cmd: c3725 get_mac_addr SW0_Internet 
Dec 04 11:18:53.060 HYPERVISOR: exec_cmd: vm get_status SW0_Internet 
Dec 04 11:18:53.064 HYPERVISOR: exec_cmd: vm slot_add_binding SW0_Internet 1 0 NM-16ESW 
Dec 04 11:18:53.066 HYPERVISOR: exec_cmd: vm set_ios SW0_Internet /media/actionmystique/SAMSUNG5-VMs/Images/GNS3/IOS/c3725-adventerprisek9-mz.124-15.T10.image 
Dec 04 11:18:53.067 HYPERVISOR: exec_cmd: vm set_exec_area SW0_Internet 16 
Dec 04 11:18:53.072 HYPERVISOR: exec_cmd: c3725 set_mac_addr SW0_Internet c20b.0758.0000 
Dec 04 11:18:53.074 HYPERVISOR: exec_cmd: vm get_status SW0_Internet 
Dec 04 11:18:53.075 HYPERVISOR: exec_cmd: vm set_idle_pc SW0_Internet 0x602649b4 
Dec 04 11:18:53.076 HYPERVISOR: exec_cmd: vm set_config SW0_Internet configs/i11_startup-config.cfg 
Dec 04 11:18:53.792 HYPERVISOR: exec_cmd: nio create_tap tap-eb634105-34cf-4a92-ac32-86b2c7e84495 tap0 
Dec 04 11:18:53.793 HYPERVISOR: exec_cmd: vm slot_add_nio_binding SW0_Internet 1 0 tap-eb634105-34cf-4a92-ac32-86b2c7e84495 
Dec 04 11:18:53.796 HYPERVISOR: exec_cmd: vm get_status SW0_Internet 
Dec 04 11:18:54.657 HYPERVISOR: exec_cmd: nio create_udp udp-ad26f7ea-d51a-41c7-be88-f4b026550f14 15065 127.0.0.1 15064 
Dec 04 11:18:54.658 HYPERVISOR: exec_cmd: vm slot_add_nio_binding SW0_Internet 1 1 udp-ad26f7ea-d51a-41c7-be88-f4b026550f14 
Dec 04 11:18:54.658 HYPERVISOR: exec_cmd: vm get_status SW0_Internet 
Dec 04 11:18:54.765 HYPERVISOR: exec_cmd: nio create_udp udp-644b0da9-a393-4825-a323-623c47d6dbd2 15075 127.0.0.1 15074 
Dec 04 11:18:54.771 HYPERVISOR: exec_cmd: vm slot_add_nio_binding SW0_Internet 1 2 udp-644b0da9-a393-4825-a323-623c47d6dbd2 
Dec 04 11:18:54.771 HYPERVISOR: exec_cmd: vm get_status SW0_Internet 
