Dec 04 11:20:04.071 HYPERVISOR: Release 0.2.17-amd64/Linux (tag 2017072410)
Dec 04 11:20:04.071 HYPERVISOR: Started on IP = 127.0.0.1, TCP port = 51733.
Dec 04 11:20:04.092 HYPERVISOR: exec_cmd: hypervisor version 
Dec 04 11:20:04.094 HYPERVISOR: exec_cmd: hypervisor working_dir /media/actionmystique/SAMSUNG5-VMs/Labs/GNS3/Data Center ASA - ASDM - AAA - VMs-linux-/project-files/dynamips 
Dec 04 11:20:04.094 GENERAL: working_dir=/media/actionmystique/SAMSUNG5-VMs/Labs/GNS3/Data Center ASA - ASDM - AAA - VMs-linux-/project-files/dynamips
Dec 04 11:20:04.103 HYPERVISOR: exec_cmd: vm create SW5 5 c3725 
Dec 04 11:20:04.103 VM: VM SW5 created.
Dec 04 11:20:04.114 HYPERVISOR: exec_cmd: vm set_con_tcp_port SW5 2005 
Dec 04 11:20:04.124 HYPERVISOR: exec_cmd: vm set_aux_tcp_port SW5 2505 
Dec 04 11:20:04.125 HYPERVISOR: exec_cmd: c3725 get_mac_addr SW5 
Dec 04 11:20:04.127 HYPERVISOR: exec_cmd: vm get_status SW5 
Dec 04 11:20:04.128 HYPERVISOR: exec_cmd: vm slot_add_binding SW5 1 0 NM-16ESW 
Dec 04 11:20:04.130 HYPERVISOR: exec_cmd: vm set_ios SW5 /media/actionmystique/SAMSUNG5-VMs/Images/GNS3/IOS/c3725-adventerprisek9-mz.124-15.T10.image 
Dec 04 11:20:04.131 HYPERVISOR: exec_cmd: vm set_exec_area SW5 16 
Dec 04 11:20:04.132 HYPERVISOR: exec_cmd: c3725 set_mac_addr SW5 c205.1354.0000 
Dec 04 11:20:04.134 HYPERVISOR: exec_cmd: vm get_status SW5 
Dec 04 11:20:04.135 HYPERVISOR: exec_cmd: vm set_idle_pc SW5 0x6148b5dc 
Dec 04 11:20:04.137 HYPERVISOR: exec_cmd: vm set_config SW5 configs/i5_startup-config.cfg 
Dec 04 11:20:04.587 HYPERVISOR: exec_cmd: nio create_udp udp-23472dcb-1d6d-487c-aba7-24a2f21efa5d 20500 127.0.0.1 20000 
Dec 04 11:20:04.587 HYPERVISOR: exec_cmd: vm slot_add_nio_binding SW5 1 3 udp-23472dcb-1d6d-487c-aba7-24a2f21efa5d 
Dec 04 11:20:04.588 HYPERVISOR: exec_cmd: vm get_status SW5 
Dec 04 11:20:04.595 HYPERVISOR: exec_cmd: nio create_udp udp-5e72bd97-d049-4039-92dd-7ed4b1c811b1 20501 127.0.0.1 20001 
Dec 04 11:20:04.595 HYPERVISOR: exec_cmd: vm slot_add_nio_binding SW5 1 4 udp-5e72bd97-d049-4039-92dd-7ed4b1c811b1 
Dec 04 11:20:04.596 HYPERVISOR: exec_cmd: vm get_status SW5 
Dec 04 11:20:04.603 HYPERVISOR: exec_cmd: nio create_udp udp-cd3b36ea-9c12-4fac-bb86-4651245a6d90 20502 127.0.0.1 20002 
Dec 04 11:20:04.604 HYPERVISOR: exec_cmd: vm slot_add_nio_binding SW5 1 5 udp-cd3b36ea-9c12-4fac-bb86-4651245a6d90 
Dec 04 11:20:04.604 HYPERVISOR: exec_cmd: vm get_status SW5 
Dec 04 11:20:04.611 HYPERVISOR: exec_cmd: nio create_udp udp-6ddfe27f-5130-47a3-9538-0f62c27c548a 20503 127.0.0.1 20003 
Dec 04 11:20:04.615 HYPERVISOR: exec_cmd: vm slot_add_nio_binding SW5 1 6 udp-6ddfe27f-5130-47a3-9538-0f62c27c548a 
Dec 04 11:20:04.616 HYPERVISOR: exec_cmd: vm get_status SW5 
Dec 04 11:20:05.468 HYPERVISOR: exec_cmd: nio create_udp udp-748ae8d8-6339-4490-b955-a7cf66dd07ae 15027 127.0.0.1 15026 
Dec 04 11:20:05.472 HYPERVISOR: exec_cmd: vm slot_add_nio_binding SW5 1 2 udp-748ae8d8-6339-4490-b955-a7cf66dd07ae 
Dec 04 11:20:05.473 HYPERVISOR: exec_cmd: vm get_status SW5 
Dec 04 11:20:05.485 HYPERVISOR: exec_cmd: nio create_udp udp-6dea38b5-2b2c-4141-8581-90df484c8ceb 15029 127.0.0.1 15028 
Dec 04 11:20:05.490 HYPERVISOR: exec_cmd: vm slot_add_nio_binding SW5 1 1 udp-6dea38b5-2b2c-4141-8581-90df484c8ceb 
Dec 04 11:20:05.491 HYPERVISOR: exec_cmd: vm get_status SW5 
Dec 04 11:20:55.990 HYPERVISOR: exec_cmd: vm get_status SW5 
Dec 04 11:20:55.994 HYPERVISOR: exec_cmd: vm extract_config SW5 
Dec 04 11:20:56.002 HYPERVISOR: exec_cmd: vm delete SW5 
Dec 04 11:20:56.002 VM: VM SW5 destroyed.
Dec 04 11:20:56.008 HYPERVISOR: exec_cmd: hypervisor stop 
Dec 04 11:20:56.145 HYPERVISOR: Stopped.
Dec 04 11:20:56.145 GENERAL: reset done.
