tclsh
foreach address {
1.1.1.1
5.5.5.5
6.6.6.6
7.7.7.7
192.168.123.1
192.168.123.2
192.168.123.3
192.168.35.3
192.168.35.5
192.168.35.6
192.168.45.4
192.168.45.5
192.168.45.7
} {
traceroute $address }
exit
