Nov 27 15:44:03.591 HYPERVISOR: Release 0.2.17-amd64/Linux (tag 2017072410)
Nov 27 15:44:03.591 HYPERVISOR: Started on IP = 127.0.0.1, TCP port = 46483.
Nov 27 15:44:03.602 HYPERVISOR: exec_cmd: hypervisor version 
Nov 27 15:44:03.603 HYPERVISOR: exec_cmd: hypervisor working_dir /media/actionmystique/SAMSUNG5-VMs/Labs/GNS3/git-Public-Labs-Collection/CCNP/TBSHOOT/L2-Technologies/EtherChannel/L2/Jean-Christophe_Manciot/1+/TT 1-linux/project-files/dynamips 
Nov 27 15:44:03.603 GENERAL: working_dir=/media/actionmystique/SAMSUNG5-VMs/Labs/GNS3/git-Public-Labs-Collection/CCNP/TBSHOOT/L2-Technologies/EtherChannel/L2/Jean-Christophe_Manciot/1+/TT 1-linux/project-files/dynamips
Nov 27 15:44:03.604 HYPERVISOR: exec_cmd: vm create SW2 2 c3725 
Nov 27 15:44:03.604 VM: VM SW2 created.
Nov 27 15:44:03.605 HYPERVISOR: exec_cmd: vm set_con_tcp_port SW2 2002 
Nov 27 15:44:03.606 HYPERVISOR: exec_cmd: c3725 get_mac_addr SW2 
Nov 27 15:44:03.607 HYPERVISOR: exec_cmd: c3725 set_mac_addr SW2 eeee.eeee.eeee 
Nov 27 15:44:03.608 HYPERVISOR: exec_cmd: vm get_status SW2 
Nov 27 15:44:03.609 HYPERVISOR: exec_cmd: vm slot_add_binding SW2 1 0 NM-16ESW 
Nov 27 15:44:03.610 HYPERVISOR: exec_cmd: vm get_status SW2 
Nov 27 15:44:03.611 HYPERVISOR: exec_cmd: vm set_idle_pc SW2 0x614ac2c4 
Nov 27 15:44:03.612 HYPERVISOR: exec_cmd: vm slot_add_binding SW2 0 16 WIC-2T 
Nov 27 15:44:03.614 HYPERVISOR: exec_cmd: vm set_ios SW2 /media/actionmystique/SAMSUNG5-VMs/Images/GNS3/IOS/c3725-adventerprisek9-mz.124-15.T10.image 
Nov 27 15:44:03.616 HYPERVISOR: exec_cmd: vm set_exec_area SW2 16 
Nov 27 15:44:03.617 HYPERVISOR: exec_cmd: vm set_disk0 SW2 1 
Nov 27 15:44:03.619 HYPERVISOR: exec_cmd: vm set_nvram SW2 256 
Nov 27 15:44:03.620 HYPERVISOR: exec_cmd: vm set_config SW2 configs/i2_startup-config.cfg 
Nov 27 15:44:03.622 HYPERVISOR: exec_cmd: vm set_config SW2 configs/i2_startup-config.cfg configs/i2_private-config.cfg 
Nov 27 15:44:03.795 HYPERVISOR: exec_cmd: nio create_udp udp-e627d540-5459-4430-b179-7c11c555e5a1 15000 127.0.0.1 15003 
Nov 27 15:44:03.799 HYPERVISOR: exec_cmd: vm slot_add_nio_binding SW2 1 0 udp-e627d540-5459-4430-b179-7c11c555e5a1 
Nov 27 15:44:03.800 HYPERVISOR: exec_cmd: vm get_status SW2 
Nov 27 15:44:03.806 HYPERVISOR: exec_cmd: nio create_udp udp-a147b755-e8f8-4b65-9074-79417627e9e7 15004 127.0.0.1 15001 
Nov 27 15:44:03.810 HYPERVISOR: exec_cmd: vm slot_add_nio_binding SW2 1 2 udp-a147b755-e8f8-4b65-9074-79417627e9e7 
Nov 27 15:44:03.811 HYPERVISOR: exec_cmd: vm get_status SW2 
Nov 27 15:44:03.873 HYPERVISOR: exec_cmd: nio create_udp udp-0146f86b-529f-4dd5-9711-a875f2a1cf56 15009 127.0.0.1 15008 
Nov 27 15:44:03.873 HYPERVISOR: exec_cmd: vm slot_add_nio_binding SW2 1 1 udp-0146f86b-529f-4dd5-9711-a875f2a1cf56 
Nov 27 15:44:03.874 HYPERVISOR: exec_cmd: vm get_status SW2 
