Nov 29 15:26:44.732 HYPERVISOR: Release 0.2.17-amd64/Linux (tag 2017072410)
Nov 29 15:26:44.732 HYPERVISOR: Started on IP = 127.0.0.1, TCP port = 53937.
Nov 29 15:26:44.750 HYPERVISOR: exec_cmd: hypervisor version 
Nov 29 15:26:44.752 HYPERVISOR: exec_cmd: hypervisor working_dir /media/actionmystique/SAMSUNG5-VMs/Labs/GNS3/TT 3-solutions-linux-/project-files/dynamips 
Nov 29 15:26:44.752 GENERAL: working_dir=/media/actionmystique/SAMSUNG5-VMs/Labs/GNS3/TT 3-solutions-linux-/project-files/dynamips
Nov 29 15:26:44.752 HYPERVISOR: exec_cmd: vm create ESW5 5 c3725 
Nov 29 15:26:44.752 VM: VM ESW5 created.
Nov 29 15:26:44.753 HYPERVISOR: exec_cmd: vm set_con_tcp_port ESW5 2010 
Nov 29 15:26:44.754 HYPERVISOR: exec_cmd: c3725 get_mac_addr ESW5 
Nov 29 15:26:44.755 HYPERVISOR: exec_cmd: vm get_status ESW5 
Nov 29 15:26:44.755 HYPERVISOR: exec_cmd: vm slot_add_binding ESW5 1 0 NM-16ESW 
Nov 29 15:26:44.756 HYPERVISOR: exec_cmd: c3725 set_mac_addr ESW5 c205.6a03.0000 
Nov 29 15:26:44.757 HYPERVISOR: exec_cmd: vm set_disk0 ESW5 1 
Nov 29 15:26:44.758 HYPERVISOR: exec_cmd: vm set_nvram ESW5 256 
Nov 29 15:26:44.759 HYPERVISOR: exec_cmd: vm set_ios ESW5 /media/actionmystique/SAMSUNG5-VMs/Images/GNS3/IOS/c3725-adventerprisek9-mz.124-15.T10.image 
Nov 29 15:26:44.764 HYPERVISOR: exec_cmd: vm get_status ESW5 
Nov 29 15:26:44.768 HYPERVISOR: exec_cmd: vm set_idle_pc ESW5 0x60c05928 
Nov 29 15:26:44.769 HYPERVISOR: exec_cmd: vm slot_add_binding ESW5 0 16 WIC-2T 
Nov 29 15:26:44.770 HYPERVISOR: exec_cmd: vm set_config ESW5 configs/ios_base_startup-config.txt 
Nov 29 15:26:44.770 HYPERVISOR: exec_cmd: vm set_config ESW5 configs/ios_base_startup-config.txt configs/ios_base_private-config.txt 
Nov 29 15:26:45.124 HYPERVISOR: exec_cmd: nio create_udp udp-1ec5e7f7-e4c8-46ab-8e7b-b145bd14056b 15018 127.0.0.1 15016 
Nov 29 15:26:45.125 HYPERVISOR: exec_cmd: vm slot_add_nio_binding ESW5 1 0 udp-1ec5e7f7-e4c8-46ab-8e7b-b145bd14056b 
Nov 29 15:26:45.125 HYPERVISOR: exec_cmd: vm get_status ESW5 
Nov 29 15:26:45.140 HYPERVISOR: exec_cmd: nio create_udp udp-035dc30f-9735-4469-929a-633c33811a88 15017 127.0.0.1 15019 
Nov 29 15:26:45.141 HYPERVISOR: exec_cmd: vm slot_add_nio_binding ESW5 1 1 udp-035dc30f-9735-4469-929a-633c33811a88 
Nov 29 15:26:45.141 HYPERVISOR: exec_cmd: vm get_status ESW5 
Nov 29 15:27:07.171 HYPERVISOR: exec_cmd: vm get_status ESW5 
Nov 29 15:27:07.172 HYPERVISOR: exec_cmd: vm extract_config ESW5 
Nov 29 15:27:07.175 HYPERVISOR: exec_cmd: vm delete ESW5 
Nov 29 15:27:07.175 VM: VM ESW5 destroyed.
Nov 29 15:27:07.177 HYPERVISOR: exec_cmd: hypervisor stop 
Nov 29 15:27:07.269 HYPERVISOR: Stopped.
Nov 29 15:27:07.269 GENERAL: reset done.
