Nov 29 15:26:37.459 HYPERVISOR: Release 0.2.17-amd64/Linux (tag 2017072410)
Nov 29 15:26:37.459 HYPERVISOR: Started on IP = 127.0.0.1, TCP port = 38159.
Nov 29 15:26:37.480 HYPERVISOR: exec_cmd: hypervisor version 
Nov 29 15:26:37.481 HYPERVISOR: exec_cmd: hypervisor working_dir /media/actionmystique/SAMSUNG5-VMs/Labs/GNS3/git-Public-Labs-Collection/CCNP/TBSHOOT/L3-Technologies/IPv4/Routing-Protocols/Redistribution/Jean-Christophe_Manciot/1+/TT 3-solutions-linux/project-files/dynamips 
Nov 29 15:26:37.481 GENERAL: working_dir=/media/actionmystique/SAMSUNG5-VMs/Labs/GNS3/git-Public-Labs-Collection/CCNP/TBSHOOT/L3-Technologies/IPv4/Routing-Protocols/Redistribution/Jean-Christophe_Manciot/1+/TT 3-solutions-linux/project-files/dynamips
Nov 29 15:26:37.482 HYPERVISOR: exec_cmd: vm create ESW2 2 c3725 
Nov 29 15:26:37.482 VM: VM ESW2 created.
Nov 29 15:26:37.483 HYPERVISOR: exec_cmd: vm set_con_tcp_port ESW2 2005 
Nov 29 15:26:37.483 HYPERVISOR: exec_cmd: c3725 get_mac_addr ESW2 
Nov 29 15:26:37.484 HYPERVISOR: exec_cmd: vm get_status ESW2 
Nov 29 15:26:37.487 HYPERVISOR: exec_cmd: vm set_idle_pc ESW2 0x60c05928 
Nov 29 15:26:37.489 HYPERVISOR: exec_cmd: vm get_status ESW2 
Nov 29 15:26:37.489 HYPERVISOR: exec_cmd: vm slot_add_binding ESW2 1 0 NM-16ESW 
Nov 29 15:26:37.490 HYPERVISOR: exec_cmd: vm set_disk0 ESW2 1 
Nov 29 15:26:37.491 HYPERVISOR: exec_cmd: vm set_nvram ESW2 256 
Nov 29 15:26:37.492 HYPERVISOR: exec_cmd: vm set_ios ESW2 /media/actionmystique/SAMSUNG5-VMs/Images/GNS3/IOS/c3725-adventerprisek9-mz.124-15.T10.image 
Nov 29 15:26:37.493 HYPERVISOR: exec_cmd: c3725 set_mac_addr ESW2 c202.1bd4.0000 
Nov 29 15:26:37.493 HYPERVISOR: exec_cmd: vm slot_add_binding ESW2 0 16 WIC-2T 
Nov 29 15:26:37.495 HYPERVISOR: exec_cmd: vm set_config ESW2 configs/ios_base_startup-config.txt 
Nov 29 15:26:37.496 HYPERVISOR: exec_cmd: vm set_config ESW2 configs/ios_base_startup-config.txt configs/ios_base_private-config.txt 
Nov 29 15:26:37.836 HYPERVISOR: exec_cmd: nio create_udp udp-23410c9d-b115-4f70-a4b8-352a5feeca7a 15017 127.0.0.1 15016 
Nov 29 15:26:37.836 HYPERVISOR: exec_cmd: vm slot_add_nio_binding ESW2 1 0 udp-23410c9d-b115-4f70-a4b8-352a5feeca7a 
Nov 29 15:26:37.837 HYPERVISOR: exec_cmd: vm get_status ESW2 
