Nov 29 19:01:48.621 HYPERVISOR: Release 0.2.17-amd64/Linux (tag 2017072410)
Nov 29 19:01:48.621 HYPERVISOR: Started on IP = 127.0.0.1, TCP port = 57863.
Nov 29 19:01:48.638 HYPERVISOR: exec_cmd: hypervisor version 
Nov 29 19:01:48.638 HYPERVISOR: exec_cmd: hypervisor working_dir /media/actionmystique/SAMSUNG5-VMs/Labs/GNS3/git-Public-Labs-Collection/CCNP/TBSHOOT/L3-Technologies/IPv6/Routing/Static Routing/Jean-Christophe_Manciot/1+/TT 1-linux/project-files/dynamips 
Nov 29 19:01:48.638 GENERAL: working_dir=/media/actionmystique/SAMSUNG5-VMs/Labs/GNS3/git-Public-Labs-Collection/CCNP/TBSHOOT/L3-Technologies/IPv6/Routing/Static Routing/Jean-Christophe_Manciot/1+/TT 1-linux/project-files/dynamips
Nov 29 19:01:48.638 HYPERVISOR: exec_cmd: vm create ESW4 4 c3725 
Nov 29 19:01:48.639 VM: VM ESW4 created.
Nov 29 19:01:48.639 HYPERVISOR: exec_cmd: vm set_con_tcp_port ESW4 2006 
Nov 29 19:01:48.639 HYPERVISOR: exec_cmd: c3725 get_mac_addr ESW4 
Nov 29 19:01:48.639 HYPERVISOR: exec_cmd: vm slot_add_binding ESW4 0 16 WIC-2T 
Nov 29 19:01:48.640 HYPERVISOR: exec_cmd: vm set_ios ESW4 /media/actionmystique/SAMSUNG5-VMs/Images/GNS3/IOS/c3725-adventerprisek9-mz.124-15.T10.image 
Nov 29 19:01:48.640 HYPERVISOR: exec_cmd: vm get_status ESW4 
Nov 29 19:01:48.640 HYPERVISOR: exec_cmd: vm set_idle_pc ESW4 0x60c06d20 
Nov 29 19:01:48.641 HYPERVISOR: exec_cmd: vm get_status ESW4 
Nov 29 19:01:48.641 HYPERVISOR: exec_cmd: vm slot_add_binding ESW4 1 0 NM-16ESW 
Nov 29 19:01:48.642 HYPERVISOR: exec_cmd: c3725 set_mac_addr ESW4 c204.44a3.0000 
Nov 29 19:01:48.642 HYPERVISOR: exec_cmd: vm set_disk0 ESW4 1 
Nov 29 19:01:48.642 HYPERVISOR: exec_cmd: vm set_nvram ESW4 256 
Nov 29 19:01:48.643 HYPERVISOR: exec_cmd: vm set_config ESW4 configs/ios_base_startup-config.txt 
Nov 29 19:01:48.643 HYPERVISOR: exec_cmd: vm set_config ESW4 configs/ios_base_startup-config.txt configs/ios_base_private-config.txt 
Nov 29 19:01:48.816 HYPERVISOR: exec_cmd: nio create_udp udp-254aed77-37b0-4259-a4c9-2ba8bfbf038c 15013 127.0.0.1 15014 
Nov 29 19:01:48.817 HYPERVISOR: exec_cmd: vm slot_add_nio_binding ESW4 1 1 udp-254aed77-37b0-4259-a4c9-2ba8bfbf038c 
Nov 29 19:01:48.817 HYPERVISOR: exec_cmd: vm get_status ESW4 
Nov 29 19:01:48.823 HYPERVISOR: exec_cmd: nio create_udp udp-be602b36-f6a4-4f66-b4ab-ec22d60d14d3 15012 127.0.0.1 15015 
Nov 29 19:01:48.828 HYPERVISOR: exec_cmd: vm slot_add_nio_binding ESW4 1 0 udp-be602b36-f6a4-4f66-b4ab-ec22d60d14d3 
Nov 29 19:01:48.829 HYPERVISOR: exec_cmd: vm get_status ESW4 
