Nov 29 19:01:48.599 HYPERVISOR: Release 0.2.17-amd64/Linux (tag 2017072410)
Nov 29 19:01:48.599 HYPERVISOR: Started on IP = 127.0.0.1, TCP port = 57567.
Nov 29 19:01:48.605 HYPERVISOR: exec_cmd: hypervisor version 
Nov 29 19:01:48.605 HYPERVISOR: exec_cmd: hypervisor working_dir /media/actionmystique/SAMSUNG5-VMs/Labs/GNS3/git-Public-Labs-Collection/CCNP/TBSHOOT/L3-Technologies/IPv6/Routing/Static Routing/Jean-Christophe_Manciot/1+/TT 1-linux/project-files/dynamips 
Nov 29 19:01:48.605 GENERAL: working_dir=/media/actionmystique/SAMSUNG5-VMs/Labs/GNS3/git-Public-Labs-Collection/CCNP/TBSHOOT/L3-Technologies/IPv6/Routing/Static Routing/Jean-Christophe_Manciot/1+/TT 1-linux/project-files/dynamips
Nov 29 19:01:48.606 HYPERVISOR: exec_cmd: vm create ESW3 3 c3725 
Nov 29 19:01:48.606 VM: VM ESW3 created.
Nov 29 19:01:48.606 HYPERVISOR: exec_cmd: vm set_con_tcp_port ESW3 2005 
Nov 29 19:01:48.606 HYPERVISOR: exec_cmd: c3725 get_mac_addr ESW3 
Nov 29 19:01:48.607 HYPERVISOR: exec_cmd: vm slot_add_binding ESW3 0 16 WIC-2T 
Nov 29 19:01:48.607 HYPERVISOR: exec_cmd: vm set_ios ESW3 /media/actionmystique/SAMSUNG5-VMs/Images/GNS3/IOS/c3725-adventerprisek9-mz.124-15.T10.image 
Nov 29 19:01:48.607 HYPERVISOR: exec_cmd: vm get_status ESW3 
Nov 29 19:01:48.608 HYPERVISOR: exec_cmd: vm set_idle_pc ESW3 0x60c06d20 
Nov 29 19:01:48.608 HYPERVISOR: exec_cmd: vm get_status ESW3 
Nov 29 19:01:48.608 HYPERVISOR: exec_cmd: vm slot_add_binding ESW3 1 0 NM-16ESW 
Nov 29 19:01:48.609 HYPERVISOR: exec_cmd: c3725 set_mac_addr ESW3 c203.4490.0000 
Nov 29 19:01:48.609 HYPERVISOR: exec_cmd: vm set_disk0 ESW3 1 
Nov 29 19:01:48.610 HYPERVISOR: exec_cmd: vm set_nvram ESW3 256 
Nov 29 19:01:48.610 HYPERVISOR: exec_cmd: vm set_config ESW3 configs/ios_base_startup-config.txt 
Nov 29 19:01:48.611 HYPERVISOR: exec_cmd: vm set_config ESW3 configs/ios_base_startup-config.txt configs/ios_base_private-config.txt 
Nov 29 19:01:48.725 HYPERVISOR: exec_cmd: nio create_udp udp-1b5442cc-4c6f-47d3-9198-49a7448aa278 15008 127.0.0.1 15006 
Nov 29 19:01:48.725 HYPERVISOR: exec_cmd: vm slot_add_nio_binding ESW3 1 1 udp-1b5442cc-4c6f-47d3-9198-49a7448aa278 
Nov 29 19:01:48.726 HYPERVISOR: exec_cmd: vm get_status ESW3 
Nov 29 19:01:48.765 HYPERVISOR: exec_cmd: nio create_udp udp-2110d592-3e52-4ea8-9fbd-d759db313969 15009 127.0.0.1 15010 
Nov 29 19:01:48.770 HYPERVISOR: exec_cmd: vm slot_add_nio_binding ESW3 1 0 udp-2110d592-3e52-4ea8-9fbd-d759db313969 
Nov 29 19:01:48.777 HYPERVISOR: exec_cmd: vm get_status ESW3 
Nov 29 19:01:48.783 HYPERVISOR: exec_cmd: nio create_udp udp-7927af67-c4cd-47ff-9a4a-da043c5b585c 15011 127.0.0.1 15007 
Nov 29 19:01:48.784 HYPERVISOR: exec_cmd: vm slot_add_nio_binding ESW3 1 2 udp-7927af67-c4cd-47ff-9a4a-da043c5b585c 
Nov 29 19:01:48.784 HYPERVISOR: exec_cmd: vm get_status ESW3 
