Nov 29 15:29:52.489 HYPERVISOR: Release 0.2.17-amd64/Linux (tag 2017072410)
Nov 29 15:29:52.489 HYPERVISOR: Started on IP = 127.0.0.1, TCP port = 57301.
Nov 29 15:29:52.514 HYPERVISOR: exec_cmd: hypervisor version 
Nov 29 15:29:52.515 HYPERVISOR: exec_cmd: hypervisor working_dir /media/actionmystique/SAMSUNG5-VMs/Labs/GNS3/TT 4-solutions-linux-/project-files/dynamips 
Nov 29 15:29:52.515 GENERAL: working_dir=/media/actionmystique/SAMSUNG5-VMs/Labs/GNS3/TT 4-solutions-linux-/project-files/dynamips
Nov 29 15:29:52.516 HYPERVISOR: exec_cmd: vm create ESW4 4 c3725 
Nov 29 15:29:52.516 VM: VM ESW4 created.
Nov 29 15:29:52.546 HYPERVISOR: exec_cmd: vm set_con_tcp_port ESW4 2009 
Nov 29 15:29:52.558 HYPERVISOR: exec_cmd: c3725 get_mac_addr ESW4 
Nov 29 15:29:52.561 HYPERVISOR: exec_cmd: vm set_nvram ESW4 256 
Nov 29 15:29:52.562 HYPERVISOR: exec_cmd: vm slot_add_binding ESW4 0 16 WIC-2T 
Nov 29 15:29:52.564 HYPERVISOR: exec_cmd: c3725 set_mac_addr ESW4 c204.68ae.0000 
Nov 29 15:29:52.565 HYPERVISOR: exec_cmd: vm set_disk0 ESW4 1 
Nov 29 15:29:52.566 HYPERVISOR: exec_cmd: vm set_ios ESW4 /media/actionmystique/SAMSUNG5-VMs/Images/GNS3/IOS/c3725-adventerprisek9-mz.124-15.T10.image 
Nov 29 15:29:52.567 HYPERVISOR: exec_cmd: vm get_status ESW4 
Nov 29 15:29:52.571 HYPERVISOR: exec_cmd: vm set_idle_pc ESW4 0x6026b804 
Nov 29 15:29:52.582 HYPERVISOR: exec_cmd: vm get_status ESW4 
Nov 29 15:29:52.583 HYPERVISOR: exec_cmd: vm slot_add_binding ESW4 1 0 NM-16ESW 
Nov 29 15:29:52.585 HYPERVISOR: exec_cmd: vm set_config ESW4 configs/ios_base_startup-config.txt 
Nov 29 15:29:52.586 HYPERVISOR: exec_cmd: vm set_config ESW4 configs/ios_base_startup-config.txt configs/ios_base_private-config.txt 
Nov 29 15:29:53.104 HYPERVISOR: exec_cmd: nio create_udp udp-b00a2810-7762-4b8e-9f00-80a804bed143 15008 127.0.0.1 15010 
Nov 29 15:29:53.105 HYPERVISOR: exec_cmd: vm slot_add_nio_binding ESW4 1 1 udp-b00a2810-7762-4b8e-9f00-80a804bed143 
Nov 29 15:29:53.105 HYPERVISOR: exec_cmd: vm get_status ESW4 
Nov 29 15:29:53.136 HYPERVISOR: exec_cmd: nio create_udp udp-4cc22e83-9b2c-4f9c-a8bc-fe47ca28ee5d 15009 127.0.0.1 15011 
Nov 29 15:29:53.137 HYPERVISOR: exec_cmd: vm slot_add_nio_binding ESW4 1 2 udp-4cc22e83-9b2c-4f9c-a8bc-fe47ca28ee5d 
Nov 29 15:29:53.137 HYPERVISOR: exec_cmd: vm get_status ESW4 
Nov 29 15:29:53.195 HYPERVISOR: exec_cmd: nio create_udp udp-1b4543cc-fca6-49e5-b5d9-b95d112523b8 15016 127.0.0.1 15017 
Nov 29 15:29:53.196 HYPERVISOR: exec_cmd: vm slot_add_nio_binding ESW4 1 0 udp-1b4543cc-fca6-49e5-b5d9-b95d112523b8 
Nov 29 15:29:53.196 HYPERVISOR: exec_cmd: vm get_status ESW4 
Nov 29 15:30:03.910 HYPERVISOR: exec_cmd: vm get_status ESW4 
Nov 29 15:30:03.912 HYPERVISOR: exec_cmd: vm extract_config ESW4 
Nov 29 15:30:03.916 HYPERVISOR: exec_cmd: vm delete ESW4 
Nov 29 15:30:03.916 VM: VM ESW4 destroyed.
Nov 29 15:30:03.919 HYPERVISOR: exec_cmd: hypervisor stop 
Nov 29 15:30:04.018 HYPERVISOR: Stopped.
Nov 29 15:30:04.018 GENERAL: reset done.
