Nov 26 20:45:44.970 HYPERVISOR: Release 0.2.17-amd64/Linux (tag 2017072410)
Nov 26 20:45:44.970 HYPERVISOR: Started on IP = 127.0.0.1, TCP port = 57739.
Nov 26 20:45:44.990 HYPERVISOR: exec_cmd: hypervisor version 
Nov 26 20:45:44.995 HYPERVISOR: exec_cmd: hypervisor working_dir /media/actionmystique/SAMSUNG5-VMs/Labs/GNS3/RIPng/project-files/dynamips 
Nov 26 20:45:44.995 GENERAL: working_dir=/media/actionmystique/SAMSUNG5-VMs/Labs/GNS3/RIPng/project-files/dynamips
Nov 26 20:45:45.006 HYPERVISOR: exec_cmd: vm create WAN2 7 c7200 
Nov 26 20:45:45.006 VM: VM WAN2 created.
Nov 26 20:45:45.008 HYPERVISOR: exec_cmd: vm set_con_tcp_port WAN2 2002 
Nov 26 20:45:45.018 HYPERVISOR: exec_cmd: vm set_aux_tcp_port WAN2 2102 
Nov 26 20:45:45.031 HYPERVISOR: exec_cmd: c7200 get_mac_addr WAN2 
Nov 26 20:45:45.035 HYPERVISOR: exec_cmd: vm get_status WAN2 
Nov 26 20:45:45.037 HYPERVISOR: exec_cmd: vm slot_add_binding WAN2 0 0 C7200-IO-FE 
Nov 26 20:45:45.038 HYPERVISOR: exec_cmd: vm get_status WAN2 
Nov 26 20:45:45.039 HYPERVISOR: exec_cmd: vm slot_remove_binding WAN2 0 0 
Nov 26 20:45:45.040 HYPERVISOR: exec_cmd: vm get_status WAN2 
Nov 26 20:45:45.047 HYPERVISOR: exec_cmd: vm slot_add_binding WAN2 0 0 C7200-IO-GE-E 
Nov 26 20:45:45.050 HYPERVISOR: exec_cmd: vm get_status WAN2 
Nov 26 20:45:45.052 HYPERVISOR: exec_cmd: vm slot_add_binding WAN2 2 0 PA-2FE-TX 
Nov 26 20:45:45.054 HYPERVISOR: exec_cmd: vm set_ram WAN2 512 
Nov 26 20:45:45.055 HYPERVISOR: exec_cmd: vm get_status WAN2 
Nov 26 20:45:45.056 HYPERVISOR: exec_cmd: vm set_idle_pc WAN2 0x62a29de4 
Nov 26 20:45:45.057 HYPERVISOR: exec_cmd: vm get_status WAN2 
Nov 26 20:45:45.058 HYPERVISOR: exec_cmd: vm slot_add_binding WAN2 1 0 PA-8T 
Nov 26 20:45:45.060 HYPERVISOR: exec_cmd: vm set_ios WAN2 /media/actionmystique/SAMSUNG5-VMs/Images/GNS3/IOS/c7200-adventerprisek9-mz.152-4.S.image 
Nov 26 20:45:45.062 HYPERVISOR: exec_cmd: vm set_config WAN2 configs/i7_startup-config.cfg 
Nov 26 20:45:45.410 HYPERVISOR: exec_cmd: vm extract_config WAN2 
Nov 26 20:45:45.520 HYPERVISOR: exec_cmd: nio create_udp udp-eff449b3-3562-4106-88e9-a8b347d86951 15013 127.0.0.1 15012 
Nov 26 20:45:45.520 HYPERVISOR: exec_cmd: vm slot_add_nio_binding WAN2 1 0 udp-eff449b3-3562-4106-88e9-a8b347d86951 
Nov 26 20:45:45.521 HYPERVISOR: exec_cmd: vm get_status WAN2 
Nov 26 20:45:45.526 HYPERVISOR: exec_cmd: nio create_udp udp-498a1109-33a3-45f5-b49b-db167d2c30f5 15015 127.0.0.1 15016 
Nov 26 20:45:45.528 HYPERVISOR: exec_cmd: vm slot_add_nio_binding WAN2 0 0 udp-498a1109-33a3-45f5-b49b-db167d2c30f5 
Nov 26 20:45:45.528 HYPERVISOR: exec_cmd: vm get_status WAN2 
Nov 26 20:45:45.579 HYPERVISOR: exec_cmd: nio create_udp udp-3965c45d-1bd3-47c7-b810-840927d3746d 15017 127.0.0.1 15014 
Nov 26 20:45:45.580 HYPERVISOR: exec_cmd: vm slot_add_nio_binding WAN2 2 1 udp-3965c45d-1bd3-47c7-b810-840927d3746d 
Nov 26 20:45:45.580 HYPERVISOR: exec_cmd: vm get_status WAN2 
Nov 26 20:45:45.628 HYPERVISOR: exec_cmd: nio create_udp udp-b1d8c067-e50d-47d3-88a1-0c09bb507e0a 15021 127.0.0.1 15022 
Nov 26 20:45:45.629 HYPERVISOR: exec_cmd: vm slot_add_nio_binding WAN2 2 0 udp-b1d8c067-e50d-47d3-88a1-0c09bb507e0a 
Nov 26 20:45:45.629 HYPERVISOR: exec_cmd: vm get_status WAN2 
Nov 26 20:45:49.344 HYPERVISOR: exec_cmd: vm extract_config WAN2 
Nov 26 20:47:04.617 HYPERVISOR: exec_cmd: vm get_status WAN2 
Nov 26 20:47:04.620 HYPERVISOR: exec_cmd: vm extract_config WAN2 
Nov 26 20:47:04.622 HYPERVISOR: exec_cmd: vm delete WAN2 
Nov 26 20:47:04.622 VM: VM WAN2 destroyed.
Nov 26 20:47:04.624 HYPERVISOR: exec_cmd: hypervisor stop 
Nov 26 20:47:05.070 HYPERVISOR: Stopped.
Nov 26 20:47:05.070 GENERAL: reset done.
