Nov 26 20:50:06.563 HYPERVISOR: Release 0.2.17-amd64/Linux (tag 2017072410)
Nov 26 20:50:06.563 HYPERVISOR: Started on IP = 127.0.0.1, TCP port = 53555.
Nov 26 20:50:06.599 HYPERVISOR: exec_cmd: hypervisor version 
Nov 26 20:50:06.606 HYPERVISOR: exec_cmd: hypervisor working_dir /media/actionmystique/SAMSUNG5-VMs/Labs/GNS3/OSPF - EIGRP - RIP/project-files/dynamips 
Nov 26 20:50:06.606 GENERAL: working_dir=/media/actionmystique/SAMSUNG5-VMs/Labs/GNS3/OSPF - EIGRP - RIP/project-files/dynamips
Nov 26 20:50:06.610 HYPERVISOR: exec_cmd: vm create R15 16 c7200 
Nov 26 20:50:06.610 VM: VM R15 created.
Nov 26 20:50:06.613 HYPERVISOR: exec_cmd: vm set_con_tcp_port R15 2017 
Nov 26 20:50:06.619 HYPERVISOR: exec_cmd: vm set_aux_tcp_port R15 2517 
Nov 26 20:50:06.622 HYPERVISOR: exec_cmd: c7200 get_mac_addr R15 
Nov 26 20:50:06.625 HYPERVISOR: exec_cmd: vm get_status R15 
Nov 26 20:50:06.626 HYPERVISOR: exec_cmd: vm slot_add_binding R15 0 0 C7200-IO-FE 
Nov 26 20:50:06.627 HYPERVISOR: exec_cmd: vm get_status R15 
Nov 26 20:50:06.629 HYPERVISOR: exec_cmd: vm slot_remove_binding R15 0 0 
Nov 26 20:50:06.634 HYPERVISOR: exec_cmd: vm get_status R15 
Nov 26 20:50:06.636 HYPERVISOR: exec_cmd: vm slot_add_binding R15 0 0 C7200-IO-GE-E 
Nov 26 20:50:06.637 HYPERVISOR: exec_cmd: vm set_ram R15 512 
Nov 26 20:50:06.638 HYPERVISOR: exec_cmd: vm get_status R15 
Nov 26 20:50:06.640 HYPERVISOR: exec_cmd: vm set_idle_pc R15 0x60188e14 
Nov 26 20:50:06.641 HYPERVISOR: exec_cmd: vm get_status R15 
Nov 26 20:50:06.643 HYPERVISOR: exec_cmd: vm slot_add_binding R15 1 0 PA-8T 
Nov 26 20:50:06.644 HYPERVISOR: exec_cmd: vm set_ios R15 /media/actionmystique/SAMSUNG5-VMs/Images/GNS3/IOS/c7200-adventerprisek9-mz.152-4.M2.image 
Nov 26 20:50:06.645 HYPERVISOR: exec_cmd: vm set_config R15 configs/i16_startup-config.cfg 
Nov 26 20:50:07.247 HYPERVISOR: exec_cmd: vm extract_config R15 
Nov 26 20:50:07.719 HYPERVISOR: exec_cmd: nio create_udp udp-af771447-e510-4bac-a8c8-9e48672ed235 15042 127.0.0.1 15044 
Nov 26 20:50:07.720 HYPERVISOR: exec_cmd: vm slot_add_nio_binding R15 0 0 udp-af771447-e510-4bac-a8c8-9e48672ed235 
Nov 26 20:50:07.720 HYPERVISOR: exec_cmd: vm get_status R15 
Nov 26 20:50:07.740 HYPERVISOR: exec_cmd: nio create_udp udp-2f2dd111-ed35-4f2f-8181-f9ac5f1f7e32 15043 127.0.0.1 15045 
Nov 26 20:50:07.744 HYPERVISOR: exec_cmd: vm slot_add_nio_binding R15 1 0 udp-2f2dd111-ed35-4f2f-8181-f9ac5f1f7e32 
Nov 26 20:50:07.745 HYPERVISOR: exec_cmd: vm get_status R15 
Nov 26 20:53:18.110 HYPERVISOR: exec_cmd: vm get_status R15 
Nov 26 20:53:18.116 HYPERVISOR: exec_cmd: vm extract_config R15 
Nov 26 20:53:18.120 HYPERVISOR: exec_cmd: vm delete R15 
Nov 26 20:53:18.120 VM: VM R15 destroyed.
Nov 26 20:53:18.125 HYPERVISOR: exec_cmd: hypervisor stop 
Nov 26 20:53:18.279 HYPERVISOR: Stopped.
Nov 26 20:53:18.279 GENERAL: reset done.
