Nov 27 16:22:04.982 HYPERVISOR: Release 0.2.17-amd64/Linux (tag 2017072410)
Nov 27 16:22:04.982 HYPERVISOR: Started on IP = 127.0.0.1, TCP port = 33801.
Nov 27 16:22:04.997 HYPERVISOR: exec_cmd: hypervisor version 
Nov 27 16:22:04.998 HYPERVISOR: exec_cmd: hypervisor working_dir /media/actionmystique/SAMSUNG5-VMs/Labs/GNS3/git-Public-Labs-Collection/CCNP/TBSHOOT/L3-Technologies/IPv4/High-Availability/HSRP/Jean-Christophe_Manciot/1+/TT 3-linux/project-files/dynamips 
Nov 27 16:22:04.998 GENERAL: working_dir=/media/actionmystique/SAMSUNG5-VMs/Labs/GNS3/git-Public-Labs-Collection/CCNP/TBSHOOT/L3-Technologies/IPv4/High-Availability/HSRP/Jean-Christophe_Manciot/1+/TT 3-linux/project-files/dynamips
Nov 27 16:22:04.999 HYPERVISOR: exec_cmd: vm create SW3 3 c3725 
Nov 27 16:22:04.999 VM: VM SW3 created.
Nov 27 16:22:05.000 HYPERVISOR: exec_cmd: vm set_con_tcp_port SW3 2003 
Nov 27 16:22:05.000 HYPERVISOR: exec_cmd: c3725 get_mac_addr SW3 
Nov 27 16:22:05.001 HYPERVISOR: exec_cmd: vm set_nvram SW3 256 
Nov 27 16:22:05.002 HYPERVISOR: exec_cmd: vm get_status SW3 
Nov 27 16:22:05.002 HYPERVISOR: exec_cmd: vm set_idle_pc SW3 0x614ac21c 
Nov 27 16:22:05.003 HYPERVISOR: exec_cmd: c3725 set_mac_addr SW3 cccc.cccc.cccc 
Nov 27 16:22:05.004 HYPERVISOR: exec_cmd: vm set_exec_area SW3 16 
Nov 27 16:22:05.005 HYPERVISOR: exec_cmd: vm get_status SW3 
Nov 27 16:22:05.006 HYPERVISOR: exec_cmd: vm slot_add_binding SW3 1 0 NM-16ESW 
Nov 27 16:22:05.008 HYPERVISOR: exec_cmd: vm set_ios SW3 /media/actionmystique/SAMSUNG5-VMs/Images/GNS3/IOS/c3725-adventerprisek9-mz.124-15.T10.image 
Nov 27 16:22:05.009 HYPERVISOR: exec_cmd: vm slot_add_binding SW3 0 16 WIC-2T 
Nov 27 16:22:05.010 HYPERVISOR: exec_cmd: vm set_disk0 SW3 1 
Nov 27 16:22:05.012 HYPERVISOR: exec_cmd: vm set_config SW3 configs/i3_startup-config.cfg 
Nov 27 16:22:05.017 HYPERVISOR: exec_cmd: vm set_config SW3 configs/i3_startup-config.cfg configs/i3_private-config.cfg 
Nov 27 16:22:05.205 HYPERVISOR: exec_cmd: nio create_udp udp-8e9a8fdf-9efc-4762-b501-8d3cddb0cee5 15002 127.0.0.1 15001 
Nov 27 16:22:05.205 HYPERVISOR: exec_cmd: vm slot_add_nio_binding SW3 1 6 udp-8e9a8fdf-9efc-4762-b501-8d3cddb0cee5 
Nov 27 16:22:05.206 HYPERVISOR: exec_cmd: vm get_status SW3 
Nov 27 16:22:05.217 HYPERVISOR: exec_cmd: nio create_udp udp-6609d4a4-da22-4c73-b784-5298a2d1c7dd 15000 127.0.0.1 15004 
Nov 27 16:22:05.219 HYPERVISOR: exec_cmd: vm slot_add_nio_binding SW3 1 5 udp-6609d4a4-da22-4c73-b784-5298a2d1c7dd 
Nov 27 16:22:05.219 HYPERVISOR: exec_cmd: vm get_status SW3 
Nov 27 16:22:05.230 HYPERVISOR: exec_cmd: nio create_udp udp-d23236ad-45cb-462c-bd09-30f2a821e2ad 15003 127.0.0.1 15005 
Nov 27 16:22:05.232 HYPERVISOR: exec_cmd: vm slot_add_nio_binding SW3 1 1 udp-d23236ad-45cb-462c-bd09-30f2a821e2ad 
Nov 27 16:22:05.232 HYPERVISOR: exec_cmd: vm get_status SW3 
Nov 27 16:22:05.293 HYPERVISOR: exec_cmd: nio create_udp udp-6df446dc-c9cb-4820-80ca-97049ad7eee1 15012 127.0.0.1 15011 
Nov 27 16:22:05.293 HYPERVISOR: exec_cmd: vm slot_add_nio_binding SW3 1 2 udp-6df446dc-c9cb-4820-80ca-97049ad7eee1 
Nov 27 16:22:05.294 HYPERVISOR: exec_cmd: vm get_status SW3 
