Nov 27 16:22:11.271 HYPERVISOR: Release 0.2.17-amd64/Linux (tag 2017072410)
Nov 27 16:22:11.271 HYPERVISOR: Started on IP = 127.0.0.1, TCP port = 53255.
Nov 27 16:22:11.285 HYPERVISOR: exec_cmd: hypervisor version 
Nov 27 16:22:11.286 HYPERVISOR: exec_cmd: hypervisor working_dir /media/actionmystique/SAMSUNG5-VMs/Labs/GNS3/TT 3-linux-/project-files/dynamips 
Nov 27 16:22:11.286 GENERAL: working_dir=/media/actionmystique/SAMSUNG5-VMs/Labs/GNS3/TT 3-linux-/project-files/dynamips
Nov 27 16:22:11.286 HYPERVISOR: exec_cmd: vm create Core 4 c3725 
Nov 27 16:22:11.286 VM: VM Core created.
Nov 27 16:22:11.286 HYPERVISOR: exec_cmd: vm set_con_tcp_port Core 2005 
Nov 27 16:22:11.287 HYPERVISOR: exec_cmd: c3725 get_mac_addr Core 
Nov 27 16:22:11.287 HYPERVISOR: exec_cmd: vm set_ram Core 256 
Nov 27 16:22:11.287 HYPERVISOR: exec_cmd: vm set_nvram Core 256 
Nov 27 16:22:11.288 HYPERVISOR: exec_cmd: vm get_status Core 
Nov 27 16:22:11.288 HYPERVISOR: exec_cmd: vm set_idle_pc Core 0x614ac21c 
Nov 27 16:22:11.288 HYPERVISOR: exec_cmd: c3725 set_mac_addr Core c204.0c3e.0000 
Nov 27 16:22:11.289 HYPERVISOR: exec_cmd: vm get_status Core 
Nov 27 16:22:11.289 HYPERVISOR: exec_cmd: vm slot_add_binding Core 1 0 NM-16ESW 
Nov 27 16:22:11.289 HYPERVISOR: exec_cmd: vm set_disk0 Core 1 
Nov 27 16:22:11.290 HYPERVISOR: exec_cmd: vm set_ios Core /media/actionmystique/SAMSUNG5-VMs/Images/GNS3/IOS/c3725-adventerprisek9-mz.124-15.T10.image 
Nov 27 16:22:11.290 HYPERVISOR: exec_cmd: vm slot_add_binding Core 0 16 WIC-2T 
Nov 27 16:22:11.291 HYPERVISOR: exec_cmd: vm set_config Core configs/i4_startup-config.cfg 
Nov 27 16:22:11.291 HYPERVISOR: exec_cmd: vm set_config Core configs/i4_startup-config.cfg configs/i4_private-config.cfg 
Nov 27 16:22:11.557 HYPERVISOR: exec_cmd: nio create_udp udp-b6dc53b8-e6ba-4e22-8ed5-65ba26ff66c7 15003 127.0.0.1 15004 
Nov 27 16:22:11.565 HYPERVISOR: exec_cmd: vm slot_add_nio_binding Core 1 1 udp-b6dc53b8-e6ba-4e22-8ed5-65ba26ff66c7 
Nov 27 16:22:11.566 HYPERVISOR: exec_cmd: vm get_status Core 
Nov 27 16:22:11.657 HYPERVISOR: exec_cmd: nio create_udp udp-d7695642-d9f9-41ba-8db8-a90c0c53a09b 15011 127.0.0.1 15012 
Nov 27 16:22:11.657 HYPERVISOR: exec_cmd: vm slot_add_nio_binding Core 1 0 udp-d7695642-d9f9-41ba-8db8-a90c0c53a09b 
Nov 27 16:22:11.657 HYPERVISOR: exec_cmd: vm get_status Core 
Nov 27 16:22:26.528 HYPERVISOR: exec_cmd: vm get_status Core 
Nov 27 16:22:26.530 HYPERVISOR: exec_cmd: vm extract_config Core 
Nov 27 16:22:26.533 HYPERVISOR: exec_cmd: vm delete Core 
Nov 27 16:22:26.533 VM: VM Core destroyed.
Nov 27 16:22:26.536 HYPERVISOR: exec_cmd: hypervisor stop 
Nov 27 16:22:26.801 HYPERVISOR: Stopped.
Nov 27 16:22:26.801 GENERAL: reset done.
